%!PS-Adobe-3.0 EPSF-3.0 
%%BoundingBox: 0 0 454 255
%%Pages: 0
%%Creator: LibreOffice 5.2
%%Title: none
%%CreationDate: none
%%LanguageLevel: 2
%%EndComments
%%BeginProlog
%%BeginResource: procset SDRes-Prolog 1.0 0
/b4_inc_state save def
/dict_count countdictstack def
/op_count count 1 sub def
userdict begin
0 setgray 0 setlinecap 1 setlinewidth 0 setlinejoin 10 setmiterlimit[] 0 setdash newpath
/languagelevel where {pop languagelevel 1 ne {false setstrokeadjust false setoverprint} if} if
/bdef {bind def} bind def
/c {setrgbcolor} bdef
/l {neg lineto} bdef
/rl {neg rlineto} bdef
/lc {setlinecap} bdef
/lj {setlinejoin} bdef
/lw {setlinewidth} bdef
/ml {setmiterlimit} bdef
/ld {setdash} bdef
/m {neg moveto} bdef
/ct {6 2 roll neg 6 2 roll neg 6 2 roll neg curveto} bdef
/r {rotate} bdef
/t {neg translate} bdef
/s {scale} bdef
/sw {show} bdef
/gs {gsave} bdef
/gr {grestore} bdef
/f {findfont dup length dict begin
{1 index /FID ne {def} {pop pop} ifelse} forall /Encoding ISOLatin1Encoding def
currentdict end /NFont exch definefont pop /NFont findfont} bdef
/p {closepath} bdef
/sf {scalefont setfont} bdef
/ef {eofill}bdef
/pc {closepath stroke}bdef
/ps {stroke}bdef
/pum {matrix currentmatrix}bdef
/pom {setmatrix}bdef
/bs {/aString exch def /nXOfs exch def /nWidth exch def currentpoint nXOfs 0 rmoveto pum nWidth aString stringwidth pop div 1 scale aString show pom moveto} bdef
%%EndResource
%%EndProlog
%%BeginSetup
%%EndSetup
%%Page: 1 1
%%BeginPageSetup
%%EndPageSetup
pum
0.02837 0.02833 s 
0 -9000 t
/tm matrix currentmatrix def
tm setmatrix
-21207 -10858 t 
1 1 s 
1.000 1.000 1.000 c 29216 19857 m  21216 19857 l  21216 10858 l  37215 10858 l 
37215 19857 l  29216 19857 l  p ef
0 lw 1 lj 0.703 0.703 0.703 c 29525 19030 m  22528 19030 l  22528 11237 l 
36523 11237 l  36523 19030 l  29525 19030 l  pc
36523 19029 m  22528 19029 l  ps
36523 18163 m  22528 18163 l  ps
36523 17297 m  22528 17297 l  ps
36523 16431 m  22528 16431 l  ps
36523 15565 m  22528 15565 l  ps
36523 14700 m  22528 14700 l  ps
36523 13834 m  22528 13834 l  ps
36523 12968 m  22528 12968 l  ps
36523 12102 m  22528 12102 l  ps
36523 11236 m  22528 11236 l  ps
22528 19179 m  22528 19029 l  ps
22528 19179 m  22528 19029 l  ps
23111 19179 m  23111 19029 l  ps
23111 19179 m  23111 19029 l  ps
23694 19179 m  23694 19029 l  ps
23694 19179 m  23694 19029 l  ps
24277 19179 m  24277 19029 l  ps
24277 19179 m  24277 19029 l  ps
24860 19179 m  24860 19029 l  ps
24860 19179 m  24860 19029 l  ps
25443 19179 m  25443 19029 l  ps
25443 19179 m  25443 19029 l  ps
26027 19179 m  26027 19029 l  ps
26027 19179 m  26027 19029 l  ps
26610 19179 m  26610 19029 l  ps
26610 19179 m  26610 19029 l  ps
27193 19179 m  27193 19029 l  ps
27193 19179 m  27193 19029 l  ps
27776 19179 m  27776 19029 l  ps
27776 19179 m  27776 19029 l  ps
28359 19179 m  28359 19029 l  ps
28359 19179 m  28359 19029 l  ps
28942 19179 m  28942 19029 l  ps
28942 19179 m  28942 19029 l  ps
29525 19179 m  29525 19029 l  ps
29525 19179 m  29525 19029 l  ps
30108 19179 m  30108 19029 l  ps
30108 19179 m  30108 19029 l  ps
30691 19179 m  30691 19029 l  ps
30691 19179 m  30691 19029 l  ps
31274 19179 m  31274 19029 l  ps
31274 19179 m  31274 19029 l  ps
31857 19179 m  31857 19029 l  ps
31857 19179 m  31857 19029 l  ps
32440 19179 m  32440 19029 l  ps
32440 19179 m  32440 19029 l  ps
33024 19179 m  33024 19029 l  ps
33024 19179 m  33024 19029 l  ps
33607 19179 m  33607 19029 l  ps
33607 19179 m  33607 19029 l  ps
34190 19179 m  34190 19029 l  ps
34190 19179 m  34190 19029 l  ps
34773 19179 m  34773 19029 l  ps
34773 19179 m  34773 19029 l  ps
35356 19179 m  35356 19029 l  ps
35356 19179 m  35356 19029 l  ps
35939 19179 m  35939 19029 l  ps
35939 19179 m  35939 19029 l  ps
36523 19179 m  36523 19029 l  ps
36523 19179 m  36523 19029 l  ps
22528 19029 m  36523 19029 l  ps
22378 19029 m  22528 19029 l  ps
22378 19029 m  22528 19029 l  ps
22378 18163 m  22528 18163 l  ps
22378 18163 m  22528 18163 l  ps
22378 17297 m  22528 17297 l  ps
22378 17297 m  22528 17297 l  ps
22378 16431 m  22528 16431 l  ps
22378 16431 m  22528 16431 l  ps
22378 15565 m  22528 15565 l  ps
22378 15565 m  22528 15565 l  ps
22378 14700 m  22528 14700 l  ps
22378 14700 m  22528 14700 l  ps
22378 13833 m  22528 13833 l  ps
22378 13833 m  22528 13833 l  ps
22378 12968 m  22528 12968 l  ps
22378 12968 m  22528 12968 l  ps
22378 12101 m  22528 12101 l  ps
22378 12101 m  22528 12101 l  ps
22378 11236 m  22528 11236 l  ps
22378 11236 m  22528 11236 l  ps
22528 19029 m  22528 11236 l  ps
99.99375 lw 0.195 0.253 0.019 c 22528 19028 m  22557 19028 l  22586 19028 l 
22615 19028 l  22644 19028 l  22673 19028 l  22702 19027 l  22732 19027 l 
22761 19027 l  22790 19027 l  22819 19027 l  22848 19027 l  22877 19027 l 
22907 19026 l  22936 19026 l  22965 19026 l  22994 19026 l  23023 19026 l 
23052 19026 l  23082 19025 l  23111 19025 l  23140 19025 l  23169 19025 l 
23198 19024 l  23227 19024 l  23256 19024 l  23286 19023 l  23315 19023 l 
23344 19023 l  23373 19022 l  23402 19022 l  23431 19021 l  23461 19021 l 
23490 19020 l  23519 19020 l  23548 19020 l  23577 19019 l  23606 19018 l 
23636 19018 l  23665 19017 l  23694 19017 l  23723 19016 l  23752 19016 l 
23781 19015 l  23810 19014 l  23840 19014 l  23869 19013 l  23898 19012 l 
23927 19011 l  23956 19011 l  23985 19010 l  24015 19009 l  24044 19008 l 
24073 19007 l  24102 19007 l  24131 19006 l  24160 19005 l  24190 19004 l 
24219 19003 l  24248 19002 l  24277 19001 l  24306 19000 l  24335 18999 l 
24364 18998 l  24394 18996 l  24423 18995 l  24452 18994 l  24481 18993 l 
24510 18992 l  24539 18990 l  24569 18989 l  24598 18988 l  24627 18986 l 
24656 18985 l  24685 18984 l  24714 18982 l  24744 18981 l  24773 18979 l 
24802 18978 l  24831 18976 l  24860 18974 l  24889 18973 l  24918 18971 l 
24948 18969 l  24977 18968 l  25006 18966 l  25035 18964 l  25064 18962 l 
25093 18960 l  25123 18958 l  25152 18956 l  25181 18954 l  25210 18952 l 
25239 18950 l  25268 18948 l  25298 18946 l  25327 18944 l  25356 18942 l 
25385 18940 l  25414 18937 l  25443 18935 l  25472 18933 l  25502 18930 l 
25531 18928 l  25560 18925 l  25589 18923 l  25618 18920 l  25647 18918 l 
25677 18915 l  25706 18912 l  25735 18910 l  25764 18907 l  25793 18904 l 
25822 18901 l  25852 18898 l  25881 18895 l  25910 18892 l  25939 18889 l 
25968 18886 l  25997 18883 l  26027 18880 l  26056 18877 l  26085 18874 l 
26114 18870 l  26143 18867 l  26172 18863 l  26201 18860 l  26231 18857 l 
26260 18853 l  26289 18849 l  26318 18846 l  26347 18842 l  26376 18838 l 
26406 18835 l  26435 18831 l  26464 18827 l  26493 18823 l  26522 18819 l 
26551 18815 l  26581 18811 l  26610 18807 l  26639 18803 l  26668 18798 l 
26697 18794 l  26726 18790 l  26755 18785 l  26785 18781 l  26814 18776 l 
26843 18772 l  26872 18767 l  26901 18763 l  26930 18758 l  26960 18753 l 
26989 18748 l  27018 18743 l  27047 18738 l  27076 18733 l  27105 18728 l 
27135 18723 l  27164 18718 l  27193 18713 l  27222 18708 l  27251 18702 l 
27280 18697 l  27309 18691 l  27339 18686 l  27368 18680 l  27397 18675 l 
27426 18669 l  27455 18663 l  27484 18657 l  27514 18651 l  27543 18645 l 
27572 18639 l  27601 18633 l  27630 18627 l  27659 18621 l  27689 18615 l 
27718 18608 l  27747 18602 l  27776 18596 l  27805 18589 l  27834 18582 l 
27863 18576 l  27893 18569 l  27922 18562 l  27951 18555 l  27980 18548 l 
28009 18541 l  28038 18534 l  28068 18527 l  28097 18520 l  28126 18513 l 
28155 18505 l  28184 18498 l  28213 18491 l  28243 18483 l  28272 18475 l 
28301 18468 l  28330 18460 l  28359 18452 l  28388 18444 l  28417 18436 l 
28447 18428 l  28476 18420 l  28505 18412 l  28534 18404 l  28563 18395 l 
28592 18387 l  28622 18379 l  28651 18370 l  28680 18361 l  28709 18353 l 
28738 18344 l  28767 18335 l  28797 18326 l  28826 18317 l  28855 18308 l 
28884 18299 l  28913 18290 l  28942 18280 l  28971 18271 l  29001 18261 l 
29030 18252 l  29059 18242 l  29088 18233 l  29117 18223 l  29146 18213 l 
29176 18203 l  29205 18193 l  29233 18183 l  29262 18173 l  29291 18162 l 
29320 18152 l  29350 18142 l  29379 18131 l  29408 18120 l  29437 18110 l 
29466 18099 l  29495 18088 l  29525 18077 l  29554 18066 l  29583 18055 l 
29612 18044 l  29641 18033 l  29670 18021 l  29699 18010 l  29729 17998 l 
29758 17987 l  29787 17975 l  29816 17963 l  29845 17951 l  29874 17939 l 
29904 17927 l  29933 17915 l  29962 17903 l  29991 17891 l  30020 17878 l 
30049 17866 l  30079 17853 l  30108 17840 l  30137 17828 l  30166 17815 l 
30195 17802 l  30224 17789 l  30253 17776 l  30283 17762 l  30312 17749 l 
30341 17736 l  30370 17722 l  30399 17708 l  30428 17695 l  30458 17681 l 
30487 17667 l  30516 17653 l  30545 17639 l  30574 17625 l  30603 17611 l 
30633 17596 l  30662 17582 l  30691 17567 l  30720 17552 l  30749 17538 l 
30778 17523 l  30807 17508 l  30837 17493 l  30866 17478 l  30895 17462 l 
30924 17447 l  30953 17432 l  30982 17416 l  31012 17400 l  31041 17385 l 
31070 17369 l  31099 17353 l  31128 17337 l  31157 17321 l  31187 17304 l 
31216 17288 l  31245 17272 l  31274 17255 l  31303 17238 l  31332 17221 l 
31361 17205 l  31391 17188 l  31420 17170 l  31449 17153 l  31478 17136 l 
31507 17119 l  31536 17101 l  31566 17083 l  31595 17066 l  31624 17048 l 
31653 17030 l  31682 17012 l  31711 16994 l  31741 16975 l  31770 16957 l 
31799 16938 l  31828 16920 l  31857 16901 l  31886 16882 l  31915 16863 l 
31945 16844 l  31974 16825 l  32003 16806 l  32032 16787 l  32061 16767 l 
32090 16747 l  32120 16728 l  32149 16708 l  32178 16688 l  32207 16668 l 
32236 16648 l  32265 16627 l  32295 16607 l  32324 16586 l  32353 16566 l 
32382 16545 l  32411 16524 l  32440 16503 l  32469 16482 l  32499 16461 l 
32528 16440 l  32557 16418 l  32586 16397 l  32615 16375 l  32644 16353 l 
32674 16331 l  32703 16309 l  32732 16287 l  32761 16265 l  32790 16242 l 
32819 16220 l  32849 16197 l  32878 16174 l  32907 16151 l  32936 16128 l 
32965 16105 l  32994 16082 l  33024 16059 l  33053 16035 l  33082 16011 l 
33111 15988 l  33140 15964 l  33169 15940 l  33198 15916 l  33228 15891 l 
33257 15867 l  33286 15842 l  33315 15818 l  33344 15793 l  33373 15768 l 
33403 15743 l  33432 15718 l  33461 15693 l  33490 15667 l  33519 15642 l 
33548 15616 l  33578 15590 l  33607 15565 l  33636 15538 l  33665 15512 l 
33694 15486 l  33723 15460 l  33752 15433 l  33782 15406 l  33811 15379 l 
33840 15353 l  33869 15326 l  33898 15299 l  33927 15272 l  33957 15244 l 
33986 15217 l  34015 15189 l  34044 15161 l  34073 15133 l  34102 15105 l 
34132 15076 l  34161 15048 l  34190 15019 l  34219 14991 l  34248 14962 l 
34277 14933 l  34306 14904 l  34336 14875 l  34365 14845 l  34394 14816 l 
34423 14786 l  34452 14756 l  34481 14726 l  34511 14696 l  34540 14666 l 
34569 14636 l  34598 14605 l  34627 14574 l  34656 14544 l  34686 14513 l 
34715 14482 l  34744 14450 l  34773 14419 l  34802 14387 l  34831 14356 l 
34860 14324 l  34890 14292 l  34919 14260 l  34948 14228 l  34977 14195 l 
35006 14163 l  35035 14130 l  35065 14097 l  35094 14064 l  35123 14031 l 
35152 13998 l  35181 13964 l  35210 13931 l  35240 13897 l  35269 13863 l 
35298 13829 l  35327 13795 l  35356 13761 l  35385 13727 l  35414 13692 l 
35444 13658 l  35473 13623 l  35502 13588 l  35531 13553 l  35560 13518 l 
35589 13482 l  35619 13447 l  35648 13411 l  35677 13375 l  35706 13339 l 
35735 13303 l  35764 13266 l  35794 13230 l  35823 13193 l  35852 13156 l 
35881 13119 l  35910 13081 l  35939 13044 l  35968 13006 l  35998 12968 l 
36027 12930 l  36056 12892 l  36085 12853 l  36114 12815 l  36143 12776 l 
36173 12737 l  36202 12698 l  36231 12659 l  36260 12620 l  36289 12580 l 
36318 12541 l  36348 12501 l  36377 12462 l  36406 12422 l  36435 12383 l 
36464 12343 l  36493 12304 l  36523 12264 l  ps
0.003 0.519 0.820 c 22528 19028 m  22557 19028 l  22586 19028 l  22615 19028 l 
22644 19028 l  22673 19028 l  22702 19028 l  22732 19028 l  22761 19028 l 
22790 19028 l  22819 19028 l  22848 19028 l  22877 19028 l  22907 19027 l 
22936 19027 l  22965 19027 l  22994 19027 l  23023 19027 l  23052 19027 l 
23082 19027 l  23111 19027 l  23140 19027 l  23169 19026 l  23198 19026 l 
23227 19026 l  23256 19026 l  23286 19026 l  23315 19026 l  23344 19025 l 
23373 19025 l  23402 19025 l  23431 19025 l  23461 19025 l  23490 19024 l 
23519 19024 l  23548 19024 l  23577 19023 l  23606 19023 l  23636 19023 l 
23665 19023 l  23694 19022 l  23723 19022 l  23752 19022 l  23781 19021 l 
23810 19021 l  23840 19021 l  23869 19020 l  23898 19020 l  23927 19020 l 
23956 19019 l  23985 19019 l  24015 19019 l  24044 19018 l  24073 19018 l 
24102 19017 l  24131 19017 l  24160 19016 l  24190 19016 l  24219 19016 l 
24248 19015 l  24277 19015 l  24306 19014 l  24335 19014 l  24364 19013 l 
24394 19013 l  24423 19012 l  24452 19012 l  24481 19011 l  24510 19011 l 
24539 19010 l  24569 19009 l  24598 19009 l  24627 19008 l  24656 19008 l 
24685 19007 l  24714 19007 l  24744 19006 l  24773 19005 l  24802 19005 l 
24831 19004 l  24860 19003 l  24889 19003 l  24918 19002 l  24948 19001 l 
24977 19001 l  25006 19000 l  25035 18999 l  25064 18999 l  25093 18998 l 
25123 18997 l  25152 18996 l  25181 18996 l  25210 18995 l  25239 18994 l 
25268 18993 l  25298 18992 l  25327 18992 l  25356 18991 l  25385 18990 l 
25414 18989 l  25443 18988 l  25472 18987 l  25502 18986 l  25531 18986 l 
25560 18985 l  25589 18984 l  25618 18983 l  25647 18982 l  25677 18981 l 
25706 18980 l  25735 18979 l  25764 18978 l  25793 18977 l  25822 18976 l 
25852 18975 l  25881 18974 l  25910 18973 l  25939 18972 l  25968 18971 l 
25997 18970 l  26027 18969 l  26056 18968 l  26085 18967 l  26114 18966 l 
26143 18965 l  26172 18963 l  26201 18962 l  26231 18961 l  26260 18960 l 
26289 18959 l  26318 18958 l  26347 18957 l  26376 18955 l  26406 18954 l 
26435 18953 l  26464 18952 l  26493 18950 l  26522 18949 l  26551 18948 l 
26581 18947 l  26610 18945 l  26639 18944 l  26668 18943 l  26697 18941 l 
26726 18940 l  26755 18939 l  26785 18937 l  26814 18936 l  26843 18935 l 
26872 18933 l  26901 18932 l  26930 18931 l  26960 18929 l  26989 18928 l 
27018 18926 l  27047 18925 l  27076 18923 l  27105 18922 l  27135 18920 l 
27164 18919 l  27193 18917 l  27222 18916 l  27251 18914 l  27280 18913 l 
27309 18911 l  27339 18910 l  27368 18908 l  27397 18906 l  27426 18905 l 
27455 18903 l  27484 18902 l  27514 18900 l  27543 18898 l  27572 18897 l 
27601 18895 l  27630 18893 l  27659 18892 l  27689 18890 l  27718 18888 l 
27747 18886 l  27776 18885 l  27805 18883 l  27834 18881 l  27863 18879 l 
27893 18878 l  27922 18876 l  27951 18874 l  27980 18872 l  28009 18870 l 
28038 18868 l  28068 18867 l  28097 18865 l  28126 18863 l  28155 18861 l 
28184 18859 l  28213 18857 l  28243 18855 l  28272 18853 l  28301 18851 l 
28330 18849 l  28359 18847 l  28388 18845 l  28417 18843 l  28447 18841 l 
28476 18839 l  28505 18837 l  28534 18835 l  28563 18833 l  28592 18831 l 
28622 18829 l  28651 18827 l  28680 18825 l  28709 18822 l  28738 18820 l 
28767 18818 l  28797 18816 l  28826 18814 l  28855 18812 l  28884 18809 l 
28913 18807 l  28942 18805 l  28971 18803 l  29001 18800 l  29030 18798 l 
29059 18796 l  29088 18794 l  29117 18791 l  29146 18789 l  29176 18787 l 
29205 18784 l  29233 18782 l  29262 18780 l  29291 18777 l  29320 18775 l 
29350 18772 l  29379 18770 l  29408 18768 l  29437 18765 l  29466 18763 l 
29495 18760 l  29525 18758 l  29554 18755 l  29583 18753 l  29612 18750 l 
29641 18748 l  29670 18745 l  29699 18743 l  29729 18740 l  29758 18737 l 
29787 18735 l  29816 18732 l  29845 18730 l  29874 18727 l  29904 18724 l 
29933 18722 l  29962 18719 l  29991 18716 l  30020 18714 l  30049 18711 l 
30079 18708 l  30108 18705 l  30137 18703 l  30166 18700 l  30195 18697 l 
30224 18694 l  30253 18691 l  30283 18689 l  30312 18686 l  30341 18683 l 
30370 18680 l  30399 18677 l  30428 18674 l  30458 18671 l  30487 18669 l 
30516 18666 l  30545 18663 l  30574 18660 l  30603 18657 l  30633 18654 l 
30662 18651 l  30691 18648 l  30720 18645 l  30749 18642 l  30778 18639 l 
30807 18636 l  30837 18633 l  30866 18630 l  30895 18627 l  30924 18623 l 
30953 18620 l  30982 18617 l  31012 18614 l  31041 18611 l  31070 18608 l 
31099 18604 l  31128 18601 l  31157 18598 l  31187 18595 l  31216 18592 l 
31245 18588 l  31274 18585 l  31303 18582 l  31332 18579 l  31361 18575 l 
31391 18572 l  31420 18569 l  31449 18565 l  31478 18562 l  31507 18559 l 
31536 18555 l  31566 18552 l  31595 18548 l  31624 18545 l  31653 18541 l 
31682 18538 l  31711 18535 l  31741 18531 l  31770 18528 l  31799 18524 l 
31828 18521 l  31857 18517 l  31886 18513 l  31915 18510 l  31945 18506 l 
31974 18503 l  32003 18499 l  32032 18496 l  32061 18492 l  32090 18488 l 
32120 18485 l  32149 18481 l  32178 18477 l  32207 18474 l  32236 18470 l 
32265 18466 l  32295 18462 l  32324 18459 l  32353 18455 l  32382 18451 l 
32411 18447 l  32440 18443 l  32469 18440 l  32499 18436 l  32528 18432 l 
32557 18428 l  32586 18424 l  32615 18420 l  32644 18416 l  32674 18413 l 
32703 18409 l  32732 18405 l  32761 18401 l  32790 18397 l  32819 18393 l 
32849 18389 l  32878 18385 l  32907 18381 l  32936 18377 l  32965 18373 l 
32994 18369 l  33024 18364 l  33053 18360 l  33082 18356 l  33111 18352 l 
33140 18348 l  33169 18344 l  33198 18340 l  33228 18336 l  33257 18331 l 
33286 18327 l  33315 18323 l  33344 18319 l  33373 18314 l  33403 18310 l 
33432 18306 l  33461 18302 l  33490 18297 l  33519 18293 l  33548 18289 l 
33578 18284 l  33607 18280 l  33636 18276 l  33665 18271 l  33694 18267 l 
33723 18262 l  33752 18258 l  33782 18253 l  33811 18249 l  33840 18245 l 
33869 18240 l  33898 18236 l  33927 18231 l  33957 18227 l  33986 18222 l 
34015 18217 l  34044 18213 l  34073 18208 l  34102 18204 l  34132 18199 l 
34161 18194 l  34190 18190 l  34219 18185 l  34248 18180 l  34277 18176 l 
34306 18171 l  34336 18166 l  34365 18162 l  34394 18157 l  34423 18152 l 
34452 18147 l  34481 18143 l  34511 18138 l  34540 18133 l  34569 18128 l 
34598 18123 l  34627 18118 l  34656 18114 l  34686 18109 l  34715 18104 l 
34744 18099 l  34773 18094 l  34802 18089 l  34831 18084 l  34860 18079 l 
34890 18074 l  34919 18069 l  34948 18064 l  34977 18059 l  35006 18054 l 
35035 18049 l  35065 18044 l  35094 18039 l  35123 18034 l  35152 18029 l 
35181 18023 l  35210 18018 l  35240 18013 l  35269 18008 l  35298 18003 l 
35327 17998 l  35356 17992 l  35385 17987 l  35414 17982 l  35444 17977 l 
35473 17971 l  35502 17966 l  35531 17961 l  35560 17955 l  35589 17950 l 
35619 17945 l  35648 17939 l  35677 17934 l  35706 17929 l  35735 17923 l 
35764 17918 l  35794 17912 l  35823 17907 l  35852 17902 l  35881 17896 l 
35910 17891 l  35939 17885 l  35968 17879 l  35998 17874 l  36027 17868 l 
36056 17863 l  36085 17857 l  36114 17851 l  36143 17846 l  36173 17840 l 
36202 17835 l  36231 17829 l  36260 17823 l  36289 17817 l  36318 17812 l 
36348 17806 l  36377 17800 l  36406 17795 l  36435 17789 l  36464 17783 l 
36493 17777 l  36523 17772 l  ps
0.773 0.003 0.046 c 22528 19028 m  22557 19028 l  22586 19028 l  22615 19028 l 
22644 19028 l  22673 19028 l  22702 19028 l  22732 19028 l  22761 19028 l 
22790 19028 l  22819 19027 l  22848 19027 l  22877 19027 l  22907 19027 l 
22936 19027 l  22965 19027 l  22994 19027 l  23023 19027 l  23052 19027 l 
23082 19027 l  23111 19027 l  23140 19027 l  23169 19027 l  23198 19027 l 
23227 19026 l  23256 19026 l  23286 19026 l  23315 19026 l  23344 19026 l 
23373 19026 l  23402 19026 l  23431 19026 l  23461 19026 l  23490 19025 l 
23519 19025 l  23548 19025 l  23577 19025 l  23606 19025 l  23636 19025 l 
23665 19025 l  23694 19025 l  23723 19024 l  23752 19024 l  23781 19024 l 
23810 19024 l  23840 19024 l  23869 19024 l  23898 19024 l  23927 19023 l 
23956 19023 l  23985 19023 l  24015 19023 l  24044 19023 l  24073 19023 l 
24102 19023 l  24131 19022 l  24160 19022 l  24190 19022 l  24219 19022 l 
24248 19022 l  24277 19022 l  24306 19021 l  24335 19021 l  24364 19021 l 
24394 19021 l  24423 19021 l  24452 19020 l  24481 19020 l  24510 19020 l 
24539 19020 l  24569 19020 l  24598 19020 l  24627 19019 l  24656 19019 l 
24685 19019 l  24714 19019 l  24744 19019 l  24773 19018 l  24802 19018 l 
24831 19018 l  24860 19018 l  24889 19017 l  24918 19017 l  24948 19017 l 
24977 19017 l  25006 19017 l  25035 19016 l  25064 19016 l  25093 19016 l 
25123 19016 l  25152 19015 l  25181 19015 l  25210 19015 l  25239 19015 l 
25268 19014 l  25298 19014 l  25327 19014 l  25356 19014 l  25385 19013 l 
25414 19013 l  25443 19013 l  25472 19013 l  25502 19012 l  25531 19012 l 
25560 19012 l  25589 19012 l  25618 19011 l  25647 19011 l  25677 19011 l 
25706 19010 l  25735 19010 l  25764 19010 l  25793 19010 l  25822 19009 l 
25852 19009 l  25881 19009 l  25910 19008 l  25939 19008 l  25968 19008 l 
25997 19008 l  26027 19007 l  26056 19007 l  26085 19007 l  26114 19006 l 
26143 19006 l  26172 19006 l  26201 19005 l  26231 19005 l  26260 19005 l 
26289 19004 l  26318 19004 l  26347 19004 l  26376 19003 l  26406 19003 l 
26435 19003 l  26464 19002 l  26493 19002 l  26522 19002 l  26551 19001 l 
26581 19001 l  26610 19001 l  26639 19000 l  26668 19000 l  26697 19000 l 
26726 18999 l  26755 18999 l  26785 18999 l  26814 18998 l  26843 18998 l 
26872 18998 l  26901 18997 l  26930 18997 l  26960 18996 l  26989 18996 l 
27018 18996 l  27047 18995 l  27076 18995 l  27105 18995 l  27135 18994 l 
27164 18994 l  27193 18993 l  27222 18993 l  27251 18993 l  27280 18992 l 
27309 18992 l  27339 18991 l  27368 18991 l  27397 18991 l  27426 18990 l 
27455 18990 l  27484 18989 l  27514 18989 l  27543 18989 l  27572 18988 l 
27601 18988 l  27630 18987 l  27659 18987 l  27689 18986 l  27718 18986 l 
27747 18986 l  27776 18985 l  27805 18985 l  27834 18984 l  27863 18984 l 
27893 18983 l  27922 18983 l  27951 18983 l  27980 18982 l  28009 18982 l 
28038 18981 l  28068 18981 l  28097 18980 l  28126 18980 l  28155 18979 l 
28184 18979 l  28213 18978 l  28243 18978 l  28272 18978 l  28301 18977 l 
28330 18977 l  28359 18976 l  28388 18976 l  28417 18975 l  28447 18975 l 
28476 18974 l  28505 18974 l  28534 18973 l  28563 18973 l  28592 18972 l 
28622 18972 l  28651 18971 l  28680 18971 l  28709 18970 l  28738 18970 l 
28767 18969 l  28797 18969 l  28826 18968 l  28855 18968 l  28884 18967 l 
28913 18967 l  28942 18966 l  28971 18966 l  29001 18965 l  29030 18965 l 
29059 18964 l  29088 18964 l  29117 18963 l  29146 18962 l  29176 18962 l 
29205 18961 l  29233 18961 l  29262 18960 l  29291 18960 l  29320 18959 l 
29350 18959 l  29379 18958 l  29408 18958 l  29437 18957 l  29466 18956 l 
29495 18956 l  29525 18955 l  29554 18955 l  29583 18954 l  29612 18954 l 
29641 18953 l  29670 18952 l  29699 18952 l  29729 18951 l  29758 18951 l 
29787 18950 l  29816 18950 l  29845 18949 l  29874 18948 l  29904 18948 l 
29933 18947 l  29962 18947 l  29991 18946 l  30020 18945 l  30049 18945 l 
30079 18944 l  30108 18944 l  30137 18943 l  30166 18942 l  30195 18942 l 
30224 18941 l  30253 18941 l  30283 18940 l  30312 18939 l  30341 18939 l 
30370 18938 l  30399 18937 l  30428 18937 l  30458 18936 l  30487 18936 l 
30516 18935 l  30545 18934 l  30574 18934 l  30603 18933 l  30633 18932 l 
30662 18932 l  30691 18931 l  30720 18930 l  30749 18930 l  30778 18929 l 
30807 18928 l  30837 18928 l  30866 18927 l  30895 18926 l  30924 18926 l 
30953 18925 l  30982 18924 l  31012 18924 l  31041 18923 l  31070 18922 l 
31099 18922 l  31128 18921 l  31157 18920 l  31187 18920 l  31216 18919 l 
31245 18918 l  31274 18918 l  31303 18917 l  31332 18916 l  31361 18916 l 
31391 18915 l  31420 18914 l  31449 18913 l  31478 18913 l  31507 18912 l 
31536 18911 l  31566 18911 l  31595 18910 l  31624 18909 l  31653 18908 l 
31682 18908 l  31711 18907 l  31741 18906 l  31770 18906 l  31799 18905 l 
31828 18904 l  31857 18903 l  31886 18903 l  31915 18902 l  31945 18901 l 
31974 18900 l  32003 18900 l  32032 18899 l  32061 18898 l  32090 18897 l 
32120 18897 l  32149 18896 l  32178 18895 l  32207 18894 l  32236 18894 l 
32265 18893 l  32295 18892 l  32324 18891 l  32353 18891 l  32382 18890 l 
32411 18889 l  32440 18888 l  32469 18887 l  32499 18887 l  32528 18886 l 
32557 18885 l  32586 18884 l  32615 18883 l  32644 18883 l  32674 18882 l 
32703 18881 l  32732 18880 l  32761 18880 l  32790 18879 l  32819 18878 l 
32849 18877 l  32878 18876 l  32907 18875 l  32936 18875 l  32965 18874 l 
32994 18873 l  33024 18872 l  33053 18871 l  33082 18871 l  33111 18870 l 
33140 18869 l  33169 18868 l  33198 18867 l  33228 18866 l  33257 18866 l 
33286 18865 l  33315 18864 l  33344 18863 l  33373 18862 l  33403 18861 l 
33432 18860 l  33461 18860 l  33490 18859 l  33519 18858 l  33548 18857 l 
33578 18856 l  33607 18855 l  33636 18854 l  33665 18854 l  33694 18853 l 
33723 18852 l  33752 18851 l  33782 18850 l  33811 18849 l  33840 18848 l 
33869 18847 l  33898 18847 l  33927 18846 l  33957 18845 l  33986 18844 l 
34015 18843 l  34044 18842 l  34073 18841 l  34102 18840 l  34132 18839 l 
34161 18838 l  34190 18838 l  34219 18837 l  34248 18836 l  34277 18835 l 
34306 18834 l  34336 18833 l  34365 18832 l  34394 18831 l  34423 18830 l 
34452 18829 l  34481 18828 l  34511 18827 l  34540 18826 l  34569 18826 l 
34598 18825 l  34627 18824 l  34656 18823 l  34686 18822 l  34715 18821 l 
34744 18820 l  34773 18819 l  34802 18818 l  34831 18817 l  34860 18816 l 
34890 18815 l  34919 18814 l  34948 18813 l  34977 18812 l  35006 18811 l 
35035 18810 l  35065 18809 l  35094 18808 l  35123 18807 l  35152 18806 l 
35181 18805 l  35210 18804 l  35240 18803 l  35269 18802 l  35298 18801 l 
35327 18800 l  35356 18799 l  35385 18798 l  35414 18797 l  35444 18796 l 
35473 18795 l  35502 18794 l  35531 18793 l  35560 18792 l  35589 18791 l 
35619 18790 l  35648 18789 l  35677 18788 l  35706 18787 l  35735 18786 l 
35764 18785 l  35794 18784 l  35823 18783 l  35852 18782 l  35881 18781 l 
35910 18780 l  35939 18779 l  35968 18778 l  35998 18777 l  36027 18776 l 
36056 18775 l  36085 18774 l  36114 18773 l  36143 18772 l  36173 18771 l 
36202 18770 l  36231 18769 l  36260 18767 l  36289 18766 l  36318 18765 l 
36348 18764 l  36377 18763 l  36406 18762 l  36435 18761 l  36464 18760 l 
36493 18759 l  36523 18758 l  ps
pum
22435 19597 t
0.003 0.003 0.003 c 27 0 m  27 -26 l  89 -26 l  89 -213 l  34 -174 l  34 -204 l 
91 -243 l  120 -243 l  120 -26 l  179 -26 l  179 0 l  27 0 l  p ef
pom
pum
23018 19597 t
18 0 m  18 -22 l  24 -35 31 -47 39 -58 ct 48 -68 57 -77 66 -85 ct 75 -94 84 -101 94 -109 ct 
103 -116 111 -123 118 -130 ct 126 -137 132 -145 136 -152 ct 141 -160 143 -169 143 -179 ct 
143 -186 142 -192 140 -197 ct 138 -202 135 -207 131 -210 ct 127 -214 122 -217 117 -218 ct 
111 -220 105 -221 99 -221 ct 92 -221 87 -220 81 -218 ct 76 -217 71 -214 67 -211 ct 
62 -207 59 -203 56 -198 ct 53 -193 52 -187 51 -180 ct 19 -183 l  20 -192 23 -200 26 -208 ct 
30 -215 35 -222 42 -228 ct 49 -234 57 -238 66 -242 ct 75 -245 86 -247 99 -247 ct 
111 -247 121 -245 131 -242 ct 140 -239 148 -235 155 -229 ct 161 -224 166 -217 170 -209 ct 
173 -200 175 -191 175 -180 ct 175 -172 173 -164 170 -157 ct 167 -149 164 -142 159 -136 ct 
154 -129 148 -123 142 -116 ct 135 -110 129 -104 122 -98 ct 115 -92 107 -86 100 -81 ct 
93 -75 87 -69 80 -63 ct 74 -57 68 -51 63 -45 ct 58 -39 55 -33 52 -26 ct 179 -26 l 
179 0 l  18 0 l  p ef
pom
pum
23601 19597 t
181 -68 m  181 -57 179 -47 175 -38 ct 172 -29 166 -22 160 -16 ct 153 -10 144 -5 134 -2 ct 
123 1 112 3 98 3 ct 83 3 71 1 60 -3 ct 50 -6 42 -11 35 -17 ct 28 -24 23 -31 20 -39 ct 
17 -46 14 -55 13 -63 ct 46 -66 l  46 -60 48 -54 51 -48 ct 53 -43 56 -38 61 -35 ct 
65 -31 70 -28 76 -26 ct 83 -24 90 -23 98 -23 ct 114 -23 126 -27 135 -34 ct 144 -42 149 -54 149 -69 ct 
149 -78 147 -85 143 -90 ct 139 -96 134 -100 128 -103 ct 122 -106 115 -108 109 -109 ct 
102 -110 95 -111 89 -111 ct 72 -111 l  72 -138 l  89 -138 l  94 -138 101 -139 107 -140 ct 
113 -141 119 -143 124 -146 ct 129 -149 134 -154 137 -159 ct 141 -164 142 -171 142 -180 ct 
142 -193 138 -203 131 -210 ct 123 -218 112 -221 97 -221 ct 83 -221 72 -218 64 -211 ct 
55 -204 50 -194 49 -182 ct 18 -184 l  19 -195 22 -204 26 -212 ct 31 -220 37 -226 44 -231 ct 
51 -237 59 -241 68 -243 ct 77 -246 87 -247 97 -247 ct 111 -247 122 -245 132 -242 ct 
142 -239 150 -234 156 -228 ct 162 -222 167 -216 170 -208 ct 173 -200 174 -192 174 -183 ct 
174 -176 173 -169 171 -163 ct 169 -157 166 -151 162 -146 ct 158 -141 153 -137 146 -134 ct 
140 -130 132 -127 123 -125 ct 123 -125 l  133 -124 142 -122 149 -118 ct 156 -115 162 -111 167 -105 ct 
171 -100 175 -95 177 -88 ct 180 -82 181 -75 181 -68 ct p ef
pom
pum
24184 19597 t
152 -55 m  152 0 l  123 0 l  123 -55 l  8 -55 l  8 -79 l  119 -243 l  152 -243 l 
152 -79 l  186 -79 l  186 -55 l  152 -55 l  p
123 -208 m  122 -207 122 -206 121 -205 ct 120 -203 119 -201 118 -199 ct 117 -197 115 -195 114 -193 ct 
113 -191 112 -189 111 -187 ct 49 -95 l  48 -94 47 -93 46 -91 ct 45 -90 44 -88 43 -87 ct 
42 -85 41 -84 39 -82 ct 38 -81 37 -80 37 -80 ct 123 -80 l  123 -208 l  p ef
pom
pum
24767 19597 t
182 -80 m  182 -67 180 -56 176 -46 ct 172 -36 167 -27 160 -20 ct 152 -13 143 -7 133 -3 ct 
122 1 109 3 95 3 ct 83 3 71 1 62 -1 ct 52 -4 44 -9 38 -14 ct 31 -19 26 -25 22 -32 ct 
18 -39 16 -47 14 -55 ct 46 -58 l  47 -54 49 -49 51 -45 ct 53 -41 56 -37 60 -33 ct 
64 -30 69 -27 75 -25 ct 81 -23 88 -22 96 -22 ct 104 -22 111 -24 118 -26 ct 124 -29 130 -32 135 -37 ct 
139 -42 143 -48 145 -55 ct 148 -62 149 -70 149 -79 ct 149 -86 148 -93 146 -99 ct 
143 -106 140 -111 135 -116 ct 131 -120 125 -124 119 -126 ct 112 -129 105 -130 97 -130 ct 
92 -130 87 -130 82 -129 ct 78 -128 74 -126 70 -125 ct 67 -123 63 -121 60 -119 ct 
57 -117 54 -115 52 -113 ct 21 -113 l  29 -243 l  167 -243 l  167 -217 l  58 -217 l 
53 -140 l  58 -144 65 -148 74 -151 ct 82 -154 92 -155 103 -155 ct 115 -155 126 -154 136 -150 ct 
145 -146 154 -141 160 -134 ct 167 -128 172 -120 176 -110 ct 180 -101 182 -91 182 -80 ct 
p ef
pom
pum
25350 19597 t
181 -80 m  181 -68 179 -57 176 -47 ct 172 -36 167 -28 161 -20 ct 154 -13 146 -7 136 -3 ct 
126 1 115 3 102 3 ct 88 3 76 0 65 -5 ct 55 -11 46 -18 39 -28 ct 32 -39 27 -51 23 -66 ct 
20 -81 18 -97 18 -116 ct 18 -138 20 -157 24 -173 ct 28 -190 34 -203 41 -214 ct 
48 -225 58 -233 68 -239 ct 79 -244 91 -247 105 -247 ct 113 -247 121 -246 128 -244 ct 
135 -243 142 -240 148 -236 ct 154 -232 159 -227 163 -221 ct 168 -215 171 -207 174 -198 ct 
144 -192 l  141 -203 136 -210 129 -215 ct 122 -220 114 -222 104 -222 ct 96 -222 88 -220 81 -216 ct 
74 -212 69 -206 64 -198 ct 59 -190 55 -180 53 -168 ct 50 -156 49 -142 49 -126 ct 
54 -136 62 -144 73 -150 ct 83 -155 95 -158 108 -158 ct 119 -158 129 -156 138 -153 ct 
147 -149 154 -144 161 -137 ct 167 -130 172 -122 176 -113 ct 179 -103 181 -92 181 -80 ct 
p
149 -79 m  149 -87 148 -95 146 -102 ct 144 -108 141 -114 137 -119 ct 133 -124 128 -128 122 -130 ct 
115 -133 108 -134 100 -134 ct 95 -134 89 -133 83 -131 ct 78 -130 72 -127 68 -123 ct 
63 -120 59 -115 56 -109 ct 53 -102 52 -95 52 -86 ct 52 -77 53 -69 55 -61 ct 58 -53 61 -46 65 -41 ct 
70 -35 75 -30 81 -27 ct 87 -24 94 -22 101 -22 ct 109 -22 116 -23 121 -26 ct 127 -29 132 -32 137 -37 ct 
141 -42 144 -48 146 -55 ct 148 -62 149 -70 149 -79 ct p ef
pom
pum
25934 19597 t
179 -218 m  166 -200 155 -182 145 -165 ct 135 -147 126 -130 119 -113 ct 111 -95 106 -77 101 -59 ct 
97 -41 95 -21 95 -1 ct 63 -1 l  63 -20 65 -39 70 -58 ct 74 -76 81 -95 88 -113 ct 
96 -131 105 -148 116 -166 ct 126 -183 137 -200 149 -217 ct 18 -217 l  18 -243 l 
179 -243 l  179 -218 l  p ef
pom
pum
26517 19597 t
181 -68 m  181 -58 179 -48 176 -40 ct 173 -31 168 -24 161 -17 ct 154 -11 146 -6 135 -2 ct 
125 1 113 3 98 3 ct 84 3 72 1 61 -2 ct 51 -6 42 -11 35 -17 ct 29 -23 24 -31 20 -40 ct 
17 -48 15 -58 15 -68 ct 15 -77 17 -85 19 -92 ct 22 -98 26 -104 30 -109 ct 35 -114 40 -118 46 -121 ct 
52 -125 58 -127 64 -128 ct 64 -128 l  57 -130 51 -132 46 -136 ct 40 -140 36 -144 32 -149 ct 
29 -154 26 -159 24 -166 ct 22 -172 21 -178 21 -185 ct 21 -193 23 -201 26 -209 ct 
29 -216 34 -223 41 -229 ct 47 -234 55 -239 64 -242 ct 74 -245 85 -247 98 -247 ct 
111 -247 122 -245 132 -242 ct 142 -239 150 -234 156 -228 ct 162 -223 167 -216 170 -209 ct 
173 -201 175 -193 175 -184 ct 175 -178 174 -171 172 -165 ct 170 -159 167 -154 164 -149 ct 
160 -144 156 -139 150 -136 ct 145 -132 139 -130 132 -129 ct 132 -128 l  139 -127 145 -125 151 -122 ct 
157 -119 162 -115 167 -110 ct 171 -105 175 -99 177 -92 ct 180 -85 181 -77 181 -68 ct 
p
143 -183 m  143 -189 142 -194 140 -199 ct 139 -204 136 -209 133 -212 ct 129 -216 125 -219 119 -221 ct 
113 -223 106 -224 98 -224 ct 89 -224 83 -223 77 -221 ct 71 -219 67 -216 63 -212 ct 
59 -209 57 -204 55 -199 ct 54 -194 53 -189 53 -183 ct 53 -178 53 -173 55 -168 ct 
56 -163 58 -158 62 -154 ct 65 -150 69 -147 75 -144 ct 81 -141 89 -140 98 -140 ct 
108 -140 116 -141 121 -144 ct 127 -147 132 -150 135 -154 ct 138 -158 140 -163 141 -168 ct 
142 -173 143 -178 143 -183 ct p
149 -71 m  149 -77 148 -83 146 -88 ct 145 -94 142 -98 138 -103 ct 134 -107 129 -110 122 -113 ct 
116 -115 107 -117 98 -117 ct 88 -117 81 -115 74 -113 ct 68 -110 63 -107 59 -103 ct 
55 -98 52 -93 50 -88 ct 48 -82 47 -76 47 -70 ct 47 -63 48 -56 50 -50 ct 52 -44 55 -39 59 -34 ct 
63 -30 68 -26 75 -24 ct 81 -21 89 -20 99 -20 ct 108 -20 116 -21 122 -24 ct 129 -26 134 -30 138 -34 ct 
142 -39 145 -44 146 -50 ct 148 -56 149 -63 149 -71 ct p ef
pom
pum
27100 19597 t
180 -127 m  180 -105 178 -86 173 -70 ct 169 -54 164 -40 156 -29 ct 148 -19 139 -11 128 -5 ct 
117 0 105 3 92 3 ct 82 3 74 2 67 0 ct 59 -2 52 -5 47 -9 ct 41 -13 36 -18 32 -24 ct 
27 -31 24 -39 22 -48 ct 51 -52 l  54 -42 59 -34 66 -29 ct 73 -24 82 -22 92 -22 ct 
101 -22 108 -24 115 -28 ct 122 -32 128 -38 133 -46 ct 138 -54 142 -64 144 -76 ct 
147 -88 149 -102 149 -118 ct 147 -112 143 -108 139 -103 ct 135 -99 130 -95 125 -93 ct 
119 -90 114 -87 107 -86 ct 101 -84 95 -84 89 -84 ct 78 -84 68 -86 59 -89 ct 50 -93 42 -99 36 -106 ct 
30 -113 25 -122 22 -132 ct 18 -142 17 -153 17 -165 ct 17 -178 18 -189 22 -199 ct 
26 -209 31 -218 38 -225 ct 45 -232 53 -238 63 -241 ct 73 -245 85 -247 97 -247 ct 
124 -247 145 -237 159 -217 ct 173 -197 180 -167 180 -127 ct p
146 -157 m  146 -166 145 -174 143 -182 ct 141 -190 137 -197 133 -203 ct 129 -209 124 -213 118 -217 ct 
112 -220 104 -222 96 -222 ct 89 -222 82 -221 76 -218 ct 70 -215 65 -211 61 -207 ct 
57 -202 54 -196 51 -189 ct 49 -182 48 -174 48 -165 ct 48 -157 49 -150 51 -143 ct 
53 -136 56 -130 60 -124 ct 64 -119 69 -115 75 -112 ct 81 -109 88 -108 96 -108 ct 
102 -108 108 -109 114 -111 ct 119 -113 125 -116 130 -120 ct 134 -124 138 -129 141 -135 ct 
144 -141 146 -149 146 -157 ct p ef
pom
pum
27591 19597 t
27 0 m  27 -26 l  89 -26 l  89 -213 l  34 -174 l  34 -204 l  91 -243 l 
120 -243 l  120 -26 l  179 -26 l  179 0 l  27 0 l  p ef
368 -122 m  368 -99 365 -79 361 -63 ct 356 -47 350 -34 343 -25 ct 335 -15 326 -8 316 -3 ct 
305 1 294 3 283 3 ct 271 3 260 1 250 -3 ct 239 -8 231 -15 223 -24 ct 215 -34 210 -47 205 -63 ct 
201 -79 199 -99 199 -122 ct 199 -146 201 -167 205 -183 ct 210 -199 216 -212 223 -221 ct 
231 -231 240 -237 250 -241 ct 260 -245 272 -247 284 -247 ct 295 -247 306 -245 316 -241 ct 
327 -237 335 -231 343 -221 ct 351 -212 357 -199 361 -183 ct 365 -167 368 -146 368 -122 ct 
p
336 -122 m  336 -141 335 -157 333 -170 ct 330 -183 327 -193 322 -201 ct 318 -209 312 -214 306 -217 ct 
299 -220 292 -222 284 -222 ct 275 -222 267 -220 261 -217 ct 254 -214 248 -208 244 -201 ct 
239 -193 236 -183 234 -170 ct 231 -157 230 -141 230 -122 ct 230 -103 231 -88 234 -75 ct 
236 -62 239 -52 244 -44 ct 249 -36 254 -31 261 -27 ct 267 -24 275 -22 283 -22 ct 
291 -22 299 -24 305 -27 ct 312 -31 317 -36 322 -44 ct 326 -52 330 -62 332 -75 ct 
335 -88 336 -103 336 -122 ct p ef
pom
pum
28174 19597 t
27 0 m  27 -26 l  89 -26 l  89 -213 l  34 -174 l  34 -204 l  91 -243 l 
120 -243 l  120 -26 l  179 -26 l  179 0 l  27 0 l  p ef
212 0 m  212 -26 l  274 -26 l  274 -213 l  219 -174 l  219 -204 l  276 -243 l 
305 -243 l  305 -26 l  364 -26 l  364 0 l  212 0 l  p ef
pom
pum
28757 19597 t
27 0 m  27 -26 l  89 -26 l  89 -213 l  34 -174 l  34 -204 l  91 -243 l 
120 -243 l  120 -26 l  179 -26 l  179 0 l  27 0 l  p ef
203 0 m  203 -22 l  209 -35 216 -47 224 -58 ct 233 -68 242 -77 251 -85 ct 260 -94 269 -101 279 -109 ct 
288 -116 296 -123 303 -130 ct 311 -137 317 -145 321 -152 ct 326 -160 328 -169 328 -179 ct 
328 -186 327 -192 325 -197 ct 323 -202 320 -207 316 -210 ct 312 -214 307 -217 302 -218 ct 
296 -220 290 -221 284 -221 ct 277 -221 272 -220 266 -218 ct 261 -217 256 -214 252 -211 ct 
247 -207 244 -203 241 -198 ct 238 -193 237 -187 236 -180 ct 204 -183 l  205 -192 208 -200 211 -208 ct 
215 -215 220 -222 227 -228 ct 234 -234 242 -238 251 -242 ct 260 -245 271 -247 284 -247 ct 
296 -247 306 -245 316 -242 ct 325 -239 333 -235 340 -229 ct 346 -224 351 -217 355 -209 ct 
358 -200 360 -191 360 -180 ct 360 -172 358 -164 355 -157 ct 352 -149 349 -142 344 -136 ct 
339 -129 333 -123 327 -116 ct 320 -110 314 -104 307 -98 ct 300 -92 292 -86 285 -81 ct 
278 -75 272 -69 265 -63 ct 259 -57 253 -51 248 -45 ct 243 -39 240 -33 237 -26 ct 
364 -26 l  364 0 l  203 0 l  p ef
pom
pum
29341 19597 t
27 0 m  27 -26 l  89 -26 l  89 -213 l  34 -174 l  34 -204 l  91 -243 l 
120 -243 l  120 -26 l  179 -26 l  179 0 l  27 0 l  p ef
366 -68 m  366 -57 364 -47 360 -38 ct 357 -29 351 -22 345 -16 ct 338 -10 329 -5 319 -2 ct 
308 1 297 3 283 3 ct 268 3 256 1 245 -3 ct 235 -6 227 -11 220 -17 ct 213 -24 208 -31 205 -39 ct 
202 -46 199 -55 198 -63 ct 231 -66 l  231 -60 233 -54 236 -48 ct 238 -43 241 -38 246 -35 ct 
250 -31 255 -28 261 -26 ct 268 -24 275 -23 283 -23 ct 299 -23 311 -27 320 -34 ct 
329 -42 334 -54 334 -69 ct 334 -78 332 -85 328 -90 ct 324 -96 319 -100 313 -103 ct 
307 -106 300 -108 294 -109 ct 287 -110 280 -111 274 -111 ct 257 -111 l  257 -138 l 
274 -138 l  279 -138 286 -139 292 -140 ct 298 -141 304 -143 309 -146 ct 314 -149 319 -154 322 -159 ct 
326 -164 327 -171 327 -180 ct 327 -193 323 -203 316 -210 ct 308 -218 297 -221 282 -221 ct 
268 -221 257 -218 249 -211 ct 240 -204 235 -194 234 -182 ct 203 -184 l  204 -195 207 -204 211 -212 ct 
216 -220 222 -226 229 -231 ct 236 -237 244 -241 253 -243 ct 262 -246 272 -247 282 -247 ct 
296 -247 307 -245 317 -242 ct 327 -239 335 -234 341 -228 ct 347 -222 352 -216 355 -208 ct 
358 -200 359 -192 359 -183 ct 359 -176 358 -169 356 -163 ct 354 -157 351 -151 347 -146 ct 
343 -141 338 -137 331 -134 ct 325 -130 317 -127 308 -125 ct 308 -125 l  318 -124 327 -122 334 -118 ct 
341 -115 347 -111 352 -105 ct 356 -100 360 -95 362 -88 ct 365 -82 366 -75 366 -68 ct 
p ef
pom
pum
29924 19597 t
27 0 m  27 -26 l  89 -26 l  89 -213 l  34 -174 l  34 -204 l  91 -243 l 
120 -243 l  120 -26 l  179 -26 l  179 0 l  27 0 l  p ef
337 -55 m  337 0 l  308 0 l  308 -55 l  193 -55 l  193 -79 l  304 -243 l 
337 -243 l  337 -79 l  371 -79 l  371 -55 l  337 -55 l  p
308 -208 m  307 -207 307 -206 306 -205 ct 305 -203 304 -201 303 -199 ct 302 -197 300 -195 299 -193 ct 
298 -191 297 -189 296 -187 ct 234 -95 l  233 -94 232 -93 231 -91 ct 230 -90 229 -88 228 -87 ct 
227 -85 226 -84 224 -82 ct 223 -81 222 -80 222 -80 ct 308 -80 l  308 -208 l 
p ef
pom
pum
30507 19597 t
27 0 m  27 -26 l  89 -26 l  89 -213 l  34 -174 l  34 -204 l  91 -243 l 
120 -243 l  120 -26 l  179 -26 l  179 0 l  27 0 l  p ef
367 -80 m  367 -67 365 -56 361 -46 ct 357 -36 352 -27 345 -20 ct 337 -13 328 -7 318 -3 ct 
307 1 294 3 280 3 ct 268 3 256 1 247 -1 ct 237 -4 229 -9 223 -14 ct 216 -19 211 -25 207 -32 ct 
203 -39 201 -47 199 -55 ct 231 -58 l  232 -54 234 -49 236 -45 ct 238 -41 241 -37 245 -33 ct 
249 -30 254 -27 260 -25 ct 266 -23 273 -22 281 -22 ct 289 -22 296 -24 303 -26 ct 
309 -29 315 -32 320 -37 ct 324 -42 328 -48 330 -55 ct 333 -62 334 -70 334 -79 ct 
334 -86 333 -93 331 -99 ct 328 -106 325 -111 320 -116 ct 316 -120 310 -124 304 -126 ct 
297 -129 290 -130 282 -130 ct 277 -130 272 -130 267 -129 ct 263 -128 259 -126 255 -125 ct 
252 -123 248 -121 245 -119 ct 242 -117 239 -115 237 -113 ct 206 -113 l  214 -243 l 
352 -243 l  352 -217 l  243 -217 l  238 -140 l  243 -144 250 -148 259 -151 ct 
267 -154 277 -155 288 -155 ct 300 -155 311 -154 321 -150 ct 330 -146 339 -141 345 -134 ct 
352 -128 357 -120 361 -110 ct 365 -101 367 -91 367 -80 ct p ef
pom
pum
31090 19597 t
27 0 m  27 -26 l  89 -26 l  89 -213 l  34 -174 l  34 -204 l  91 -243 l 
120 -243 l  120 -26 l  179 -26 l  179 0 l  27 0 l  p ef
366 -80 m  366 -68 364 -57 361 -47 ct 357 -36 352 -28 346 -20 ct 339 -13 331 -7 321 -3 ct 
311 1 300 3 287 3 ct 273 3 261 0 250 -5 ct 240 -11 231 -18 224 -28 ct 217 -39 212 -51 208 -66 ct 
205 -81 203 -97 203 -116 ct 203 -138 205 -157 209 -173 ct 213 -190 219 -203 226 -214 ct 
233 -225 243 -233 253 -239 ct 264 -244 276 -247 290 -247 ct 298 -247 306 -246 313 -244 ct 
320 -243 327 -240 333 -236 ct 339 -232 344 -227 348 -221 ct 353 -215 356 -207 359 -198 ct 
329 -192 l  326 -203 321 -210 314 -215 ct 307 -220 299 -222 289 -222 ct 281 -222 273 -220 266 -216 ct 
259 -212 254 -206 249 -198 ct 244 -190 240 -180 238 -168 ct 235 -156 234 -142 234 -126 ct 
239 -136 247 -144 258 -150 ct 268 -155 280 -158 293 -158 ct 304 -158 314 -156 323 -153 ct 
332 -149 339 -144 346 -137 ct 352 -130 357 -122 361 -113 ct 364 -103 366 -92 366 -80 ct 
p
334 -79 m  334 -87 333 -95 331 -102 ct 329 -108 326 -114 322 -119 ct 318 -124 313 -128 307 -130 ct 
300 -133 293 -134 285 -134 ct 280 -134 274 -133 268 -131 ct 263 -130 257 -127 253 -123 ct 
248 -120 244 -115 241 -109 ct 238 -102 237 -95 237 -86 ct 237 -77 238 -69 240 -61 ct 
243 -53 246 -46 250 -41 ct 255 -35 260 -30 266 -27 ct 272 -24 279 -22 286 -22 ct 
294 -22 301 -23 306 -26 ct 312 -29 317 -32 322 -37 ct 326 -42 329 -48 331 -55 ct 
333 -62 334 -70 334 -79 ct p ef
pom
pum
31673 19597 t
27 0 m  27 -26 l  89 -26 l  89 -213 l  34 -174 l  34 -204 l  91 -243 l 
120 -243 l  120 -26 l  179 -26 l  179 0 l  27 0 l  p ef
364 -218 m  351 -200 340 -182 330 -165 ct 320 -147 311 -130 304 -113 ct 296 -95 291 -77 286 -59 ct 
282 -41 280 -21 280 -1 ct 248 -1 l  248 -20 250 -39 255 -58 ct 259 -76 266 -95 273 -113 ct 
281 -131 290 -148 301 -166 ct 311 -183 322 -200 334 -217 ct 203 -217 l  203 -243 l 
364 -243 l  364 -218 l  p ef
pom
pum
32256 19597 t
27 0 m  27 -26 l  89 -26 l  89 -213 l  34 -174 l  34 -204 l  91 -243 l 
120 -243 l  120 -26 l  179 -26 l  179 0 l  27 0 l  p ef
366 -68 m  366 -58 364 -48 361 -40 ct 358 -31 353 -24 346 -17 ct 339 -11 331 -6 320 -2 ct 
310 1 298 3 283 3 ct 269 3 257 1 246 -2 ct 236 -6 227 -11 220 -17 ct 214 -23 209 -31 205 -40 ct 
202 -48 200 -58 200 -68 ct 200 -77 202 -85 204 -92 ct 207 -98 211 -104 215 -109 ct 
220 -114 225 -118 231 -121 ct 237 -125 243 -127 249 -128 ct 249 -128 l  242 -130 236 -132 231 -136 ct 
225 -140 221 -144 217 -149 ct 214 -154 211 -159 209 -166 ct 207 -172 206 -178 206 -185 ct 
206 -193 208 -201 211 -209 ct 214 -216 219 -223 226 -229 ct 232 -234 240 -239 249 -242 ct 
259 -245 270 -247 283 -247 ct 296 -247 307 -245 317 -242 ct 327 -239 335 -234 341 -228 ct 
347 -223 352 -216 355 -209 ct 358 -201 360 -193 360 -184 ct 360 -178 359 -171 357 -165 ct 
355 -159 352 -154 349 -149 ct 345 -144 341 -139 335 -136 ct 330 -132 324 -130 317 -129 ct 
317 -128 l  324 -127 330 -125 336 -122 ct 342 -119 347 -115 352 -110 ct 356 -105 360 -99 362 -92 ct 
365 -85 366 -77 366 -68 ct p
328 -183 m  328 -189 327 -194 325 -199 ct 324 -204 321 -209 318 -212 ct 314 -216 310 -219 304 -221 ct 
298 -223 291 -224 283 -224 ct 274 -224 268 -223 262 -221 ct 256 -219 252 -216 248 -212 ct 
244 -209 242 -204 240 -199 ct 239 -194 238 -189 238 -183 ct 238 -178 238 -173 240 -168 ct 
241 -163 243 -158 247 -154 ct 250 -150 254 -147 260 -144 ct 266 -141 274 -140 283 -140 ct 
293 -140 301 -141 306 -144 ct 312 -147 317 -150 320 -154 ct 323 -158 325 -163 326 -168 ct 
327 -173 328 -178 328 -183 ct p
334 -71 m  334 -77 333 -83 331 -88 ct 330 -94 327 -98 323 -103 ct 319 -107 314 -110 307 -113 ct 
301 -115 292 -117 283 -117 ct 273 -117 266 -115 259 -113 ct 253 -110 248 -107 244 -103 ct 
240 -98 237 -93 235 -88 ct 233 -82 232 -76 232 -70 ct 232 -63 233 -56 235 -50 ct 
237 -44 240 -39 244 -34 ct 248 -30 253 -26 260 -24 ct 266 -21 274 -20 284 -20 ct 
293 -20 301 -21 307 -24 ct 314 -26 319 -30 323 -34 ct 327 -39 330 -44 331 -50 ct 
333 -56 334 -63 334 -71 ct p ef
pom
pum
32840 19597 t
27 0 m  27 -26 l  89 -26 l  89 -213 l  34 -174 l  34 -204 l  91 -243 l 
120 -243 l  120 -26 l  179 -26 l  179 0 l  27 0 l  p ef
365 -127 m  365 -105 363 -86 358 -70 ct 354 -54 349 -40 341 -29 ct 333 -19 324 -11 313 -5 ct 
302 0 290 3 277 3 ct 267 3 259 2 252 0 ct 244 -2 237 -5 232 -9 ct 226 -13 221 -18 217 -24 ct 
212 -31 209 -39 207 -48 ct 236 -52 l  239 -42 244 -34 251 -29 ct 258 -24 267 -22 277 -22 ct 
286 -22 293 -24 300 -28 ct 307 -32 313 -38 318 -46 ct 323 -54 327 -64 329 -76 ct 
332 -88 334 -102 334 -118 ct 332 -112 328 -108 324 -103 ct 320 -99 315 -95 310 -93 ct 
304 -90 299 -87 292 -86 ct 286 -84 280 -84 274 -84 ct 263 -84 253 -86 244 -89 ct 
235 -93 227 -99 221 -106 ct 215 -113 210 -122 207 -132 ct 203 -142 202 -153 202 -165 ct 
202 -178 203 -189 207 -199 ct 211 -209 216 -218 223 -225 ct 230 -232 238 -238 248 -241 ct 
258 -245 270 -247 282 -247 ct 309 -247 330 -237 344 -217 ct 358 -197 365 -167 365 -127 ct 
p
331 -157 m  331 -166 330 -174 328 -182 ct 326 -190 322 -197 318 -203 ct 314 -209 309 -213 303 -217 ct 
297 -220 289 -222 281 -222 ct 274 -222 267 -221 261 -218 ct 255 -215 250 -211 246 -207 ct 
242 -202 239 -196 236 -189 ct 234 -182 233 -174 233 -165 ct 233 -157 234 -150 236 -143 ct 
238 -136 241 -130 245 -124 ct 249 -119 254 -115 260 -112 ct 266 -109 273 -108 281 -108 ct 
287 -108 293 -109 299 -111 ct 304 -113 310 -116 315 -120 ct 319 -124 323 -129 326 -135 ct 
329 -141 331 -149 331 -157 ct p ef
pom
pum
33423 19597 t
18 0 m  18 -22 l  24 -35 31 -47 39 -58 ct 48 -68 57 -77 66 -85 ct 75 -94 84 -101 94 -109 ct 
103 -116 111 -123 118 -130 ct 126 -137 132 -145 136 -152 ct 141 -160 143 -169 143 -179 ct 
143 -186 142 -192 140 -197 ct 138 -202 135 -207 131 -210 ct 127 -214 122 -217 117 -218 ct 
111 -220 105 -221 99 -221 ct 92 -221 87 -220 81 -218 ct 76 -217 71 -214 67 -211 ct 
62 -207 59 -203 56 -198 ct 53 -193 52 -187 51 -180 ct 19 -183 l  20 -192 23 -200 26 -208 ct 
30 -215 35 -222 42 -228 ct 49 -234 57 -238 66 -242 ct 75 -245 86 -247 99 -247 ct 
111 -247 121 -245 131 -242 ct 140 -239 148 -235 155 -229 ct 161 -224 166 -217 170 -209 ct 
173 -200 175 -191 175 -180 ct 175 -172 173 -164 170 -157 ct 167 -149 164 -142 159 -136 ct 
154 -129 148 -123 142 -116 ct 135 -110 129 -104 122 -98 ct 115 -92 107 -86 100 -81 ct 
93 -75 87 -69 80 -63 ct 74 -57 68 -51 63 -45 ct 58 -39 55 -33 52 -26 ct 179 -26 l 
179 0 l  18 0 l  p ef
368 -122 m  368 -99 365 -79 361 -63 ct 356 -47 350 -34 343 -25 ct 335 -15 326 -8 316 -3 ct 
305 1 294 3 283 3 ct 271 3 260 1 250 -3 ct 239 -8 231 -15 223 -24 ct 215 -34 210 -47 205 -63 ct 
201 -79 199 -99 199 -122 ct 199 -146 201 -167 205 -183 ct 210 -199 216 -212 223 -221 ct 
231 -231 240 -237 250 -241 ct 260 -245 272 -247 284 -247 ct 295 -247 306 -245 316 -241 ct 
327 -237 335 -231 343 -221 ct 351 -212 357 -199 361 -183 ct 365 -167 368 -146 368 -122 ct 
p
336 -122 m  336 -141 335 -157 333 -170 ct 330 -183 327 -193 322 -201 ct 318 -209 312 -214 306 -217 ct 
299 -220 292 -222 284 -222 ct 275 -222 267 -220 261 -217 ct 254 -214 248 -208 244 -201 ct 
239 -193 236 -183 234 -170 ct 231 -157 230 -141 230 -122 ct 230 -103 231 -88 234 -75 ct 
236 -62 239 -52 244 -44 ct 249 -36 254 -31 261 -27 ct 267 -24 275 -22 283 -22 ct 
291 -22 299 -24 305 -27 ct 312 -31 317 -36 322 -44 ct 326 -52 330 -62 332 -75 ct 
335 -88 336 -103 336 -122 ct p ef
pom
pum
34006 19597 t
18 0 m  18 -22 l  24 -35 31 -47 39 -58 ct 48 -68 57 -77 66 -85 ct 75 -94 84 -101 94 -109 ct 
103 -116 111 -123 118 -130 ct 126 -137 132 -145 136 -152 ct 141 -160 143 -169 143 -179 ct 
143 -186 142 -192 140 -197 ct 138 -202 135 -207 131 -210 ct 127 -214 122 -217 117 -218 ct 
111 -220 105 -221 99 -221 ct 92 -221 87 -220 81 -218 ct 76 -217 71 -214 67 -211 ct 
62 -207 59 -203 56 -198 ct 53 -193 52 -187 51 -180 ct 19 -183 l  20 -192 23 -200 26 -208 ct 
30 -215 35 -222 42 -228 ct 49 -234 57 -238 66 -242 ct 75 -245 86 -247 99 -247 ct 
111 -247 121 -245 131 -242 ct 140 -239 148 -235 155 -229 ct 161 -224 166 -217 170 -209 ct 
173 -200 175 -191 175 -180 ct 175 -172 173 -164 170 -157 ct 167 -149 164 -142 159 -136 ct 
154 -129 148 -123 142 -116 ct 135 -110 129 -104 122 -98 ct 115 -92 107 -86 100 -81 ct 
93 -75 87 -69 80 -63 ct 74 -57 68 -51 63 -45 ct 58 -39 55 -33 52 -26 ct 179 -26 l 
179 0 l  18 0 l  p ef
212 0 m  212 -26 l  274 -26 l  274 -213 l  219 -174 l  219 -204 l  276 -243 l 
305 -243 l  305 -26 l  364 -26 l  364 0 l  212 0 l  p ef
pom
pum
34589 19597 t
18 0 m  18 -22 l  24 -35 31 -47 39 -58 ct 48 -68 57 -77 66 -85 ct 75 -94 84 -101 94 -109 ct 
103 -116 111 -123 118 -130 ct 126 -137 132 -145 136 -152 ct 141 -160 143 -169 143 -179 ct 
143 -186 142 -192 140 -197 ct 138 -202 135 -207 131 -210 ct 127 -214 122 -217 117 -218 ct 
111 -220 105 -221 99 -221 ct 92 -221 87 -220 81 -218 ct 76 -217 71 -214 67 -211 ct 
62 -207 59 -203 56 -198 ct 53 -193 52 -187 51 -180 ct 19 -183 l  20 -192 23 -200 26 -208 ct 
30 -215 35 -222 42 -228 ct 49 -234 57 -238 66 -242 ct 75 -245 86 -247 99 -247 ct 
111 -247 121 -245 131 -242 ct 140 -239 148 -235 155 -229 ct 161 -224 166 -217 170 -209 ct 
173 -200 175 -191 175 -180 ct 175 -172 173 -164 170 -157 ct 167 -149 164 -142 159 -136 ct 
154 -129 148 -123 142 -116 ct 135 -110 129 -104 122 -98 ct 115 -92 107 -86 100 -81 ct 
93 -75 87 -69 80 -63 ct 74 -57 68 -51 63 -45 ct 58 -39 55 -33 52 -26 ct 179 -26 l 
179 0 l  18 0 l  p ef
203 0 m  203 -22 l  209 -35 216 -47 224 -58 ct 233 -68 242 -77 251 -85 ct 260 -94 269 -101 279 -109 ct 
288 -116 296 -123 303 -130 ct 311 -137 317 -145 321 -152 ct 326 -160 328 -169 328 -179 ct 
328 -186 327 -192 325 -197 ct 323 -202 320 -207 316 -210 ct 312 -214 307 -217 302 -218 ct 
296 -220 290 -221 284 -221 ct 277 -221 272 -220 266 -218 ct 261 -217 256 -214 252 -211 ct 
247 -207 244 -203 241 -198 ct 238 -193 237 -187 236 -180 ct 204 -183 l  205 -192 208 -200 211 -208 ct 
215 -215 220 -222 227 -228 ct 234 -234 242 -238 251 -242 ct 260 -245 271 -247 284 -247 ct 
296 -247 306 -245 316 -242 ct 325 -239 333 -235 340 -229 ct 346 -224 351 -217 355 -209 ct 
358 -200 360 -191 360 -180 ct 360 -172 358 -164 355 -157 ct 352 -149 349 -142 344 -136 ct 
339 -129 333 -123 327 -116 ct 320 -110 314 -104 307 -98 ct 300 -92 292 -86 285 -81 ct 
278 -75 272 -69 265 -63 ct 259 -57 253 -51 248 -45 ct 243 -39 240 -33 237 -26 ct 
364 -26 l  364 0 l  203 0 l  p ef
pom
pum
35172 19597 t
18 0 m  18 -22 l  24 -35 31 -47 39 -58 ct 48 -68 57 -77 66 -85 ct 75 -94 84 -101 94 -109 ct 
103 -116 111 -123 118 -130 ct 126 -137 132 -145 136 -152 ct 141 -160 143 -169 143 -179 ct 
143 -186 142 -192 140 -197 ct 138 -202 135 -207 131 -210 ct 127 -214 122 -217 117 -218 ct 
111 -220 105 -221 99 -221 ct 92 -221 87 -220 81 -218 ct 76 -217 71 -214 67 -211 ct 
62 -207 59 -203 56 -198 ct 53 -193 52 -187 51 -180 ct 19 -183 l  20 -192 23 -200 26 -208 ct 
30 -215 35 -222 42 -228 ct 49 -234 57 -238 66 -242 ct 75 -245 86 -247 99 -247 ct 
111 -247 121 -245 131 -242 ct 140 -239 148 -235 155 -229 ct 161 -224 166 -217 170 -209 ct 
173 -200 175 -191 175 -180 ct 175 -172 173 -164 170 -157 ct 167 -149 164 -142 159 -136 ct 
154 -129 148 -123 142 -116 ct 135 -110 129 -104 122 -98 ct 115 -92 107 -86 100 -81 ct 
93 -75 87 -69 80 -63 ct 74 -57 68 -51 63 -45 ct 58 -39 55 -33 52 -26 ct 179 -26 l 
179 0 l  18 0 l  p ef
366 -68 m  366 -57 364 -47 360 -38 ct 357 -29 351 -22 345 -16 ct 338 -10 329 -5 319 -2 ct 
308 1 297 3 283 3 ct 268 3 256 1 245 -3 ct 235 -6 227 -11 220 -17 ct 213 -24 208 -31 205 -39 ct 
202 -46 199 -55 198 -63 ct 231 -66 l  231 -60 233 -54 236 -48 ct 238 -43 241 -38 246 -35 ct 
250 -31 255 -28 261 -26 ct 268 -24 275 -23 283 -23 ct 299 -23 311 -27 320 -34 ct 
329 -42 334 -54 334 -69 ct 334 -78 332 -85 328 -90 ct 324 -96 319 -100 313 -103 ct 
307 -106 300 -108 294 -109 ct 287 -110 280 -111 274 -111 ct 257 -111 l  257 -138 l 
274 -138 l  279 -138 286 -139 292 -140 ct 298 -141 304 -143 309 -146 ct 314 -149 319 -154 322 -159 ct 
326 -164 327 -171 327 -180 ct 327 -193 323 -203 316 -210 ct 308 -218 297 -221 282 -221 ct 
268 -221 257 -218 249 -211 ct 240 -204 235 -194 234 -182 ct 203 -184 l  204 -195 207 -204 211 -212 ct 
216 -220 222 -226 229 -231 ct 236 -237 244 -241 253 -243 ct 262 -246 272 -247 282 -247 ct 
296 -247 307 -245 317 -242 ct 327 -239 335 -234 341 -228 ct 347 -222 352 -216 355 -208 ct 
358 -200 359 -192 359 -183 ct 359 -176 358 -169 356 -163 ct 354 -157 351 -151 347 -146 ct 
343 -141 338 -137 331 -134 ct 325 -130 317 -127 308 -125 ct 308 -125 l  318 -124 327 -122 334 -118 ct 
341 -115 347 -111 352 -105 ct 356 -100 360 -95 362 -88 ct 365 -82 366 -75 366 -68 ct 
p ef
pom
pum
35755 19597 t
18 0 m  18 -22 l  24 -35 31 -47 39 -58 ct 48 -68 57 -77 66 -85 ct 75 -94 84 -101 94 -109 ct 
103 -116 111 -123 118 -130 ct 126 -137 132 -145 136 -152 ct 141 -160 143 -169 143 -179 ct 
143 -186 142 -192 140 -197 ct 138 -202 135 -207 131 -210 ct 127 -214 122 -217 117 -218 ct 
111 -220 105 -221 99 -221 ct 92 -221 87 -220 81 -218 ct 76 -217 71 -214 67 -211 ct 
62 -207 59 -203 56 -198 ct 53 -193 52 -187 51 -180 ct 19 -183 l  20 -192 23 -200 26 -208 ct 
30 -215 35 -222 42 -228 ct 49 -234 57 -238 66 -242 ct 75 -245 86 -247 99 -247 ct 
111 -247 121 -245 131 -242 ct 140 -239 148 -235 155 -229 ct 161 -224 166 -217 170 -209 ct 
173 -200 175 -191 175 -180 ct 175 -172 173 -164 170 -157 ct 167 -149 164 -142 159 -136 ct 
154 -129 148 -123 142 -116 ct 135 -110 129 -104 122 -98 ct 115 -92 107 -86 100 -81 ct 
93 -75 87 -69 80 -63 ct 74 -57 68 -51 63 -45 ct 58 -39 55 -33 52 -26 ct 179 -26 l 
179 0 l  18 0 l  p ef
337 -55 m  337 0 l  308 0 l  308 -55 l  193 -55 l  193 -79 l  304 -243 l 
337 -243 l  337 -79 l  371 -79 l  371 -55 l  337 -55 l  p
308 -208 m  307 -207 307 -206 306 -205 ct 305 -203 304 -201 303 -199 ct 302 -197 300 -195 299 -193 ct 
298 -191 297 -189 296 -187 ct 234 -95 l  233 -94 232 -93 231 -91 ct 230 -90 229 -88 228 -87 ct 
227 -85 226 -84 224 -82 ct 223 -81 222 -80 222 -80 ct 308 -80 l  308 -208 l 
p ef
pom
pum
36339 19597 t
18 0 m  18 -22 l  24 -35 31 -47 39 -58 ct 48 -68 57 -77 66 -85 ct 75 -94 84 -101 94 -109 ct 
103 -116 111 -123 118 -130 ct 126 -137 132 -145 136 -152 ct 141 -160 143 -169 143 -179 ct 
143 -186 142 -192 140 -197 ct 138 -202 135 -207 131 -210 ct 127 -214 122 -217 117 -218 ct 
111 -220 105 -221 99 -221 ct 92 -221 87 -220 81 -218 ct 76 -217 71 -214 67 -211 ct 
62 -207 59 -203 56 -198 ct 53 -193 52 -187 51 -180 ct 19 -183 l  20 -192 23 -200 26 -208 ct 
30 -215 35 -222 42 -228 ct 49 -234 57 -238 66 -242 ct 75 -245 86 -247 99 -247 ct 
111 -247 121 -245 131 -242 ct 140 -239 148 -235 155 -229 ct 161 -224 166 -217 170 -209 ct 
173 -200 175 -191 175 -180 ct 175 -172 173 -164 170 -157 ct 167 -149 164 -142 159 -136 ct 
154 -129 148 -123 142 -116 ct 135 -110 129 -104 122 -98 ct 115 -92 107 -86 100 -81 ct 
93 -75 87 -69 80 -63 ct 74 -57 68 -51 63 -45 ct 58 -39 55 -33 52 -26 ct 179 -26 l 
179 0 l  18 0 l  p ef
367 -80 m  367 -67 365 -56 361 -46 ct 357 -36 352 -27 345 -20 ct 337 -13 328 -7 318 -3 ct 
307 1 294 3 280 3 ct 268 3 256 1 247 -1 ct 237 -4 229 -9 223 -14 ct 216 -19 211 -25 207 -32 ct 
203 -39 201 -47 199 -55 ct 231 -58 l  232 -54 234 -49 236 -45 ct 238 -41 241 -37 245 -33 ct 
249 -30 254 -27 260 -25 ct 266 -23 273 -22 281 -22 ct 289 -22 296 -24 303 -26 ct 
309 -29 315 -32 320 -37 ct 324 -42 328 -48 330 -55 ct 333 -62 334 -70 334 -79 ct 
334 -86 333 -93 331 -99 ct 328 -106 325 -111 320 -116 ct 316 -120 310 -124 304 -126 ct 
297 -129 290 -130 282 -130 ct 277 -130 272 -130 267 -129 ct 263 -128 259 -126 255 -125 ct 
252 -123 248 -121 245 -119 ct 242 -117 239 -115 237 -113 ct 206 -113 l  214 -243 l 
352 -243 l  352 -217 l  243 -217 l  238 -140 l  243 -144 250 -148 259 -151 ct 
267 -154 277 -155 288 -155 ct 300 -155 311 -154 321 -150 ct 330 -146 339 -141 345 -134 ct 
352 -128 357 -120 361 -110 ct 365 -101 367 -91 367 -80 ct p ef
pom
pum
22093 19150 t
183 -122 m  183 -99 180 -79 176 -63 ct 171 -47 165 -34 158 -25 ct 150 -15 141 -8 131 -3 ct 
120 1 109 3 98 3 ct 86 3 75 1 65 -3 ct 54 -8 46 -15 38 -24 ct 30 -34 25 -47 20 -63 ct 
16 -79 14 -99 14 -122 ct 14 -146 16 -167 20 -183 ct 25 -199 31 -212 38 -221 ct 
46 -231 55 -237 65 -241 ct 75 -245 87 -247 99 -247 ct 110 -247 121 -245 131 -241 ct 
142 -237 150 -231 158 -221 ct 166 -212 172 -199 176 -183 ct 180 -167 183 -146 183 -122 ct 
p
151 -122 m  151 -141 150 -157 148 -170 ct 145 -183 142 -193 137 -201 ct 133 -209 127 -214 121 -217 ct 
114 -220 107 -222 99 -222 ct 90 -222 82 -220 76 -217 ct 69 -214 63 -208 59 -201 ct 
54 -193 51 -183 49 -170 ct 46 -157 45 -141 45 -122 ct 45 -103 46 -88 49 -75 ct 
51 -62 54 -52 59 -44 ct 64 -36 69 -31 76 -27 ct 82 -24 90 -22 98 -22 ct 106 -22 114 -24 120 -27 ct 
127 -31 132 -36 137 -44 ct 141 -52 145 -62 147 -75 ct 150 -88 151 -103 151 -122 ct 
p ef
pom
pum
21537 18284 t
18 0 m  18 -22 l  24 -35 31 -47 39 -58 ct 48 -68 57 -77 66 -85 ct 75 -94 84 -101 94 -109 ct 
103 -116 111 -123 118 -130 ct 126 -137 132 -145 136 -152 ct 141 -160 143 -169 143 -179 ct 
143 -186 142 -192 140 -197 ct 138 -202 135 -207 131 -210 ct 127 -214 122 -217 117 -218 ct 
111 -220 105 -221 99 -221 ct 92 -221 87 -220 81 -218 ct 76 -217 71 -214 67 -211 ct 
62 -207 59 -203 56 -198 ct 53 -193 52 -187 51 -180 ct 19 -183 l  20 -192 23 -200 26 -208 ct 
30 -215 35 -222 42 -228 ct 49 -234 57 -238 66 -242 ct 75 -245 86 -247 99 -247 ct 
111 -247 121 -245 131 -242 ct 140 -239 148 -235 155 -229 ct 161 -224 166 -217 170 -209 ct 
173 -200 175 -191 175 -180 ct 175 -172 173 -164 170 -157 ct 167 -149 164 -142 159 -136 ct 
154 -129 148 -123 142 -116 ct 135 -110 129 -104 122 -98 ct 115 -92 107 -86 100 -81 ct 
93 -75 87 -69 80 -63 ct 74 -57 68 -51 63 -45 ct 58 -39 55 -33 52 -26 ct 179 -26 l 
179 0 l  18 0 l  p ef
368 -122 m  368 -99 365 -79 361 -63 ct 356 -47 350 -34 343 -25 ct 335 -15 326 -8 316 -3 ct 
305 1 294 3 283 3 ct 271 3 260 1 250 -3 ct 239 -8 231 -15 223 -24 ct 215 -34 210 -47 205 -63 ct 
201 -79 199 -99 199 -122 ct 199 -146 201 -167 205 -183 ct 210 -199 216 -212 223 -221 ct 
231 -231 240 -237 250 -241 ct 260 -245 272 -247 284 -247 ct 295 -247 306 -245 316 -241 ct 
327 -237 335 -231 343 -221 ct 351 -212 357 -199 361 -183 ct 365 -167 368 -146 368 -122 ct 
p
336 -122 m  336 -141 335 -157 333 -170 ct 330 -183 327 -193 322 -201 ct 318 -209 312 -214 306 -217 ct 
299 -220 292 -222 284 -222 ct 275 -222 267 -220 261 -217 ct 254 -214 248 -208 244 -201 ct 
239 -193 236 -183 234 -170 ct 231 -157 230 -141 230 -122 ct 230 -103 231 -88 234 -75 ct 
236 -62 239 -52 244 -44 ct 249 -36 254 -31 261 -27 ct 267 -24 275 -22 283 -22 ct 
291 -22 299 -24 305 -27 ct 312 -31 317 -36 322 -44 ct 326 -52 330 -62 332 -75 ct 
335 -88 336 -103 336 -122 ct p ef
553 -122 m  553 -99 550 -79 546 -63 ct 541 -47 535 -34 528 -25 ct 520 -15 511 -8 501 -3 ct 
490 1 479 3 468 3 ct 456 3 445 1 435 -3 ct 424 -8 416 -15 408 -24 ct 400 -34 395 -47 390 -63 ct 
386 -79 384 -99 384 -122 ct 384 -146 386 -167 390 -183 ct 395 -199 401 -212 408 -221 ct 
416 -231 425 -237 435 -241 ct 445 -245 457 -247 469 -247 ct 480 -247 491 -245 501 -241 ct 
512 -237 520 -231 528 -221 ct 536 -212 542 -199 546 -183 ct 550 -167 553 -146 553 -122 ct 
p
521 -122 m  521 -141 520 -157 518 -170 ct 515 -183 512 -193 507 -201 ct 503 -209 497 -214 491 -217 ct 
484 -220 477 -222 469 -222 ct 460 -222 452 -220 446 -217 ct 439 -214 433 -208 429 -201 ct 
424 -193 421 -183 419 -170 ct 416 -157 415 -141 415 -122 ct 415 -103 416 -88 419 -75 ct 
421 -62 424 -52 429 -44 ct 434 -36 439 -31 446 -27 ct 452 -24 460 -22 468 -22 ct 
476 -22 484 -24 490 -27 ct 497 -31 502 -36 507 -44 ct 511 -52 515 -62 517 -75 ct 
520 -88 521 -103 521 -122 ct p ef
739 -122 m  739 -99 736 -79 732 -63 ct 727 -47 721 -34 714 -25 ct 706 -15 697 -8 687 -3 ct 
676 1 665 3 654 3 ct 642 3 631 1 621 -3 ct 610 -8 602 -15 594 -24 ct 586 -34 581 -47 576 -63 ct 
572 -79 570 -99 570 -122 ct 570 -146 572 -167 576 -183 ct 581 -199 587 -212 594 -221 ct 
602 -231 611 -237 621 -241 ct 631 -245 643 -247 655 -247 ct 666 -247 677 -245 687 -241 ct 
698 -237 706 -231 714 -221 ct 722 -212 728 -199 732 -183 ct 736 -167 739 -146 739 -122 ct 
p
707 -122 m  707 -141 706 -157 704 -170 ct 701 -183 698 -193 693 -201 ct 689 -209 683 -214 677 -217 ct 
670 -220 663 -222 655 -222 ct 646 -222 638 -220 632 -217 ct 625 -214 619 -208 615 -201 ct 
610 -193 607 -183 605 -170 ct 602 -157 601 -141 601 -122 ct 601 -103 602 -88 605 -75 ct 
607 -62 610 -52 615 -44 ct 620 -36 625 -31 632 -27 ct 638 -24 646 -22 654 -22 ct 
662 -22 670 -24 676 -27 ct 683 -31 688 -36 693 -44 ct 697 -52 701 -62 703 -75 ct 
706 -88 707 -103 707 -122 ct p ef
pom
pum
21537 17418 t
152 -55 m  152 0 l  123 0 l  123 -55 l  8 -55 l  8 -79 l  119 -243 l  152 -243 l 
152 -79 l  186 -79 l  186 -55 l  152 -55 l  p
123 -208 m  122 -207 122 -206 121 -205 ct 120 -203 119 -201 118 -199 ct 117 -197 115 -195 114 -193 ct 
113 -191 112 -189 111 -187 ct 49 -95 l  48 -94 47 -93 46 -91 ct 45 -90 44 -88 43 -87 ct 
42 -85 41 -84 39 -82 ct 38 -81 37 -80 37 -80 ct 123 -80 l  123 -208 l  p ef
368 -122 m  368 -99 365 -79 361 -63 ct 356 -47 350 -34 343 -25 ct 335 -15 326 -8 316 -3 ct 
305 1 294 3 283 3 ct 271 3 260 1 250 -3 ct 239 -8 231 -15 223 -24 ct 215 -34 210 -47 205 -63 ct 
201 -79 199 -99 199 -122 ct 199 -146 201 -167 205 -183 ct 210 -199 216 -212 223 -221 ct 
231 -231 240 -237 250 -241 ct 260 -245 272 -247 284 -247 ct 295 -247 306 -245 316 -241 ct 
327 -237 335 -231 343 -221 ct 351 -212 357 -199 361 -183 ct 365 -167 368 -146 368 -122 ct 
p
336 -122 m  336 -141 335 -157 333 -170 ct 330 -183 327 -193 322 -201 ct 318 -209 312 -214 306 -217 ct 
299 -220 292 -222 284 -222 ct 275 -222 267 -220 261 -217 ct 254 -214 248 -208 244 -201 ct 
239 -193 236 -183 234 -170 ct 231 -157 230 -141 230 -122 ct 230 -103 231 -88 234 -75 ct 
236 -62 239 -52 244 -44 ct 249 -36 254 -31 261 -27 ct 267 -24 275 -22 283 -22 ct 
291 -22 299 -24 305 -27 ct 312 -31 317 -36 322 -44 ct 326 -52 330 -62 332 -75 ct 
335 -88 336 -103 336 -122 ct p ef
553 -122 m  553 -99 550 -79 546 -63 ct 541 -47 535 -34 528 -25 ct 520 -15 511 -8 501 -3 ct 
490 1 479 3 468 3 ct 456 3 445 1 435 -3 ct 424 -8 416 -15 408 -24 ct 400 -34 395 -47 390 -63 ct 
386 -79 384 -99 384 -122 ct 384 -146 386 -167 390 -183 ct 395 -199 401 -212 408 -221 ct 
416 -231 425 -237 435 -241 ct 445 -245 457 -247 469 -247 ct 480 -247 491 -245 501 -241 ct 
512 -237 520 -231 528 -221 ct 536 -212 542 -199 546 -183 ct 550 -167 553 -146 553 -122 ct 
p
521 -122 m  521 -141 520 -157 518 -170 ct 515 -183 512 -193 507 -201 ct 503 -209 497 -214 491 -217 ct 
484 -220 477 -222 469 -222 ct 460 -222 452 -220 446 -217 ct 439 -214 433 -208 429 -201 ct 
424 -193 421 -183 419 -170 ct 416 -157 415 -141 415 -122 ct 415 -103 416 -88 419 -75 ct 
421 -62 424 -52 429 -44 ct 434 -36 439 -31 446 -27 ct 452 -24 460 -22 468 -22 ct 
476 -22 484 -24 490 -27 ct 497 -31 502 -36 507 -44 ct 511 -52 515 -62 517 -75 ct 
520 -88 521 -103 521 -122 ct p ef
739 -122 m  739 -99 736 -79 732 -63 ct 727 -47 721 -34 714 -25 ct 706 -15 697 -8 687 -3 ct 
676 1 665 3 654 3 ct 642 3 631 1 621 -3 ct 610 -8 602 -15 594 -24 ct 586 -34 581 -47 576 -63 ct 
572 -79 570 -99 570 -122 ct 570 -146 572 -167 576 -183 ct 581 -199 587 -212 594 -221 ct 
602 -231 611 -237 621 -241 ct 631 -245 643 -247 655 -247 ct 666 -247 677 -245 687 -241 ct 
698 -237 706 -231 714 -221 ct 722 -212 728 -199 732 -183 ct 736 -167 739 -146 739 -122 ct 
p
707 -122 m  707 -141 706 -157 704 -170 ct 701 -183 698 -193 693 -201 ct 689 -209 683 -214 677 -217 ct 
670 -220 663 -222 655 -222 ct 646 -222 638 -220 632 -217 ct 625 -214 619 -208 615 -201 ct 
610 -193 607 -183 605 -170 ct 602 -157 601 -141 601 -122 ct 601 -103 602 -88 605 -75 ct 
607 -62 610 -52 615 -44 ct 620 -36 625 -31 632 -27 ct 638 -24 646 -22 654 -22 ct 
662 -22 670 -24 676 -27 ct 683 -31 688 -36 693 -44 ct 697 -52 701 -62 703 -75 ct 
706 -88 707 -103 707 -122 ct p ef
pom
pum
21537 16552 t
181 -80 m  181 -68 179 -57 176 -47 ct 172 -36 167 -28 161 -20 ct 154 -13 146 -7 136 -3 ct 
126 1 115 3 102 3 ct 88 3 76 0 65 -5 ct 55 -11 46 -18 39 -28 ct 32 -39 27 -51 23 -66 ct 
20 -81 18 -97 18 -116 ct 18 -138 20 -157 24 -173 ct 28 -190 34 -203 41 -214 ct 
48 -225 58 -233 68 -239 ct 79 -244 91 -247 105 -247 ct 113 -247 121 -246 128 -244 ct 
135 -243 142 -240 148 -236 ct 154 -232 159 -227 163 -221 ct 168 -215 171 -207 174 -198 ct 
144 -192 l  141 -203 136 -210 129 -215 ct 122 -220 114 -222 104 -222 ct 96 -222 88 -220 81 -216 ct 
74 -212 69 -206 64 -198 ct 59 -190 55 -180 53 -168 ct 50 -156 49 -142 49 -126 ct 
54 -136 62 -144 73 -150 ct 83 -155 95 -158 108 -158 ct 119 -158 129 -156 138 -153 ct 
147 -149 154 -144 161 -137 ct 167 -130 172 -122 176 -113 ct 179 -103 181 -92 181 -80 ct 
p
149 -79 m  149 -87 148 -95 146 -102 ct 144 -108 141 -114 137 -119 ct 133 -124 128 -128 122 -130 ct 
115 -133 108 -134 100 -134 ct 95 -134 89 -133 83 -131 ct 78 -130 72 -127 68 -123 ct 
63 -120 59 -115 56 -109 ct 53 -102 52 -95 52 -86 ct 52 -77 53 -69 55 -61 ct 58 -53 61 -46 65 -41 ct 
70 -35 75 -30 81 -27 ct 87 -24 94 -22 101 -22 ct 109 -22 116 -23 121 -26 ct 127 -29 132 -32 137 -37 ct 
141 -42 144 -48 146 -55 ct 148 -62 149 -70 149 -79 ct p ef
368 -122 m  368 -99 365 -79 361 -63 ct 356 -47 350 -34 343 -25 ct 335 -15 326 -8 316 -3 ct 
305 1 294 3 283 3 ct 271 3 260 1 250 -3 ct 239 -8 231 -15 223 -24 ct 215 -34 210 -47 205 -63 ct 
201 -79 199 -99 199 -122 ct 199 -146 201 -167 205 -183 ct 210 -199 216 -212 223 -221 ct 
231 -231 240 -237 250 -241 ct 260 -245 272 -247 284 -247 ct 295 -247 306 -245 316 -241 ct 
327 -237 335 -231 343 -221 ct 351 -212 357 -199 361 -183 ct 365 -167 368 -146 368 -122 ct 
p
336 -122 m  336 -141 335 -157 333 -170 ct 330 -183 327 -193 322 -201 ct 318 -209 312 -214 306 -217 ct 
299 -220 292 -222 284 -222 ct 275 -222 267 -220 261 -217 ct 254 -214 248 -208 244 -201 ct 
239 -193 236 -183 234 -170 ct 231 -157 230 -141 230 -122 ct 230 -103 231 -88 234 -75 ct 
236 -62 239 -52 244 -44 ct 249 -36 254 -31 261 -27 ct 267 -24 275 -22 283 -22 ct 
291 -22 299 -24 305 -27 ct 312 -31 317 -36 322 -44 ct 326 -52 330 -62 332 -75 ct 
335 -88 336 -103 336 -122 ct p ef
553 -122 m  553 -99 550 -79 546 -63 ct 541 -47 535 -34 528 -25 ct 520 -15 511 -8 501 -3 ct 
490 1 479 3 468 3 ct 456 3 445 1 435 -3 ct 424 -8 416 -15 408 -24 ct 400 -34 395 -47 390 -63 ct 
386 -79 384 -99 384 -122 ct 384 -146 386 -167 390 -183 ct 395 -199 401 -212 408 -221 ct 
416 -231 425 -237 435 -241 ct 445 -245 457 -247 469 -247 ct 480 -247 491 -245 501 -241 ct 
512 -237 520 -231 528 -221 ct 536 -212 542 -199 546 -183 ct 550 -167 553 -146 553 -122 ct 
p
521 -122 m  521 -141 520 -157 518 -170 ct 515 -183 512 -193 507 -201 ct 503 -209 497 -214 491 -217 ct 
484 -220 477 -222 469 -222 ct 460 -222 452 -220 446 -217 ct 439 -214 433 -208 429 -201 ct 
424 -193 421 -183 419 -170 ct 416 -157 415 -141 415 -122 ct 415 -103 416 -88 419 -75 ct 
421 -62 424 -52 429 -44 ct 434 -36 439 -31 446 -27 ct 452 -24 460 -22 468 -22 ct 
476 -22 484 -24 490 -27 ct 497 -31 502 -36 507 -44 ct 511 -52 515 -62 517 -75 ct 
520 -88 521 -103 521 -122 ct p ef
739 -122 m  739 -99 736 -79 732 -63 ct 727 -47 721 -34 714 -25 ct 706 -15 697 -8 687 -3 ct 
676 1 665 3 654 3 ct 642 3 631 1 621 -3 ct 610 -8 602 -15 594 -24 ct 586 -34 581 -47 576 -63 ct 
572 -79 570 -99 570 -122 ct 570 -146 572 -167 576 -183 ct 581 -199 587 -212 594 -221 ct 
602 -231 611 -237 621 -241 ct 631 -245 643 -247 655 -247 ct 666 -247 677 -245 687 -241 ct 
698 -237 706 -231 714 -221 ct 722 -212 728 -199 732 -183 ct 736 -167 739 -146 739 -122 ct 
p
707 -122 m  707 -141 706 -157 704 -170 ct 701 -183 698 -193 693 -201 ct 689 -209 683 -214 677 -217 ct 
670 -220 663 -222 655 -222 ct 646 -222 638 -220 632 -217 ct 625 -214 619 -208 615 -201 ct 
610 -193 607 -183 605 -170 ct 602 -157 601 -141 601 -122 ct 601 -103 602 -88 605 -75 ct 
607 -62 610 -52 615 -44 ct 620 -36 625 -31 632 -27 ct 638 -24 646 -22 654 -22 ct 
662 -22 670 -24 676 -27 ct 683 -31 688 -36 693 -44 ct 697 -52 701 -62 703 -75 ct 
706 -88 707 -103 707 -122 ct p ef
pom
pum
21537 15686 t
181 -68 m  181 -58 179 -48 176 -40 ct 173 -31 168 -24 161 -17 ct 154 -11 146 -6 135 -2 ct 
125 1 113 3 98 3 ct 84 3 72 1 61 -2 ct 51 -6 42 -11 35 -17 ct 29 -23 24 -31 20 -40 ct 
17 -48 15 -58 15 -68 ct 15 -77 17 -85 19 -92 ct 22 -98 26 -104 30 -109 ct 35 -114 40 -118 46 -121 ct 
52 -125 58 -127 64 -128 ct 64 -128 l  57 -130 51 -132 46 -136 ct 40 -140 36 -144 32 -149 ct 
29 -154 26 -159 24 -166 ct 22 -172 21 -178 21 -185 ct 21 -193 23 -201 26 -209 ct 
29 -216 34 -223 41 -229 ct 47 -234 55 -239 64 -242 ct 74 -245 85 -247 98 -247 ct 
111 -247 122 -245 132 -242 ct 142 -239 150 -234 156 -228 ct 162 -223 167 -216 170 -209 ct 
173 -201 175 -193 175 -184 ct 175 -178 174 -171 172 -165 ct 170 -159 167 -154 164 -149 ct 
160 -144 156 -139 150 -136 ct 145 -132 139 -130 132 -129 ct 132 -128 l  139 -127 145 -125 151 -122 ct 
157 -119 162 -115 167 -110 ct 171 -105 175 -99 177 -92 ct 180 -85 181 -77 181 -68 ct 
p
143 -183 m  143 -189 142 -194 140 -199 ct 139 -204 136 -209 133 -212 ct 129 -216 125 -219 119 -221 ct 
113 -223 106 -224 98 -224 ct 89 -224 83 -223 77 -221 ct 71 -219 67 -216 63 -212 ct 
59 -209 57 -204 55 -199 ct 54 -194 53 -189 53 -183 ct 53 -178 53 -173 55 -168 ct 
56 -163 58 -158 62 -154 ct 65 -150 69 -147 75 -144 ct 81 -141 89 -140 98 -140 ct 
108 -140 116 -141 121 -144 ct 127 -147 132 -150 135 -154 ct 138 -158 140 -163 141 -168 ct 
142 -173 143 -178 143 -183 ct p
149 -71 m  149 -77 148 -83 146 -88 ct 145 -94 142 -98 138 -103 ct 134 -107 129 -110 122 -113 ct 
116 -115 107 -117 98 -117 ct 88 -117 81 -115 74 -113 ct 68 -110 63 -107 59 -103 ct 
55 -98 52 -93 50 -88 ct 48 -82 47 -76 47 -70 ct 47 -63 48 -56 50 -50 ct 52 -44 55 -39 59 -34 ct 
63 -30 68 -26 75 -24 ct 81 -21 89 -20 99 -20 ct 108 -20 116 -21 122 -24 ct 129 -26 134 -30 138 -34 ct 
142 -39 145 -44 146 -50 ct 148 -56 149 -63 149 -71 ct p ef
368 -122 m  368 -99 365 -79 361 -63 ct 356 -47 350 -34 343 -25 ct 335 -15 326 -8 316 -3 ct 
305 1 294 3 283 3 ct 271 3 260 1 250 -3 ct 239 -8 231 -15 223 -24 ct 215 -34 210 -47 205 -63 ct 
201 -79 199 -99 199 -122 ct 199 -146 201 -167 205 -183 ct 210 -199 216 -212 223 -221 ct 
231 -231 240 -237 250 -241 ct 260 -245 272 -247 284 -247 ct 295 -247 306 -245 316 -241 ct 
327 -237 335 -231 343 -221 ct 351 -212 357 -199 361 -183 ct 365 -167 368 -146 368 -122 ct 
p
336 -122 m  336 -141 335 -157 333 -170 ct 330 -183 327 -193 322 -201 ct 318 -209 312 -214 306 -217 ct 
299 -220 292 -222 284 -222 ct 275 -222 267 -220 261 -217 ct 254 -214 248 -208 244 -201 ct 
239 -193 236 -183 234 -170 ct 231 -157 230 -141 230 -122 ct 230 -103 231 -88 234 -75 ct 
236 -62 239 -52 244 -44 ct 249 -36 254 -31 261 -27 ct 267 -24 275 -22 283 -22 ct 
291 -22 299 -24 305 -27 ct 312 -31 317 -36 322 -44 ct 326 -52 330 -62 332 -75 ct 
335 -88 336 -103 336 -122 ct p ef
553 -122 m  553 -99 550 -79 546 -63 ct 541 -47 535 -34 528 -25 ct 520 -15 511 -8 501 -3 ct 
490 1 479 3 468 3 ct 456 3 445 1 435 -3 ct 424 -8 416 -15 408 -24 ct 400 -34 395 -47 390 -63 ct 
386 -79 384 -99 384 -122 ct 384 -146 386 -167 390 -183 ct 395 -199 401 -212 408 -221 ct 
416 -231 425 -237 435 -241 ct 445 -245 457 -247 469 -247 ct 480 -247 491 -245 501 -241 ct 
512 -237 520 -231 528 -221 ct 536 -212 542 -199 546 -183 ct 550 -167 553 -146 553 -122 ct 
p
521 -122 m  521 -141 520 -157 518 -170 ct 515 -183 512 -193 507 -201 ct 503 -209 497 -214 491 -217 ct 
484 -220 477 -222 469 -222 ct 460 -222 452 -220 446 -217 ct 439 -214 433 -208 429 -201 ct 
424 -193 421 -183 419 -170 ct 416 -157 415 -141 415 -122 ct 415 -103 416 -88 419 -75 ct 
421 -62 424 -52 429 -44 ct 434 -36 439 -31 446 -27 ct 452 -24 460 -22 468 -22 ct 
476 -22 484 -24 490 -27 ct 497 -31 502 -36 507 -44 ct 511 -52 515 -62 517 -75 ct 
520 -88 521 -103 521 -122 ct p ef
739 -122 m  739 -99 736 -79 732 -63 ct 727 -47 721 -34 714 -25 ct 706 -15 697 -8 687 -3 ct 
676 1 665 3 654 3 ct 642 3 631 1 621 -3 ct 610 -8 602 -15 594 -24 ct 586 -34 581 -47 576 -63 ct 
572 -79 570 -99 570 -122 ct 570 -146 572 -167 576 -183 ct 581 -199 587 -212 594 -221 ct 
602 -231 611 -237 621 -241 ct 631 -245 643 -247 655 -247 ct 666 -247 677 -245 687 -241 ct 
698 -237 706 -231 714 -221 ct 722 -212 728 -199 732 -183 ct 736 -167 739 -146 739 -122 ct 
p
707 -122 m  707 -141 706 -157 704 -170 ct 701 -183 698 -193 693 -201 ct 689 -209 683 -214 677 -217 ct 
670 -220 663 -222 655 -222 ct 646 -222 638 -220 632 -217 ct 625 -214 619 -208 615 -201 ct 
610 -193 607 -183 605 -170 ct 602 -157 601 -141 601 -122 ct 601 -103 602 -88 605 -75 ct 
607 -62 610 -52 615 -44 ct 620 -36 625 -31 632 -27 ct 638 -24 646 -22 654 -22 ct 
662 -22 670 -24 676 -27 ct 683 -31 688 -36 693 -44 ct 697 -52 701 -62 703 -75 ct 
706 -88 707 -103 707 -122 ct p ef
pom
pum
21352 14820 t
27 0 m  27 -26 l  89 -26 l  89 -213 l  34 -174 l  34 -204 l  91 -243 l 
120 -243 l  120 -26 l  179 -26 l  179 0 l  27 0 l  p ef
368 -122 m  368 -99 365 -79 361 -63 ct 356 -47 350 -34 343 -25 ct 335 -15 326 -8 316 -3 ct 
305 1 294 3 283 3 ct 271 3 260 1 250 -3 ct 239 -8 231 -15 223 -24 ct 215 -34 210 -47 205 -63 ct 
201 -79 199 -99 199 -122 ct 199 -146 201 -167 205 -183 ct 210 -199 216 -212 223 -221 ct 
231 -231 240 -237 250 -241 ct 260 -245 272 -247 284 -247 ct 295 -247 306 -245 316 -241 ct 
327 -237 335 -231 343 -221 ct 351 -212 357 -199 361 -183 ct 365 -167 368 -146 368 -122 ct 
p
336 -122 m  336 -141 335 -157 333 -170 ct 330 -183 327 -193 322 -201 ct 318 -209 312 -214 306 -217 ct 
299 -220 292 -222 284 -222 ct 275 -222 267 -220 261 -217 ct 254 -214 248 -208 244 -201 ct 
239 -193 236 -183 234 -170 ct 231 -157 230 -141 230 -122 ct 230 -103 231 -88 234 -75 ct 
236 -62 239 -52 244 -44 ct 249 -36 254 -31 261 -27 ct 267 -24 275 -22 283 -22 ct 
291 -22 299 -24 305 -27 ct 312 -31 317 -36 322 -44 ct 326 -52 330 -62 332 -75 ct 
335 -88 336 -103 336 -122 ct p ef
553 -122 m  553 -99 550 -79 546 -63 ct 541 -47 535 -34 528 -25 ct 520 -15 511 -8 501 -3 ct 
490 1 479 3 468 3 ct 456 3 445 1 435 -3 ct 424 -8 416 -15 408 -24 ct 400 -34 395 -47 390 -63 ct 
386 -79 384 -99 384 -122 ct 384 -146 386 -167 390 -183 ct 395 -199 401 -212 408 -221 ct 
416 -231 425 -237 435 -241 ct 445 -245 457 -247 469 -247 ct 480 -247 491 -245 501 -241 ct 
512 -237 520 -231 528 -221 ct 536 -212 542 -199 546 -183 ct 550 -167 553 -146 553 -122 ct 
p
521 -122 m  521 -141 520 -157 518 -170 ct 515 -183 512 -193 507 -201 ct 503 -209 497 -214 491 -217 ct 
484 -220 477 -222 469 -222 ct 460 -222 452 -220 446 -217 ct 439 -214 433 -208 429 -201 ct 
424 -193 421 -183 419 -170 ct 416 -157 415 -141 415 -122 ct 415 -103 416 -88 419 -75 ct 
421 -62 424 -52 429 -44 ct 434 -36 439 -31 446 -27 ct 452 -24 460 -22 468 -22 ct 
476 -22 484 -24 490 -27 ct 497 -31 502 -36 507 -44 ct 511 -52 515 -62 517 -75 ct 
520 -88 521 -103 521 -122 ct p ef
739 -122 m  739 -99 736 -79 732 -63 ct 727 -47 721 -34 714 -25 ct 706 -15 697 -8 687 -3 ct 
676 1 665 3 654 3 ct 642 3 631 1 621 -3 ct 610 -8 602 -15 594 -24 ct 586 -34 581 -47 576 -63 ct 
572 -79 570 -99 570 -122 ct 570 -146 572 -167 576 -183 ct 581 -199 587 -212 594 -221 ct 
602 -231 611 -237 621 -241 ct 631 -245 643 -247 655 -247 ct 666 -247 677 -245 687 -241 ct 
698 -237 706 -231 714 -221 ct 722 -212 728 -199 732 -183 ct 736 -167 739 -146 739 -122 ct 
p
707 -122 m  707 -141 706 -157 704 -170 ct 701 -183 698 -193 693 -201 ct 689 -209 683 -214 677 -217 ct 
670 -220 663 -222 655 -222 ct 646 -222 638 -220 632 -217 ct 625 -214 619 -208 615 -201 ct 
610 -193 607 -183 605 -170 ct 602 -157 601 -141 601 -122 ct 601 -103 602 -88 605 -75 ct 
607 -62 610 -52 615 -44 ct 620 -36 625 -31 632 -27 ct 638 -24 646 -22 654 -22 ct 
662 -22 670 -24 676 -27 ct 683 -31 688 -36 693 -44 ct 697 -52 701 -62 703 -75 ct 
706 -88 707 -103 707 -122 ct p ef
924 -122 m  924 -99 921 -79 917 -63 ct 912 -47 906 -34 899 -25 ct 891 -15 882 -8 872 -3 ct 
861 1 850 3 839 3 ct 827 3 816 1 806 -3 ct 795 -8 787 -15 779 -24 ct 771 -34 766 -47 761 -63 ct 
757 -79 755 -99 755 -122 ct 755 -146 757 -167 761 -183 ct 766 -199 772 -212 779 -221 ct 
787 -231 796 -237 806 -241 ct 816 -245 828 -247 840 -247 ct 851 -247 862 -245 872 -241 ct 
883 -237 891 -231 899 -221 ct 907 -212 913 -199 917 -183 ct 921 -167 924 -146 924 -122 ct 
p
892 -122 m  892 -141 891 -157 889 -170 ct 886 -183 883 -193 878 -201 ct 874 -209 868 -214 862 -217 ct 
855 -220 848 -222 840 -222 ct 831 -222 823 -220 817 -217 ct 810 -214 804 -208 800 -201 ct 
795 -193 792 -183 790 -170 ct 787 -157 786 -141 786 -122 ct 786 -103 787 -88 790 -75 ct 
792 -62 795 -52 800 -44 ct 805 -36 810 -31 817 -27 ct 823 -24 831 -22 839 -22 ct 
847 -22 855 -24 861 -27 ct 868 -31 873 -36 878 -44 ct 882 -52 886 -62 888 -75 ct 
891 -88 892 -103 892 -122 ct p ef
pom
pum
21352 13953 t
27 0 m  27 -26 l  89 -26 l  89 -213 l  34 -174 l  34 -204 l  91 -243 l 
120 -243 l  120 -26 l  179 -26 l  179 0 l  27 0 l  p ef
203 0 m  203 -22 l  209 -35 216 -47 224 -58 ct 233 -68 242 -77 251 -85 ct 260 -94 269 -101 279 -109 ct 
288 -116 296 -123 303 -130 ct 311 -137 317 -145 321 -152 ct 326 -160 328 -169 328 -179 ct 
328 -186 327 -192 325 -197 ct 323 -202 320 -207 316 -210 ct 312 -214 307 -217 302 -218 ct 
296 -220 290 -221 284 -221 ct 277 -221 272 -220 266 -218 ct 261 -217 256 -214 252 -211 ct 
247 -207 244 -203 241 -198 ct 238 -193 237 -187 236 -180 ct 204 -183 l  205 -192 208 -200 211 -208 ct 
215 -215 220 -222 227 -228 ct 234 -234 242 -238 251 -242 ct 260 -245 271 -247 284 -247 ct 
296 -247 306 -245 316 -242 ct 325 -239 333 -235 340 -229 ct 346 -224 351 -217 355 -209 ct 
358 -200 360 -191 360 -180 ct 360 -172 358 -164 355 -157 ct 352 -149 349 -142 344 -136 ct 
339 -129 333 -123 327 -116 ct 320 -110 314 -104 307 -98 ct 300 -92 292 -86 285 -81 ct 
278 -75 272 -69 265 -63 ct 259 -57 253 -51 248 -45 ct 243 -39 240 -33 237 -26 ct 
364 -26 l  364 0 l  203 0 l  p ef
553 -122 m  553 -99 550 -79 546 -63 ct 541 -47 535 -34 528 -25 ct 520 -15 511 -8 501 -3 ct 
490 1 479 3 468 3 ct 456 3 445 1 435 -3 ct 424 -8 416 -15 408 -24 ct 400 -34 395 -47 390 -63 ct 
386 -79 384 -99 384 -122 ct 384 -146 386 -167 390 -183 ct 395 -199 401 -212 408 -221 ct 
416 -231 425 -237 435 -241 ct 445 -245 457 -247 469 -247 ct 480 -247 491 -245 501 -241 ct 
512 -237 520 -231 528 -221 ct 536 -212 542 -199 546 -183 ct 550 -167 553 -146 553 -122 ct 
p
521 -122 m  521 -141 520 -157 518 -170 ct 515 -183 512 -193 507 -201 ct 503 -209 497 -214 491 -217 ct 
484 -220 477 -222 469 -222 ct 460 -222 452 -220 446 -217 ct 439 -214 433 -208 429 -201 ct 
424 -193 421 -183 419 -170 ct 416 -157 415 -141 415 -122 ct 415 -103 416 -88 419 -75 ct 
421 -62 424 -52 429 -44 ct 434 -36 439 -31 446 -27 ct 452 -24 460 -22 468 -22 ct 
476 -22 484 -24 490 -27 ct 497 -31 502 -36 507 -44 ct 511 -52 515 -62 517 -75 ct 
520 -88 521 -103 521 -122 ct p ef
739 -122 m  739 -99 736 -79 732 -63 ct 727 -47 721 -34 714 -25 ct 706 -15 697 -8 687 -3 ct 
676 1 665 3 654 3 ct 642 3 631 1 621 -3 ct 610 -8 602 -15 594 -24 ct 586 -34 581 -47 576 -63 ct 
572 -79 570 -99 570 -122 ct 570 -146 572 -167 576 -183 ct 581 -199 587 -212 594 -221 ct 
602 -231 611 -237 621 -241 ct 631 -245 643 -247 655 -247 ct 666 -247 677 -245 687 -241 ct 
698 -237 706 -231 714 -221 ct 722 -212 728 -199 732 -183 ct 736 -167 739 -146 739 -122 ct 
p
707 -122 m  707 -141 706 -157 704 -170 ct 701 -183 698 -193 693 -201 ct 689 -209 683 -214 677 -217 ct 
670 -220 663 -222 655 -222 ct 646 -222 638 -220 632 -217 ct 625 -214 619 -208 615 -201 ct 
610 -193 607 -183 605 -170 ct 602 -157 601 -141 601 -122 ct 601 -103 602 -88 605 -75 ct 
607 -62 610 -52 615 -44 ct 620 -36 625 -31 632 -27 ct 638 -24 646 -22 654 -22 ct 
662 -22 670 -24 676 -27 ct 683 -31 688 -36 693 -44 ct 697 -52 701 -62 703 -75 ct 
706 -88 707 -103 707 -122 ct p ef
924 -122 m  924 -99 921 -79 917 -63 ct 912 -47 906 -34 899 -25 ct 891 -15 882 -8 872 -3 ct 
861 1 850 3 839 3 ct 827 3 816 1 806 -3 ct 795 -8 787 -15 779 -24 ct 771 -34 766 -47 761 -63 ct 
757 -79 755 -99 755 -122 ct 755 -146 757 -167 761 -183 ct 766 -199 772 -212 779 -221 ct 
787 -231 796 -237 806 -241 ct 816 -245 828 -247 840 -247 ct 851 -247 862 -245 872 -241 ct 
883 -237 891 -231 899 -221 ct 907 -212 913 -199 917 -183 ct 921 -167 924 -146 924 -122 ct 
p
892 -122 m  892 -141 891 -157 889 -170 ct 886 -183 883 -193 878 -201 ct 874 -209 868 -214 862 -217 ct 
855 -220 848 -222 840 -222 ct 831 -222 823 -220 817 -217 ct 810 -214 804 -208 800 -201 ct 
795 -193 792 -183 790 -170 ct 787 -157 786 -141 786 -122 ct 786 -103 787 -88 790 -75 ct 
792 -62 795 -52 800 -44 ct 805 -36 810 -31 817 -27 ct 823 -24 831 -22 839 -22 ct 
847 -22 855 -24 861 -27 ct 868 -31 873 -36 878 -44 ct 882 -52 886 -62 888 -75 ct 
891 -88 892 -103 892 -122 ct p ef
pom
pum
21352 13088 t
27 0 m  27 -26 l  89 -26 l  89 -213 l  34 -174 l  34 -204 l  91 -243 l 
120 -243 l  120 -26 l  179 -26 l  179 0 l  27 0 l  p ef
337 -55 m  337 0 l  308 0 l  308 -55 l  193 -55 l  193 -79 l  304 -243 l 
337 -243 l  337 -79 l  371 -79 l  371 -55 l  337 -55 l  p
308 -208 m  307 -207 307 -206 306 -205 ct 305 -203 304 -201 303 -199 ct 302 -197 300 -195 299 -193 ct 
298 -191 297 -189 296 -187 ct 234 -95 l  233 -94 232 -93 231 -91 ct 230 -90 229 -88 228 -87 ct 
227 -85 226 -84 224 -82 ct 223 -81 222 -80 222 -80 ct 308 -80 l  308 -208 l 
p ef
553 -122 m  553 -99 550 -79 546 -63 ct 541 -47 535 -34 528 -25 ct 520 -15 511 -8 501 -3 ct 
490 1 479 3 468 3 ct 456 3 445 1 435 -3 ct 424 -8 416 -15 408 -24 ct 400 -34 395 -47 390 -63 ct 
386 -79 384 -99 384 -122 ct 384 -146 386 -167 390 -183 ct 395 -199 401 -212 408 -221 ct 
416 -231 425 -237 435 -241 ct 445 -245 457 -247 469 -247 ct 480 -247 491 -245 501 -241 ct 
512 -237 520 -231 528 -221 ct 536 -212 542 -199 546 -183 ct 550 -167 553 -146 553 -122 ct 
p
521 -122 m  521 -141 520 -157 518 -170 ct 515 -183 512 -193 507 -201 ct 503 -209 497 -214 491 -217 ct 
484 -220 477 -222 469 -222 ct 460 -222 452 -220 446 -217 ct 439 -214 433 -208 429 -201 ct 
424 -193 421 -183 419 -170 ct 416 -157 415 -141 415 -122 ct 415 -103 416 -88 419 -75 ct 
421 -62 424 -52 429 -44 ct 434 -36 439 -31 446 -27 ct 452 -24 460 -22 468 -22 ct 
476 -22 484 -24 490 -27 ct 497 -31 502 -36 507 -44 ct 511 -52 515 -62 517 -75 ct 
520 -88 521 -103 521 -122 ct p ef
739 -122 m  739 -99 736 -79 732 -63 ct 727 -47 721 -34 714 -25 ct 706 -15 697 -8 687 -3 ct 
676 1 665 3 654 3 ct 642 3 631 1 621 -3 ct 610 -8 602 -15 594 -24 ct 586 -34 581 -47 576 -63 ct 
572 -79 570 -99 570 -122 ct 570 -146 572 -167 576 -183 ct 581 -199 587 -212 594 -221 ct 
602 -231 611 -237 621 -241 ct 631 -245 643 -247 655 -247 ct 666 -247 677 -245 687 -241 ct 
698 -237 706 -231 714 -221 ct 722 -212 728 -199 732 -183 ct 736 -167 739 -146 739 -122 ct 
p
707 -122 m  707 -141 706 -157 704 -170 ct 701 -183 698 -193 693 -201 ct 689 -209 683 -214 677 -217 ct 
670 -220 663 -222 655 -222 ct 646 -222 638 -220 632 -217 ct 625 -214 619 -208 615 -201 ct 
610 -193 607 -183 605 -170 ct 602 -157 601 -141 601 -122 ct 601 -103 602 -88 605 -75 ct 
607 -62 610 -52 615 -44 ct 620 -36 625 -31 632 -27 ct 638 -24 646 -22 654 -22 ct 
662 -22 670 -24 676 -27 ct 683 -31 688 -36 693 -44 ct 697 -52 701 -62 703 -75 ct 
706 -88 707 -103 707 -122 ct p ef
924 -122 m  924 -99 921 -79 917 -63 ct 912 -47 906 -34 899 -25 ct 891 -15 882 -8 872 -3 ct 
861 1 850 3 839 3 ct 827 3 816 1 806 -3 ct 795 -8 787 -15 779 -24 ct 771 -34 766 -47 761 -63 ct 
757 -79 755 -99 755 -122 ct 755 -146 757 -167 761 -183 ct 766 -199 772 -212 779 -221 ct 
787 -231 796 -237 806 -241 ct 816 -245 828 -247 840 -247 ct 851 -247 862 -245 872 -241 ct 
883 -237 891 -231 899 -221 ct 907 -212 913 -199 917 -183 ct 921 -167 924 -146 924 -122 ct 
p
892 -122 m  892 -141 891 -157 889 -170 ct 886 -183 883 -193 878 -201 ct 874 -209 868 -214 862 -217 ct 
855 -220 848 -222 840 -222 ct 831 -222 823 -220 817 -217 ct 810 -214 804 -208 800 -201 ct 
795 -193 792 -183 790 -170 ct 787 -157 786 -141 786 -122 ct 786 -103 787 -88 790 -75 ct 
792 -62 795 -52 800 -44 ct 805 -36 810 -31 817 -27 ct 823 -24 831 -22 839 -22 ct 
847 -22 855 -24 861 -27 ct 868 -31 873 -36 878 -44 ct 882 -52 886 -62 888 -75 ct 
891 -88 892 -103 892 -122 ct p ef
pom
pum
21352 12221 t
27 0 m  27 -26 l  89 -26 l  89 -213 l  34 -174 l  34 -204 l  91 -243 l 
120 -243 l  120 -26 l  179 -26 l  179 0 l  27 0 l  p ef
366 -80 m  366 -68 364 -57 361 -47 ct 357 -36 352 -28 346 -20 ct 339 -13 331 -7 321 -3 ct 
311 1 300 3 287 3 ct 273 3 261 0 250 -5 ct 240 -11 231 -18 224 -28 ct 217 -39 212 -51 208 -66 ct 
205 -81 203 -97 203 -116 ct 203 -138 205 -157 209 -173 ct 213 -190 219 -203 226 -214 ct 
233 -225 243 -233 253 -239 ct 264 -244 276 -247 290 -247 ct 298 -247 306 -246 313 -244 ct 
320 -243 327 -240 333 -236 ct 339 -232 344 -227 348 -221 ct 353 -215 356 -207 359 -198 ct 
329 -192 l  326 -203 321 -210 314 -215 ct 307 -220 299 -222 289 -222 ct 281 -222 273 -220 266 -216 ct 
259 -212 254 -206 249 -198 ct 244 -190 240 -180 238 -168 ct 235 -156 234 -142 234 -126 ct 
239 -136 247 -144 258 -150 ct 268 -155 280 -158 293 -158 ct 304 -158 314 -156 323 -153 ct 
332 -149 339 -144 346 -137 ct 352 -130 357 -122 361 -113 ct 364 -103 366 -92 366 -80 ct 
p
334 -79 m  334 -87 333 -95 331 -102 ct 329 -108 326 -114 322 -119 ct 318 -124 313 -128 307 -130 ct 
300 -133 293 -134 285 -134 ct 280 -134 274 -133 268 -131 ct 263 -130 257 -127 253 -123 ct 
248 -120 244 -115 241 -109 ct 238 -102 237 -95 237 -86 ct 237 -77 238 -69 240 -61 ct 
243 -53 246 -46 250 -41 ct 255 -35 260 -30 266 -27 ct 272 -24 279 -22 286 -22 ct 
294 -22 301 -23 306 -26 ct 312 -29 317 -32 322 -37 ct 326 -42 329 -48 331 -55 ct 
333 -62 334 -70 334 -79 ct p ef
553 -122 m  553 -99 550 -79 546 -63 ct 541 -47 535 -34 528 -25 ct 520 -15 511 -8 501 -3 ct 
490 1 479 3 468 3 ct 456 3 445 1 435 -3 ct 424 -8 416 -15 408 -24 ct 400 -34 395 -47 390 -63 ct 
386 -79 384 -99 384 -122 ct 384 -146 386 -167 390 -183 ct 395 -199 401 -212 408 -221 ct 
416 -231 425 -237 435 -241 ct 445 -245 457 -247 469 -247 ct 480 -247 491 -245 501 -241 ct 
512 -237 520 -231 528 -221 ct 536 -212 542 -199 546 -183 ct 550 -167 553 -146 553 -122 ct 
p
521 -122 m  521 -141 520 -157 518 -170 ct 515 -183 512 -193 507 -201 ct 503 -209 497 -214 491 -217 ct 
484 -220 477 -222 469 -222 ct 460 -222 452 -220 446 -217 ct 439 -214 433 -208 429 -201 ct 
424 -193 421 -183 419 -170 ct 416 -157 415 -141 415 -122 ct 415 -103 416 -88 419 -75 ct 
421 -62 424 -52 429 -44 ct 434 -36 439 -31 446 -27 ct 452 -24 460 -22 468 -22 ct 
476 -22 484 -24 490 -27 ct 497 -31 502 -36 507 -44 ct 511 -52 515 -62 517 -75 ct 
520 -88 521 -103 521 -122 ct p ef
739 -122 m  739 -99 736 -79 732 -63 ct 727 -47 721 -34 714 -25 ct 706 -15 697 -8 687 -3 ct 
676 1 665 3 654 3 ct 642 3 631 1 621 -3 ct 610 -8 602 -15 594 -24 ct 586 -34 581 -47 576 -63 ct 
572 -79 570 -99 570 -122 ct 570 -146 572 -167 576 -183 ct 581 -199 587 -212 594 -221 ct 
602 -231 611 -237 621 -241 ct 631 -245 643 -247 655 -247 ct 666 -247 677 -245 687 -241 ct 
698 -237 706 -231 714 -221 ct 722 -212 728 -199 732 -183 ct 736 -167 739 -146 739 -122 ct 
p
707 -122 m  707 -141 706 -157 704 -170 ct 701 -183 698 -193 693 -201 ct 689 -209 683 -214 677 -217 ct 
670 -220 663 -222 655 -222 ct 646 -222 638 -220 632 -217 ct 625 -214 619 -208 615 -201 ct 
610 -193 607 -183 605 -170 ct 602 -157 601 -141 601 -122 ct 601 -103 602 -88 605 -75 ct 
607 -62 610 -52 615 -44 ct 620 -36 625 -31 632 -27 ct 638 -24 646 -22 654 -22 ct 
662 -22 670 -24 676 -27 ct 683 -31 688 -36 693 -44 ct 697 -52 701 -62 703 -75 ct 
706 -88 707 -103 707 -122 ct p ef
924 -122 m  924 -99 921 -79 917 -63 ct 912 -47 906 -34 899 -25 ct 891 -15 882 -8 872 -3 ct 
861 1 850 3 839 3 ct 827 3 816 1 806 -3 ct 795 -8 787 -15 779 -24 ct 771 -34 766 -47 761 -63 ct 
757 -79 755 -99 755 -122 ct 755 -146 757 -167 761 -183 ct 766 -199 772 -212 779 -221 ct 
787 -231 796 -237 806 -241 ct 816 -245 828 -247 840 -247 ct 851 -247 862 -245 872 -241 ct 
883 -237 891 -231 899 -221 ct 907 -212 913 -199 917 -183 ct 921 -167 924 -146 924 -122 ct 
p
892 -122 m  892 -141 891 -157 889 -170 ct 886 -183 883 -193 878 -201 ct 874 -209 868 -214 862 -217 ct 
855 -220 848 -222 840 -222 ct 831 -222 823 -220 817 -217 ct 810 -214 804 -208 800 -201 ct 
795 -193 792 -183 790 -170 ct 787 -157 786 -141 786 -122 ct 786 -103 787 -88 790 -75 ct 
792 -62 795 -52 800 -44 ct 805 -36 810 -31 817 -27 ct 823 -24 831 -22 839 -22 ct 
847 -22 855 -24 861 -27 ct 868 -31 873 -36 878 -44 ct 882 -52 886 -62 888 -75 ct 
891 -88 892 -103 892 -122 ct p ef
pom
pum
21352 11356 t
27 0 m  27 -26 l  89 -26 l  89 -213 l  34 -174 l  34 -204 l  91 -243 l 
120 -243 l  120 -26 l  179 -26 l  179 0 l  27 0 l  p ef
366 -68 m  366 -58 364 -48 361 -40 ct 358 -31 353 -24 346 -17 ct 339 -11 331 -6 320 -2 ct 
310 1 298 3 283 3 ct 269 3 257 1 246 -2 ct 236 -6 227 -11 220 -17 ct 214 -23 209 -31 205 -40 ct 
202 -48 200 -58 200 -68 ct 200 -77 202 -85 204 -92 ct 207 -98 211 -104 215 -109 ct 
220 -114 225 -118 231 -121 ct 237 -125 243 -127 249 -128 ct 249 -128 l  242 -130 236 -132 231 -136 ct 
225 -140 221 -144 217 -149 ct 214 -154 211 -159 209 -166 ct 207 -172 206 -178 206 -185 ct 
206 -193 208 -201 211 -209 ct 214 -216 219 -223 226 -229 ct 232 -234 240 -239 249 -242 ct 
259 -245 270 -247 283 -247 ct 296 -247 307 -245 317 -242 ct 327 -239 335 -234 341 -228 ct 
347 -223 352 -216 355 -209 ct 358 -201 360 -193 360 -184 ct 360 -178 359 -171 357 -165 ct 
355 -159 352 -154 349 -149 ct 345 -144 341 -139 335 -136 ct 330 -132 324 -130 317 -129 ct 
317 -128 l  324 -127 330 -125 336 -122 ct 342 -119 347 -115 352 -110 ct 356 -105 360 -99 362 -92 ct 
365 -85 366 -77 366 -68 ct p
328 -183 m  328 -189 327 -194 325 -199 ct 324 -204 321 -209 318 -212 ct 314 -216 310 -219 304 -221 ct 
298 -223 291 -224 283 -224 ct 274 -224 268 -223 262 -221 ct 256 -219 252 -216 248 -212 ct 
244 -209 242 -204 240 -199 ct 239 -194 238 -189 238 -183 ct 238 -178 238 -173 240 -168 ct 
241 -163 243 -158 247 -154 ct 250 -150 254 -147 260 -144 ct 266 -141 274 -140 283 -140 ct 
293 -140 301 -141 306 -144 ct 312 -147 317 -150 320 -154 ct 323 -158 325 -163 326 -168 ct 
327 -173 328 -178 328 -183 ct p
334 -71 m  334 -77 333 -83 331 -88 ct 330 -94 327 -98 323 -103 ct 319 -107 314 -110 307 -113 ct 
301 -115 292 -117 283 -117 ct 273 -117 266 -115 259 -113 ct 253 -110 248 -107 244 -103 ct 
240 -98 237 -93 235 -88 ct 233 -82 232 -76 232 -70 ct 232 -63 233 -56 235 -50 ct 
237 -44 240 -39 244 -34 ct 248 -30 253 -26 260 -24 ct 266 -21 274 -20 284 -20 ct 
293 -20 301 -21 307 -24 ct 314 -26 319 -30 323 -34 ct 327 -39 330 -44 331 -50 ct 
333 -56 334 -63 334 -71 ct p ef
553 -122 m  553 -99 550 -79 546 -63 ct 541 -47 535 -34 528 -25 ct 520 -15 511 -8 501 -3 ct 
490 1 479 3 468 3 ct 456 3 445 1 435 -3 ct 424 -8 416 -15 408 -24 ct 400 -34 395 -47 390 -63 ct 
386 -79 384 -99 384 -122 ct 384 -146 386 -167 390 -183 ct 395 -199 401 -212 408 -221 ct 
416 -231 425 -237 435 -241 ct 445 -245 457 -247 469 -247 ct 480 -247 491 -245 501 -241 ct 
512 -237 520 -231 528 -221 ct 536 -212 542 -199 546 -183 ct 550 -167 553 -146 553 -122 ct 
p
521 -122 m  521 -141 520 -157 518 -170 ct 515 -183 512 -193 507 -201 ct 503 -209 497 -214 491 -217 ct 
484 -220 477 -222 469 -222 ct 460 -222 452 -220 446 -217 ct 439 -214 433 -208 429 -201 ct 
424 -193 421 -183 419 -170 ct 416 -157 415 -141 415 -122 ct 415 -103 416 -88 419 -75 ct 
421 -62 424 -52 429 -44 ct 434 -36 439 -31 446 -27 ct 452 -24 460 -22 468 -22 ct 
476 -22 484 -24 490 -27 ct 497 -31 502 -36 507 -44 ct 511 -52 515 -62 517 -75 ct 
520 -88 521 -103 521 -122 ct p ef
739 -122 m  739 -99 736 -79 732 -63 ct 727 -47 721 -34 714 -25 ct 706 -15 697 -8 687 -3 ct 
676 1 665 3 654 3 ct 642 3 631 1 621 -3 ct 610 -8 602 -15 594 -24 ct 586 -34 581 -47 576 -63 ct 
572 -79 570 -99 570 -122 ct 570 -146 572 -167 576 -183 ct 581 -199 587 -212 594 -221 ct 
602 -231 611 -237 621 -241 ct 631 -245 643 -247 655 -247 ct 666 -247 677 -245 687 -241 ct 
698 -237 706 -231 714 -221 ct 722 -212 728 -199 732 -183 ct 736 -167 739 -146 739 -122 ct 
p
707 -122 m  707 -141 706 -157 704 -170 ct 701 -183 698 -193 693 -201 ct 689 -209 683 -214 677 -217 ct 
670 -220 663 -222 655 -222 ct 646 -222 638 -220 632 -217 ct 625 -214 619 -208 615 -201 ct 
610 -193 607 -183 605 -170 ct 602 -157 601 -141 601 -122 ct 601 -103 602 -88 605 -75 ct 
607 -62 610 -52 615 -44 ct 620 -36 625 -31 632 -27 ct 638 -24 646 -22 654 -22 ct 
662 -22 670 -24 676 -27 ct 683 -31 688 -36 693 -44 ct 697 -52 701 -62 703 -75 ct 
706 -88 707 -103 707 -122 ct p ef
924 -122 m  924 -99 921 -79 917 -63 ct 912 -47 906 -34 899 -25 ct 891 -15 882 -8 872 -3 ct 
861 1 850 3 839 3 ct 827 3 816 1 806 -3 ct 795 -8 787 -15 779 -24 ct 771 -34 766 -47 761 -63 ct 
757 -79 755 -99 755 -122 ct 755 -146 757 -167 761 -183 ct 766 -199 772 -212 779 -221 ct 
787 -231 796 -237 806 -241 ct 816 -245 828 -247 840 -247 ct 851 -247 862 -245 872 -241 ct 
883 -237 891 -231 899 -221 ct 907 -212 913 -199 917 -183 ct 921 -167 924 -146 924 -122 ct 
p
892 -122 m  892 -141 891 -157 889 -170 ct 886 -183 883 -193 878 -201 ct 874 -209 868 -214 862 -217 ct 
855 -220 848 -222 840 -222 ct 831 -222 823 -220 817 -217 ct 810 -214 804 -208 800 -201 ct 
795 -193 792 -183 790 -170 ct 787 -157 786 -141 786 -122 ct 786 -103 787 -88 790 -75 ct 
792 -62 795 -52 800 -44 ct 805 -36 810 -31 817 -27 ct 823 -24 831 -22 839 -22 ct 
847 -22 855 -24 861 -27 ct 868 -31 873 -36 878 -44 ct 882 -52 886 -62 888 -75 ct 
891 -88 892 -103 892 -122 ct p ef
pom
0 9000 t 
pom
count op_count sub {pop} repeat countdictstack dict_count sub {end} repeat b4_inc_state restore
%%PageTrailer
%%Trailer
%%EOF
