%!PS-Adobe-3.0 EPSF-3.0 
%%BoundingBox: 0 0 454 255
%%Pages: 0
%%Creator: LibreOffice 5.2
%%Title: none
%%CreationDate: none
%%LanguageLevel: 2
%%EndComments
%%BeginProlog
%%BeginResource: procset SDRes-Prolog 1.0 0
/b4_inc_state save def
/dict_count countdictstack def
/op_count count 1 sub def
userdict begin
0 setgray 0 setlinecap 1 setlinewidth 0 setlinejoin 10 setmiterlimit[] 0 setdash newpath
/languagelevel where {pop languagelevel 1 ne {false setstrokeadjust false setoverprint} if} if
/bdef {bind def} bind def
/c {setrgbcolor} bdef
/l {neg lineto} bdef
/rl {neg rlineto} bdef
/lc {setlinecap} bdef
/lj {setlinejoin} bdef
/lw {setlinewidth} bdef
/ml {setmiterlimit} bdef
/ld {setdash} bdef
/m {neg moveto} bdef
/ct {6 2 roll neg 6 2 roll neg 6 2 roll neg curveto} bdef
/r {rotate} bdef
/t {neg translate} bdef
/s {scale} bdef
/sw {show} bdef
/gs {gsave} bdef
/gr {grestore} bdef
/f {findfont dup length dict begin
{1 index /FID ne {def} {pop pop} ifelse} forall /Encoding ISOLatin1Encoding def
currentdict end /NFont exch definefont pop /NFont findfont} bdef
/p {closepath} bdef
/sf {scalefont setfont} bdef
/ef {eofill}bdef
/pc {closepath stroke}bdef
/ps {stroke}bdef
/pum {matrix currentmatrix}bdef
/pom {setmatrix}bdef
/bs {/aString exch def /nXOfs exch def /nWidth exch def currentpoint nXOfs 0 rmoveto pum nWidth aString stringwidth pop div 1 scale aString show pom moveto} bdef
%%EndResource
%%EndProlog
%%BeginSetup
%%EndSetup
%%Page: 1 1
%%BeginPageSetup
%%EndPageSetup
pum
0.02837 0.02833 s 
0 -9001 t
/tm matrix currentmatrix def
tm setmatrix
-707 -5439 t 
1 1 s 
1.000 1.000 1.000 c 8707 14438 m  707 14438 l  707 5439 l  16706 5439 l 
16706 14438 l  8707 14438 l  p ef
0 lw 1 lj 0.703 0.703 0.703 c 9070 13611 m  1754 13611 l  1754 5818 l  16386 5818 l 
16386 13611 l  9070 13611 l  pc
16385 13610 m  1754 13610 l  ps
16385 12830 m  1754 12830 l  ps
16385 12051 m  1754 12051 l  ps
16385 11271 m  1754 11271 l  ps
16385 10492 m  1754 10492 l  ps
16385 9714 m  1754 9714 l  ps
16385 8934 m  1754 8934 l  ps
16385 8155 m  1754 8155 l  ps
16385 7375 m  1754 7375 l  ps
16385 6596 m  1754 6596 l  ps
16385 5817 m  1754 5817 l  ps
1754 13760 m  1754 13610 l  ps
1754 13760 m  1754 13610 l  ps
4680 13760 m  4680 13610 l  ps
4680 13760 m  4680 13610 l  ps
7607 13760 m  7607 13610 l  ps
7607 13760 m  7607 13610 l  ps
10532 13760 m  10532 13610 l  ps
10532 13760 m  10532 13610 l  ps
13459 13760 m  13459 13610 l  ps
13459 13760 m  13459 13610 l  ps
16385 13760 m  16385 13610 l  ps
16385 13760 m  16385 13610 l  ps
1754 13610 m  16385 13610 l  ps
1604 13610 m  1754 13610 l  ps
1604 13610 m  1754 13610 l  ps
1604 12830 m  1754 12830 l  ps
1604 12830 m  1754 12830 l  ps
1604 12051 m  1754 12051 l  ps
1604 12051 m  1754 12051 l  ps
1604 11271 m  1754 11271 l  ps
1604 11271 m  1754 11271 l  ps
1604 10492 m  1754 10492 l  ps
1604 10492 m  1754 10492 l  ps
1604 9714 m  1754 9714 l  ps
1604 9714 m  1754 9714 l  ps
1604 8934 m  1754 8934 l  ps
1604 8934 m  1754 8934 l  ps
1604 8155 m  1754 8155 l  ps
1604 8155 m  1754 8155 l  ps
1604 7375 m  1754 7375 l  ps
1604 7375 m  1754 7375 l  ps
1604 6596 m  1754 6596 l  ps
1604 6596 m  1754 6596 l  ps
1604 5817 m  1754 5817 l  ps
1604 5817 m  1754 5817 l  ps
1754 13610 m  1754 5817 l  ps
0.003 0.273 0.527 c 13947 13610 m  14922 13610 l  14922 6895 l  13947 6895 l 
13947 13610 l  p ef
11020 13610 m  11996 13610 l  11996 8370 l  11020 8370 l  11020 13610 l 
p ef
8094 13610 m  9069 13610 l  9069 10015 l  8094 10015 l  8094 13610 l  p ef
5168 13610 m  6143 13610 l  6143 13508 l  5168 13508 l  5168 13610 l  p ef
2241 13610 m  3217 13610 l  3217 13599 l  2241 13599 l  2241 13610 l  p ef
1.000 0.261 0.058 c 14922 13610 m  15898 13610 l  15898 6763 l  14922 6763 l 
14922 13610 l  p ef
11996 13610 m  12971 13610 l  12971 8288 l  11996 8288 l  11996 13610 l 
p ef
9069 13610 m  10045 13610 l  10045 9507 l  9069 9507 l  9069 13610 l  p ef
6143 13610 m  7119 13610 l  7119 13492 l  6143 13492 l  6143 13610 l  p ef
3217 13610 m  4192 13610 l  4192 13593 l  3217 13593 l  3217 13610 l  p ef
pum
2463 14178 t
0.003 0.003 0.003 c 217 -68 m  217 -56 214 -46 210 -37 ct 205 -28 198 -21 190 -16 ct 
182 -10 172 -6 162 -4 ct 151 -1 140 0 128 0 ct 29 0 l  29 -243 l  117 -243 l 
131 -243 143 -242 153 -240 ct 164 -237 173 -234 180 -229 ct 187 -224 193 -218 197 -211 ct 
201 -203 203 -194 203 -184 ct 203 -177 202 -171 200 -165 ct 198 -159 195 -153 191 -149 ct 
187 -144 183 -140 177 -136 ct 171 -132 164 -130 157 -128 ct 166 -127 175 -125 182 -121 ct 
190 -118 196 -114 201 -109 ct 206 -103 210 -97 213 -91 ct 216 -84 217 -76 217 -68 ct 
p
170 -180 m  170 -193 165 -203 156 -208 ct 147 -214 134 -217 117 -217 ct 62 -217 l 
62 -140 l  117 -140 l  127 -140 135 -141 142 -143 ct 148 -144 154 -147 158 -151 ct 
162 -154 165 -158 167 -163 ct 169 -168 170 -174 170 -180 ct p
184 -71 m  184 -79 182 -85 179 -91 ct 177 -96 172 -101 167 -104 ct 162 -107 156 -110 148 -112 ct 
141 -113 132 -114 123 -114 ct 62 -114 l  62 -26 l  126 -26 l  134 -26 142 -27 149 -28 ct 
156 -30 162 -32 167 -36 ct 172 -39 176 -44 179 -49 ct 182 -55 184 -62 184 -71 ct 
p ef
286 -87 m  286 -77 287 -68 289 -60 ct 291 -52 294 -45 298 -39 ct 302 -33 307 -28 314 -25 ct 
321 -22 328 -20 338 -20 ct 351 -20 362 -23 370 -28 ct 378 -34 384 -41 386 -49 ct 
414 -41 l  412 -36 409 -31 405 -26 ct 402 -20 397 -16 391 -11 ct 386 -7 378 -4 369 -1 ct 
361 2 350 3 338 3 ct 310 3 289 -5 275 -22 ct 260 -38 253 -62 253 -95 ct 253 -112 255 -127 260 -139 ct 
264 -151 270 -161 277 -169 ct 285 -176 294 -182 304 -185 ct 314 -188 325 -190 336 -190 ct 
352 -190 365 -187 376 -182 ct 386 -177 395 -170 401 -162 ct 407 -153 412 -142 415 -130 ct 
417 -118 419 -105 419 -91 ct 419 -87 l  286 -87 l  p
387 -111 m  385 -130 380 -145 372 -154 ct 363 -163 351 -167 336 -167 ct 331 -167 325 -166 320 -165 ct 
314 -163 309 -160 304 -156 ct 299 -152 295 -146 292 -139 ct 288 -131 286 -122 286 -111 ct 
387 -111 l  p ef
447 -226 m  447 -256 l  478 -256 l  478 -226 l  447 -226 l  p
447 0 m  447 -187 l  478 -187 l  478 0 l  447 0 l  p ef
667 -52 m  667 -43 665 -36 662 -29 ct 658 -22 653 -16 647 -11 ct 640 -7 633 -3 623 -1 ct 
614 2 603 3 591 3 ct 580 3 571 2 562 1 ct 553 -1 546 -4 539 -8 ct 532 -11 527 -16 523 -22 ct 
518 -28 515 -36 513 -44 ct 540 -50 l  543 -40 548 -32 557 -28 ct 565 -23 576 -21 591 -21 ct 
598 -21 604 -21 609 -22 ct 615 -23 620 -25 624 -27 ct 628 -29 631 -32 633 -36 ct 
635 -39 637 -44 637 -50 ct 637 -55 635 -60 633 -63 ct 630 -67 626 -70 622 -73 ct 
617 -75 611 -77 604 -79 ct 598 -81 590 -83 582 -85 ct 575 -87 567 -89 560 -91 ct 
553 -94 546 -97 540 -101 ct 534 -105 529 -110 526 -116 ct 522 -122 520 -129 520 -138 ct 
520 -155 526 -168 538 -177 ct 551 -186 568 -190 591 -190 ct 612 -190 628 -186 640 -179 ct 
653 -172 660 -160 663 -144 ct 636 -141 l  635 -146 633 -150 630 -153 ct 627 -156 624 -159 620 -161 ct 
616 -163 612 -164 607 -165 ct 602 -166 597 -167 591 -167 ct 577 -167 567 -164 560 -160 ct 
554 -156 550 -149 550 -141 ct 550 -136 552 -132 554 -128 ct 557 -125 560 -122 564 -120 ct 
569 -118 574 -116 580 -114 ct 587 -113 593 -111 601 -109 ct 606 -108 611 -106 616 -105 ct 
621 -103 626 -102 631 -100 ct 636 -98 641 -95 645 -93 ct 649 -90 653 -87 656 -83 ct 
659 -79 662 -75 664 -70 ct 666 -65 667 -59 667 -52 ct p ef
870 -94 m  870 -80 868 -67 866 -55 ct 864 -43 860 -33 855 -25 ct 849 -16 842 -9 833 -4 ct 
825 1 814 3 801 3 ct 788 3 776 0 766 -5 ct 756 -10 748 -18 743 -29 ct 742 -29 l 
742 -29 742 -28 742 -26 ct 742 -24 743 -22 743 -19 ct 743 -17 743 -14 743 -10 ct 
743 -7 743 -3 743 0 ct 743 73 l  712 73 l  712 -149 l  712 -154 712 -158 712 -162 ct 
712 -166 712 -170 711 -174 ct 711 -177 711 -180 711 -182 ct 711 -185 711 -186 711 -186 ct 
741 -186 l  741 -186 741 -184 741 -182 ct 741 -180 742 -178 742 -175 ct 742 -172 742 -169 742 -166 ct 
742 -163 742 -160 742 -157 ct 743 -157 l  746 -163 749 -168 753 -172 ct 757 -176 761 -180 766 -182 ct 
770 -185 776 -187 781 -188 ct 787 -189 794 -190 801 -190 ct 814 -190 825 -188 833 -183 ct 
842 -179 849 -172 855 -164 ct 860 -155 864 -145 866 -134 ct 868 -122 870 -109 870 -94 ct 
p
837 -94 m  837 -105 836 -115 835 -124 ct 833 -133 831 -141 828 -147 ct 824 -153 820 -158 814 -161 ct 
809 -164 801 -166 793 -166 ct 786 -166 780 -165 773 -163 ct 767 -161 762 -157 758 -152 ct 
753 -146 749 -139 747 -129 ct 744 -119 743 -107 743 -91 ct 743 -78 744 -67 746 -58 ct 
748 -49 751 -41 756 -36 ct 760 -30 765 -26 771 -24 ct 777 -21 785 -20 793 -20 ct 
801 -20 808 -22 814 -25 ct 820 -28 824 -33 828 -39 ct 831 -46 833 -53 835 -63 ct 
836 -72 837 -82 837 -94 ct p ef
897 -226 m  897 -256 l  928 -256 l  928 -226 l  897 -226 l  p
897 0 m  897 -187 l  928 -187 l  928 0 l  897 0 l  p ef
1001 -87 m  1001 -77 1002 -68 1004 -60 ct 1006 -52 1009 -45 1013 -39 ct 1017 -33 1022 -28 1029 -25 ct 
1036 -22 1043 -20 1053 -20 ct 1066 -20 1077 -23 1085 -28 ct 1093 -34 1099 -41 1101 -49 ct 
1129 -41 l  1127 -36 1124 -31 1120 -26 ct 1117 -20 1112 -16 1106 -11 ct 1101 -7 1093 -4 1084 -1 ct 
1076 2 1065 3 1053 3 ct 1025 3 1004 -5 990 -22 ct 975 -38 968 -62 968 -95 ct 968 -112 970 -127 975 -139 ct 
979 -151 985 -161 992 -169 ct 1000 -176 1009 -182 1019 -185 ct 1029 -188 1040 -190 1051 -190 ct 
1067 -190 1080 -187 1091 -182 ct 1101 -177 1110 -170 1116 -162 ct 1122 -153 1127 -142 1130 -130 ct 
1132 -118 1134 -105 1134 -91 ct 1134 -87 l  1001 -87 l  p
1102 -111 m  1100 -130 1095 -145 1087 -154 ct 1078 -163 1066 -167 1051 -167 ct 
1046 -167 1040 -166 1035 -165 ct 1029 -163 1024 -160 1019 -156 ct 1014 -152 1010 -146 1007 -139 ct 
1003 -131 1001 -122 1001 -111 ct 1102 -111 l  p ef
1162 0 m  1162 -256 l  1193 -256 l  1193 0 l  1162 0 l  p ef
1350 0 m  1350 -26 l  1412 -26 l  1412 -213 l  1357 -174 l  1357 -204 l 
1414 -243 l  1443 -243 l  1443 -26 l  1502 -26 l  1502 0 l  1350 0 l  p ef
pom
pum
5389 14178 t
217 -68 m  217 -56 214 -46 210 -37 ct 205 -28 198 -21 190 -16 ct 182 -10 172 -6 162 -4 ct 
151 -1 140 0 128 0 ct 29 0 l  29 -243 l  117 -243 l  131 -243 143 -242 153 -240 ct 
164 -237 173 -234 180 -229 ct 187 -224 193 -218 197 -211 ct 201 -203 203 -194 203 -184 ct 
203 -177 202 -171 200 -165 ct 198 -159 195 -153 191 -149 ct 187 -144 183 -140 177 -136 ct 
171 -132 164 -130 157 -128 ct 166 -127 175 -125 182 -121 ct 190 -118 196 -114 201 -109 ct 
206 -103 210 -97 213 -91 ct 216 -84 217 -76 217 -68 ct p
170 -180 m  170 -193 165 -203 156 -208 ct 147 -214 134 -217 117 -217 ct 62 -217 l 
62 -140 l  117 -140 l  127 -140 135 -141 142 -143 ct 148 -144 154 -147 158 -151 ct 
162 -154 165 -158 167 -163 ct 169 -168 170 -174 170 -180 ct p
184 -71 m  184 -79 182 -85 179 -91 ct 177 -96 172 -101 167 -104 ct 162 -107 156 -110 148 -112 ct 
141 -113 132 -114 123 -114 ct 62 -114 l  62 -26 l  126 -26 l  134 -26 142 -27 149 -28 ct 
156 -30 162 -32 167 -36 ct 172 -39 176 -44 179 -49 ct 182 -55 184 -62 184 -71 ct 
p ef
286 -87 m  286 -77 287 -68 289 -60 ct 291 -52 294 -45 298 -39 ct 302 -33 307 -28 314 -25 ct 
321 -22 328 -20 338 -20 ct 351 -20 362 -23 370 -28 ct 378 -34 384 -41 386 -49 ct 
414 -41 l  412 -36 409 -31 405 -26 ct 402 -20 397 -16 391 -11 ct 386 -7 378 -4 369 -1 ct 
361 2 350 3 338 3 ct 310 3 289 -5 275 -22 ct 260 -38 253 -62 253 -95 ct 253 -112 255 -127 260 -139 ct 
264 -151 270 -161 277 -169 ct 285 -176 294 -182 304 -185 ct 314 -188 325 -190 336 -190 ct 
352 -190 365 -187 376 -182 ct 386 -177 395 -170 401 -162 ct 407 -153 412 -142 415 -130 ct 
417 -118 419 -105 419 -91 ct 419 -87 l  286 -87 l  p
387 -111 m  385 -130 380 -145 372 -154 ct 363 -163 351 -167 336 -167 ct 331 -167 325 -166 320 -165 ct 
314 -163 309 -160 304 -156 ct 299 -152 295 -146 292 -139 ct 288 -131 286 -122 286 -111 ct 
387 -111 l  p ef
447 -226 m  447 -256 l  478 -256 l  478 -226 l  447 -226 l  p
447 0 m  447 -187 l  478 -187 l  478 0 l  447 0 l  p ef
667 -52 m  667 -43 665 -36 662 -29 ct 658 -22 653 -16 647 -11 ct 640 -7 633 -3 623 -1 ct 
614 2 603 3 591 3 ct 580 3 571 2 562 1 ct 553 -1 546 -4 539 -8 ct 532 -11 527 -16 523 -22 ct 
518 -28 515 -36 513 -44 ct 540 -50 l  543 -40 548 -32 557 -28 ct 565 -23 576 -21 591 -21 ct 
598 -21 604 -21 609 -22 ct 615 -23 620 -25 624 -27 ct 628 -29 631 -32 633 -36 ct 
635 -39 637 -44 637 -50 ct 637 -55 635 -60 633 -63 ct 630 -67 626 -70 622 -73 ct 
617 -75 611 -77 604 -79 ct 598 -81 590 -83 582 -85 ct 575 -87 567 -89 560 -91 ct 
553 -94 546 -97 540 -101 ct 534 -105 529 -110 526 -116 ct 522 -122 520 -129 520 -138 ct 
520 -155 526 -168 538 -177 ct 551 -186 568 -190 591 -190 ct 612 -190 628 -186 640 -179 ct 
653 -172 660 -160 663 -144 ct 636 -141 l  635 -146 633 -150 630 -153 ct 627 -156 624 -159 620 -161 ct 
616 -163 612 -164 607 -165 ct 602 -166 597 -167 591 -167 ct 577 -167 567 -164 560 -160 ct 
554 -156 550 -149 550 -141 ct 550 -136 552 -132 554 -128 ct 557 -125 560 -122 564 -120 ct 
569 -118 574 -116 580 -114 ct 587 -113 593 -111 601 -109 ct 606 -108 611 -106 616 -105 ct 
621 -103 626 -102 631 -100 ct 636 -98 641 -95 645 -93 ct 649 -90 653 -87 656 -83 ct 
659 -79 662 -75 664 -70 ct 666 -65 667 -59 667 -52 ct p ef
870 -94 m  870 -80 868 -67 866 -55 ct 864 -43 860 -33 855 -25 ct 849 -16 842 -9 833 -4 ct 
825 1 814 3 801 3 ct 788 3 776 0 766 -5 ct 756 -10 748 -18 743 -29 ct 742 -29 l 
742 -29 742 -28 742 -26 ct 742 -24 743 -22 743 -19 ct 743 -17 743 -14 743 -10 ct 
743 -7 743 -3 743 0 ct 743 73 l  712 73 l  712 -149 l  712 -154 712 -158 712 -162 ct 
712 -166 712 -170 711 -174 ct 711 -177 711 -180 711 -182 ct 711 -185 711 -186 711 -186 ct 
741 -186 l  741 -186 741 -184 741 -182 ct 741 -180 742 -178 742 -175 ct 742 -172 742 -169 742 -166 ct 
742 -163 742 -160 742 -157 ct 743 -157 l  746 -163 749 -168 753 -172 ct 757 -176 761 -180 766 -182 ct 
770 -185 776 -187 781 -188 ct 787 -189 794 -190 801 -190 ct 814 -190 825 -188 833 -183 ct 
842 -179 849 -172 855 -164 ct 860 -155 864 -145 866 -134 ct 868 -122 870 -109 870 -94 ct 
p
837 -94 m  837 -105 836 -115 835 -124 ct 833 -133 831 -141 828 -147 ct 824 -153 820 -158 814 -161 ct 
809 -164 801 -166 793 -166 ct 786 -166 780 -165 773 -163 ct 767 -161 762 -157 758 -152 ct 
753 -146 749 -139 747 -129 ct 744 -119 743 -107 743 -91 ct 743 -78 744 -67 746 -58 ct 
748 -49 751 -41 756 -36 ct 760 -30 765 -26 771 -24 ct 777 -21 785 -20 793 -20 ct 
801 -20 808 -22 814 -25 ct 820 -28 824 -33 828 -39 ct 831 -46 833 -53 835 -63 ct 
836 -72 837 -82 837 -94 ct p ef
897 -226 m  897 -256 l  928 -256 l  928 -226 l  897 -226 l  p
897 0 m  897 -187 l  928 -187 l  928 0 l  897 0 l  p ef
1001 -87 m  1001 -77 1002 -68 1004 -60 ct 1006 -52 1009 -45 1013 -39 ct 1017 -33 1022 -28 1029 -25 ct 
1036 -22 1043 -20 1053 -20 ct 1066 -20 1077 -23 1085 -28 ct 1093 -34 1099 -41 1101 -49 ct 
1129 -41 l  1127 -36 1124 -31 1120 -26 ct 1117 -20 1112 -16 1106 -11 ct 1101 -7 1093 -4 1084 -1 ct 
1076 2 1065 3 1053 3 ct 1025 3 1004 -5 990 -22 ct 975 -38 968 -62 968 -95 ct 968 -112 970 -127 975 -139 ct 
979 -151 985 -161 992 -169 ct 1000 -176 1009 -182 1019 -185 ct 1029 -188 1040 -190 1051 -190 ct 
1067 -190 1080 -187 1091 -182 ct 1101 -177 1110 -170 1116 -162 ct 1122 -153 1127 -142 1130 -130 ct 
1132 -118 1134 -105 1134 -91 ct 1134 -87 l  1001 -87 l  p
1102 -111 m  1100 -130 1095 -145 1087 -154 ct 1078 -163 1066 -167 1051 -167 ct 
1046 -167 1040 -166 1035 -165 ct 1029 -163 1024 -160 1019 -156 ct 1014 -152 1010 -146 1007 -139 ct 
1003 -131 1001 -122 1001 -111 ct 1102 -111 l  p ef
1162 0 m  1162 -256 l  1193 -256 l  1193 0 l  1162 0 l  p ef
1341 0 m  1341 -22 l  1347 -35 1354 -47 1362 -58 ct 1371 -68 1380 -77 1389 -85 ct 
1398 -94 1407 -101 1417 -109 ct 1426 -116 1434 -123 1441 -130 ct 1449 -137 1455 -145 1459 -152 ct 
1464 -160 1466 -169 1466 -179 ct 1466 -186 1465 -192 1463 -197 ct 1461 -202 1458 -207 1454 -210 ct 
1450 -214 1445 -217 1440 -218 ct 1434 -220 1428 -221 1422 -221 ct 1415 -221 1410 -220 1404 -218 ct 
1399 -217 1394 -214 1390 -211 ct 1385 -207 1382 -203 1379 -198 ct 1376 -193 1375 -187 1374 -180 ct 
1342 -183 l  1343 -192 1346 -200 1349 -208 ct 1353 -215 1358 -222 1365 -228 ct 
1372 -234 1380 -238 1389 -242 ct 1398 -245 1409 -247 1422 -247 ct 1434 -247 1444 -245 1454 -242 ct 
1463 -239 1471 -235 1478 -229 ct 1484 -224 1489 -217 1493 -209 ct 1496 -200 1498 -191 1498 -180 ct 
1498 -172 1496 -164 1493 -157 ct 1490 -149 1487 -142 1482 -136 ct 1477 -129 1471 -123 1465 -116 ct 
1458 -110 1452 -104 1445 -98 ct 1438 -92 1430 -86 1423 -81 ct 1416 -75 1410 -69 1403 -63 ct 
1397 -57 1391 -51 1386 -45 ct 1381 -39 1378 -33 1375 -26 ct 1502 -26 l  1502 0 l 
1341 0 l  p ef
pom
pum
8316 14178 t
217 -68 m  217 -56 214 -46 210 -37 ct 205 -28 198 -21 190 -16 ct 182 -10 172 -6 162 -4 ct 
151 -1 140 0 128 0 ct 29 0 l  29 -243 l  117 -243 l  131 -243 143 -242 153 -240 ct 
164 -237 173 -234 180 -229 ct 187 -224 193 -218 197 -211 ct 201 -203 203 -194 203 -184 ct 
203 -177 202 -171 200 -165 ct 198 -159 195 -153 191 -149 ct 187 -144 183 -140 177 -136 ct 
171 -132 164 -130 157 -128 ct 166 -127 175 -125 182 -121 ct 190 -118 196 -114 201 -109 ct 
206 -103 210 -97 213 -91 ct 216 -84 217 -76 217 -68 ct p
170 -180 m  170 -193 165 -203 156 -208 ct 147 -214 134 -217 117 -217 ct 62 -217 l 
62 -140 l  117 -140 l  127 -140 135 -141 142 -143 ct 148 -144 154 -147 158 -151 ct 
162 -154 165 -158 167 -163 ct 169 -168 170 -174 170 -180 ct p
184 -71 m  184 -79 182 -85 179 -91 ct 177 -96 172 -101 167 -104 ct 162 -107 156 -110 148 -112 ct 
141 -113 132 -114 123 -114 ct 62 -114 l  62 -26 l  126 -26 l  134 -26 142 -27 149 -28 ct 
156 -30 162 -32 167 -36 ct 172 -39 176 -44 179 -49 ct 182 -55 184 -62 184 -71 ct 
p ef
286 -87 m  286 -77 287 -68 289 -60 ct 291 -52 294 -45 298 -39 ct 302 -33 307 -28 314 -25 ct 
321 -22 328 -20 338 -20 ct 351 -20 362 -23 370 -28 ct 378 -34 384 -41 386 -49 ct 
414 -41 l  412 -36 409 -31 405 -26 ct 402 -20 397 -16 391 -11 ct 386 -7 378 -4 369 -1 ct 
361 2 350 3 338 3 ct 310 3 289 -5 275 -22 ct 260 -38 253 -62 253 -95 ct 253 -112 255 -127 260 -139 ct 
264 -151 270 -161 277 -169 ct 285 -176 294 -182 304 -185 ct 314 -188 325 -190 336 -190 ct 
352 -190 365 -187 376 -182 ct 386 -177 395 -170 401 -162 ct 407 -153 412 -142 415 -130 ct 
417 -118 419 -105 419 -91 ct 419 -87 l  286 -87 l  p
387 -111 m  385 -130 380 -145 372 -154 ct 363 -163 351 -167 336 -167 ct 331 -167 325 -166 320 -165 ct 
314 -163 309 -160 304 -156 ct 299 -152 295 -146 292 -139 ct 288 -131 286 -122 286 -111 ct 
387 -111 l  p ef
447 -226 m  447 -256 l  478 -256 l  478 -226 l  447 -226 l  p
447 0 m  447 -187 l  478 -187 l  478 0 l  447 0 l  p ef
667 -52 m  667 -43 665 -36 662 -29 ct 658 -22 653 -16 647 -11 ct 640 -7 633 -3 623 -1 ct 
614 2 603 3 591 3 ct 580 3 571 2 562 1 ct 553 -1 546 -4 539 -8 ct 532 -11 527 -16 523 -22 ct 
518 -28 515 -36 513 -44 ct 540 -50 l  543 -40 548 -32 557 -28 ct 565 -23 576 -21 591 -21 ct 
598 -21 604 -21 609 -22 ct 615 -23 620 -25 624 -27 ct 628 -29 631 -32 633 -36 ct 
635 -39 637 -44 637 -50 ct 637 -55 635 -60 633 -63 ct 630 -67 626 -70 622 -73 ct 
617 -75 611 -77 604 -79 ct 598 -81 590 -83 582 -85 ct 575 -87 567 -89 560 -91 ct 
553 -94 546 -97 540 -101 ct 534 -105 529 -110 526 -116 ct 522 -122 520 -129 520 -138 ct 
520 -155 526 -168 538 -177 ct 551 -186 568 -190 591 -190 ct 612 -190 628 -186 640 -179 ct 
653 -172 660 -160 663 -144 ct 636 -141 l  635 -146 633 -150 630 -153 ct 627 -156 624 -159 620 -161 ct 
616 -163 612 -164 607 -165 ct 602 -166 597 -167 591 -167 ct 577 -167 567 -164 560 -160 ct 
554 -156 550 -149 550 -141 ct 550 -136 552 -132 554 -128 ct 557 -125 560 -122 564 -120 ct 
569 -118 574 -116 580 -114 ct 587 -113 593 -111 601 -109 ct 606 -108 611 -106 616 -105 ct 
621 -103 626 -102 631 -100 ct 636 -98 641 -95 645 -93 ct 649 -90 653 -87 656 -83 ct 
659 -79 662 -75 664 -70 ct 666 -65 667 -59 667 -52 ct p ef
870 -94 m  870 -80 868 -67 866 -55 ct 864 -43 860 -33 855 -25 ct 849 -16 842 -9 833 -4 ct 
825 1 814 3 801 3 ct 788 3 776 0 766 -5 ct 756 -10 748 -18 743 -29 ct 742 -29 l 
742 -29 742 -28 742 -26 ct 742 -24 743 -22 743 -19 ct 743 -17 743 -14 743 -10 ct 
743 -7 743 -3 743 0 ct 743 73 l  712 73 l  712 -149 l  712 -154 712 -158 712 -162 ct 
712 -166 712 -170 711 -174 ct 711 -177 711 -180 711 -182 ct 711 -185 711 -186 711 -186 ct 
741 -186 l  741 -186 741 -184 741 -182 ct 741 -180 742 -178 742 -175 ct 742 -172 742 -169 742 -166 ct 
742 -163 742 -160 742 -157 ct 743 -157 l  746 -163 749 -168 753 -172 ct 757 -176 761 -180 766 -182 ct 
770 -185 776 -187 781 -188 ct 787 -189 794 -190 801 -190 ct 814 -190 825 -188 833 -183 ct 
842 -179 849 -172 855 -164 ct 860 -155 864 -145 866 -134 ct 868 -122 870 -109 870 -94 ct 
p
837 -94 m  837 -105 836 -115 835 -124 ct 833 -133 831 -141 828 -147 ct 824 -153 820 -158 814 -161 ct 
809 -164 801 -166 793 -166 ct 786 -166 780 -165 773 -163 ct 767 -161 762 -157 758 -152 ct 
753 -146 749 -139 747 -129 ct 744 -119 743 -107 743 -91 ct 743 -78 744 -67 746 -58 ct 
748 -49 751 -41 756 -36 ct 760 -30 765 -26 771 -24 ct 777 -21 785 -20 793 -20 ct 
801 -20 808 -22 814 -25 ct 820 -28 824 -33 828 -39 ct 831 -46 833 -53 835 -63 ct 
836 -72 837 -82 837 -94 ct p ef
897 -226 m  897 -256 l  928 -256 l  928 -226 l  897 -226 l  p
897 0 m  897 -187 l  928 -187 l  928 0 l  897 0 l  p ef
1001 -87 m  1001 -77 1002 -68 1004 -60 ct 1006 -52 1009 -45 1013 -39 ct 1017 -33 1022 -28 1029 -25 ct 
1036 -22 1043 -20 1053 -20 ct 1066 -20 1077 -23 1085 -28 ct 1093 -34 1099 -41 1101 -49 ct 
1129 -41 l  1127 -36 1124 -31 1120 -26 ct 1117 -20 1112 -16 1106 -11 ct 1101 -7 1093 -4 1084 -1 ct 
1076 2 1065 3 1053 3 ct 1025 3 1004 -5 990 -22 ct 975 -38 968 -62 968 -95 ct 968 -112 970 -127 975 -139 ct 
979 -151 985 -161 992 -169 ct 1000 -176 1009 -182 1019 -185 ct 1029 -188 1040 -190 1051 -190 ct 
1067 -190 1080 -187 1091 -182 ct 1101 -177 1110 -170 1116 -162 ct 1122 -153 1127 -142 1130 -130 ct 
1132 -118 1134 -105 1134 -91 ct 1134 -87 l  1001 -87 l  p
1102 -111 m  1100 -130 1095 -145 1087 -154 ct 1078 -163 1066 -167 1051 -167 ct 
1046 -167 1040 -166 1035 -165 ct 1029 -163 1024 -160 1019 -156 ct 1014 -152 1010 -146 1007 -139 ct 
1003 -131 1001 -122 1001 -111 ct 1102 -111 l  p ef
1162 0 m  1162 -256 l  1193 -256 l  1193 0 l  1162 0 l  p ef
1504 -68 m  1504 -57 1502 -47 1498 -38 ct 1495 -29 1489 -22 1483 -16 ct 1476 -10 1467 -5 1457 -2 ct 
1446 1 1435 3 1421 3 ct 1406 3 1394 1 1383 -3 ct 1373 -6 1365 -11 1358 -17 ct 1351 -24 1346 -31 1343 -39 ct 
1340 -46 1337 -55 1336 -63 ct 1369 -66 l  1369 -60 1371 -54 1374 -48 ct 1376 -43 1379 -38 1384 -35 ct 
1388 -31 1393 -28 1399 -26 ct 1406 -24 1413 -23 1421 -23 ct 1437 -23 1449 -27 1458 -34 ct 
1467 -42 1472 -54 1472 -69 ct 1472 -78 1470 -85 1466 -90 ct 1462 -96 1457 -100 1451 -103 ct 
1445 -106 1438 -108 1432 -109 ct 1425 -110 1418 -111 1412 -111 ct 1395 -111 l 
1395 -138 l  1412 -138 l  1417 -138 1424 -139 1430 -140 ct 1436 -141 1442 -143 1447 -146 ct 
1452 -149 1457 -154 1460 -159 ct 1464 -164 1465 -171 1465 -180 ct 1465 -193 1461 -203 1454 -210 ct 
1446 -218 1435 -221 1420 -221 ct 1406 -221 1395 -218 1387 -211 ct 1378 -204 1373 -194 1372 -182 ct 
1341 -184 l  1342 -195 1345 -204 1349 -212 ct 1354 -220 1360 -226 1367 -231 ct 
1374 -237 1382 -241 1391 -243 ct 1400 -246 1410 -247 1420 -247 ct 1434 -247 1445 -245 1455 -242 ct 
1465 -239 1473 -234 1479 -228 ct 1485 -222 1490 -216 1493 -208 ct 1496 -200 1497 -192 1497 -183 ct 
1497 -176 1496 -169 1494 -163 ct 1492 -157 1489 -151 1485 -146 ct 1481 -141 1476 -137 1469 -134 ct 
1463 -130 1455 -127 1446 -125 ct 1446 -125 l  1456 -124 1465 -122 1472 -118 ct 
1479 -115 1485 -111 1490 -105 ct 1494 -100 1498 -95 1500 -88 ct 1503 -82 1504 -75 1504 -68 ct 
p ef
pom
pum
11243 14178 t
217 -68 m  217 -56 214 -46 210 -37 ct 205 -28 198 -21 190 -16 ct 182 -10 172 -6 162 -4 ct 
151 -1 140 0 128 0 ct 29 0 l  29 -243 l  117 -243 l  131 -243 143 -242 153 -240 ct 
164 -237 173 -234 180 -229 ct 187 -224 193 -218 197 -211 ct 201 -203 203 -194 203 -184 ct 
203 -177 202 -171 200 -165 ct 198 -159 195 -153 191 -149 ct 187 -144 183 -140 177 -136 ct 
171 -132 164 -130 157 -128 ct 166 -127 175 -125 182 -121 ct 190 -118 196 -114 201 -109 ct 
206 -103 210 -97 213 -91 ct 216 -84 217 -76 217 -68 ct p
170 -180 m  170 -193 165 -203 156 -208 ct 147 -214 134 -217 117 -217 ct 62 -217 l 
62 -140 l  117 -140 l  127 -140 135 -141 142 -143 ct 148 -144 154 -147 158 -151 ct 
162 -154 165 -158 167 -163 ct 169 -168 170 -174 170 -180 ct p
184 -71 m  184 -79 182 -85 179 -91 ct 177 -96 172 -101 167 -104 ct 162 -107 156 -110 148 -112 ct 
141 -113 132 -114 123 -114 ct 62 -114 l  62 -26 l  126 -26 l  134 -26 142 -27 149 -28 ct 
156 -30 162 -32 167 -36 ct 172 -39 176 -44 179 -49 ct 182 -55 184 -62 184 -71 ct 
p ef
286 -87 m  286 -77 287 -68 289 -60 ct 291 -52 294 -45 298 -39 ct 302 -33 307 -28 314 -25 ct 
321 -22 328 -20 338 -20 ct 351 -20 362 -23 370 -28 ct 378 -34 384 -41 386 -49 ct 
414 -41 l  412 -36 409 -31 405 -26 ct 402 -20 397 -16 391 -11 ct 386 -7 378 -4 369 -1 ct 
361 2 350 3 338 3 ct 310 3 289 -5 275 -22 ct 260 -38 253 -62 253 -95 ct 253 -112 255 -127 260 -139 ct 
264 -151 270 -161 277 -169 ct 285 -176 294 -182 304 -185 ct 314 -188 325 -190 336 -190 ct 
352 -190 365 -187 376 -182 ct 386 -177 395 -170 401 -162 ct 407 -153 412 -142 415 -130 ct 
417 -118 419 -105 419 -91 ct 419 -87 l  286 -87 l  p
387 -111 m  385 -130 380 -145 372 -154 ct 363 -163 351 -167 336 -167 ct 331 -167 325 -166 320 -165 ct 
314 -163 309 -160 304 -156 ct 299 -152 295 -146 292 -139 ct 288 -131 286 -122 286 -111 ct 
387 -111 l  p ef
447 -226 m  447 -256 l  478 -256 l  478 -226 l  447 -226 l  p
447 0 m  447 -187 l  478 -187 l  478 0 l  447 0 l  p ef
667 -52 m  667 -43 665 -36 662 -29 ct 658 -22 653 -16 647 -11 ct 640 -7 633 -3 623 -1 ct 
614 2 603 3 591 3 ct 580 3 571 2 562 1 ct 553 -1 546 -4 539 -8 ct 532 -11 527 -16 523 -22 ct 
518 -28 515 -36 513 -44 ct 540 -50 l  543 -40 548 -32 557 -28 ct 565 -23 576 -21 591 -21 ct 
598 -21 604 -21 609 -22 ct 615 -23 620 -25 624 -27 ct 628 -29 631 -32 633 -36 ct 
635 -39 637 -44 637 -50 ct 637 -55 635 -60 633 -63 ct 630 -67 626 -70 622 -73 ct 
617 -75 611 -77 604 -79 ct 598 -81 590 -83 582 -85 ct 575 -87 567 -89 560 -91 ct 
553 -94 546 -97 540 -101 ct 534 -105 529 -110 526 -116 ct 522 -122 520 -129 520 -138 ct 
520 -155 526 -168 538 -177 ct 551 -186 568 -190 591 -190 ct 612 -190 628 -186 640 -179 ct 
653 -172 660 -160 663 -144 ct 636 -141 l  635 -146 633 -150 630 -153 ct 627 -156 624 -159 620 -161 ct 
616 -163 612 -164 607 -165 ct 602 -166 597 -167 591 -167 ct 577 -167 567 -164 560 -160 ct 
554 -156 550 -149 550 -141 ct 550 -136 552 -132 554 -128 ct 557 -125 560 -122 564 -120 ct 
569 -118 574 -116 580 -114 ct 587 -113 593 -111 601 -109 ct 606 -108 611 -106 616 -105 ct 
621 -103 626 -102 631 -100 ct 636 -98 641 -95 645 -93 ct 649 -90 653 -87 656 -83 ct 
659 -79 662 -75 664 -70 ct 666 -65 667 -59 667 -52 ct p ef
870 -94 m  870 -80 868 -67 866 -55 ct 864 -43 860 -33 855 -25 ct 849 -16 842 -9 833 -4 ct 
825 1 814 3 801 3 ct 788 3 776 0 766 -5 ct 756 -10 748 -18 743 -29 ct 742 -29 l 
742 -29 742 -28 742 -26 ct 742 -24 743 -22 743 -19 ct 743 -17 743 -14 743 -10 ct 
743 -7 743 -3 743 0 ct 743 73 l  712 73 l  712 -149 l  712 -154 712 -158 712 -162 ct 
712 -166 712 -170 711 -174 ct 711 -177 711 -180 711 -182 ct 711 -185 711 -186 711 -186 ct 
741 -186 l  741 -186 741 -184 741 -182 ct 741 -180 742 -178 742 -175 ct 742 -172 742 -169 742 -166 ct 
742 -163 742 -160 742 -157 ct 743 -157 l  746 -163 749 -168 753 -172 ct 757 -176 761 -180 766 -182 ct 
770 -185 776 -187 781 -188 ct 787 -189 794 -190 801 -190 ct 814 -190 825 -188 833 -183 ct 
842 -179 849 -172 855 -164 ct 860 -155 864 -145 866 -134 ct 868 -122 870 -109 870 -94 ct 
p
837 -94 m  837 -105 836 -115 835 -124 ct 833 -133 831 -141 828 -147 ct 824 -153 820 -158 814 -161 ct 
809 -164 801 -166 793 -166 ct 786 -166 780 -165 773 -163 ct 767 -161 762 -157 758 -152 ct 
753 -146 749 -139 747 -129 ct 744 -119 743 -107 743 -91 ct 743 -78 744 -67 746 -58 ct 
748 -49 751 -41 756 -36 ct 760 -30 765 -26 771 -24 ct 777 -21 785 -20 793 -20 ct 
801 -20 808 -22 814 -25 ct 820 -28 824 -33 828 -39 ct 831 -46 833 -53 835 -63 ct 
836 -72 837 -82 837 -94 ct p ef
897 -226 m  897 -256 l  928 -256 l  928 -226 l  897 -226 l  p
897 0 m  897 -187 l  928 -187 l  928 0 l  897 0 l  p ef
1001 -87 m  1001 -77 1002 -68 1004 -60 ct 1006 -52 1009 -45 1013 -39 ct 1017 -33 1022 -28 1029 -25 ct 
1036 -22 1043 -20 1053 -20 ct 1066 -20 1077 -23 1085 -28 ct 1093 -34 1099 -41 1101 -49 ct 
1129 -41 l  1127 -36 1124 -31 1120 -26 ct 1117 -20 1112 -16 1106 -11 ct 1101 -7 1093 -4 1084 -1 ct 
1076 2 1065 3 1053 3 ct 1025 3 1004 -5 990 -22 ct 975 -38 968 -62 968 -95 ct 968 -112 970 -127 975 -139 ct 
979 -151 985 -161 992 -169 ct 1000 -176 1009 -182 1019 -185 ct 1029 -188 1040 -190 1051 -190 ct 
1067 -190 1080 -187 1091 -182 ct 1101 -177 1110 -170 1116 -162 ct 1122 -153 1127 -142 1130 -130 ct 
1132 -118 1134 -105 1134 -91 ct 1134 -87 l  1001 -87 l  p
1102 -111 m  1100 -130 1095 -145 1087 -154 ct 1078 -163 1066 -167 1051 -167 ct 
1046 -167 1040 -166 1035 -165 ct 1029 -163 1024 -160 1019 -156 ct 1014 -152 1010 -146 1007 -139 ct 
1003 -131 1001 -122 1001 -111 ct 1102 -111 l  p ef
1162 0 m  1162 -256 l  1193 -256 l  1193 0 l  1162 0 l  p ef
1475 -55 m  1475 0 l  1446 0 l  1446 -55 l  1331 -55 l  1331 -79 l  1442 -243 l 
1475 -243 l  1475 -79 l  1509 -79 l  1509 -55 l  1475 -55 l  p
1446 -208 m  1445 -207 1445 -206 1444 -205 ct 1443 -203 1442 -201 1441 -199 ct 
1440 -197 1438 -195 1437 -193 ct 1436 -191 1435 -189 1434 -187 ct 1372 -95 l 
1371 -94 1370 -93 1369 -91 ct 1368 -90 1367 -88 1366 -87 ct 1365 -85 1364 -84 1362 -82 ct 
1361 -81 1360 -80 1360 -80 ct 1446 -80 l  1446 -208 l  p ef
pom
pum
14169 14178 t
217 -68 m  217 -56 214 -46 210 -37 ct 205 -28 198 -21 190 -16 ct 182 -10 172 -6 162 -4 ct 
151 -1 140 0 128 0 ct 29 0 l  29 -243 l  117 -243 l  131 -243 143 -242 153 -240 ct 
164 -237 173 -234 180 -229 ct 187 -224 193 -218 197 -211 ct 201 -203 203 -194 203 -184 ct 
203 -177 202 -171 200 -165 ct 198 -159 195 -153 191 -149 ct 187 -144 183 -140 177 -136 ct 
171 -132 164 -130 157 -128 ct 166 -127 175 -125 182 -121 ct 190 -118 196 -114 201 -109 ct 
206 -103 210 -97 213 -91 ct 216 -84 217 -76 217 -68 ct p
170 -180 m  170 -193 165 -203 156 -208 ct 147 -214 134 -217 117 -217 ct 62 -217 l 
62 -140 l  117 -140 l  127 -140 135 -141 142 -143 ct 148 -144 154 -147 158 -151 ct 
162 -154 165 -158 167 -163 ct 169 -168 170 -174 170 -180 ct p
184 -71 m  184 -79 182 -85 179 -91 ct 177 -96 172 -101 167 -104 ct 162 -107 156 -110 148 -112 ct 
141 -113 132 -114 123 -114 ct 62 -114 l  62 -26 l  126 -26 l  134 -26 142 -27 149 -28 ct 
156 -30 162 -32 167 -36 ct 172 -39 176 -44 179 -49 ct 182 -55 184 -62 184 -71 ct 
p ef
286 -87 m  286 -77 287 -68 289 -60 ct 291 -52 294 -45 298 -39 ct 302 -33 307 -28 314 -25 ct 
321 -22 328 -20 338 -20 ct 351 -20 362 -23 370 -28 ct 378 -34 384 -41 386 -49 ct 
414 -41 l  412 -36 409 -31 405 -26 ct 402 -20 397 -16 391 -11 ct 386 -7 378 -4 369 -1 ct 
361 2 350 3 338 3 ct 310 3 289 -5 275 -22 ct 260 -38 253 -62 253 -95 ct 253 -112 255 -127 260 -139 ct 
264 -151 270 -161 277 -169 ct 285 -176 294 -182 304 -185 ct 314 -188 325 -190 336 -190 ct 
352 -190 365 -187 376 -182 ct 386 -177 395 -170 401 -162 ct 407 -153 412 -142 415 -130 ct 
417 -118 419 -105 419 -91 ct 419 -87 l  286 -87 l  p
387 -111 m  385 -130 380 -145 372 -154 ct 363 -163 351 -167 336 -167 ct 331 -167 325 -166 320 -165 ct 
314 -163 309 -160 304 -156 ct 299 -152 295 -146 292 -139 ct 288 -131 286 -122 286 -111 ct 
387 -111 l  p ef
447 -226 m  447 -256 l  478 -256 l  478 -226 l  447 -226 l  p
447 0 m  447 -187 l  478 -187 l  478 0 l  447 0 l  p ef
667 -52 m  667 -43 665 -36 662 -29 ct 658 -22 653 -16 647 -11 ct 640 -7 633 -3 623 -1 ct 
614 2 603 3 591 3 ct 580 3 571 2 562 1 ct 553 -1 546 -4 539 -8 ct 532 -11 527 -16 523 -22 ct 
518 -28 515 -36 513 -44 ct 540 -50 l  543 -40 548 -32 557 -28 ct 565 -23 576 -21 591 -21 ct 
598 -21 604 -21 609 -22 ct 615 -23 620 -25 624 -27 ct 628 -29 631 -32 633 -36 ct 
635 -39 637 -44 637 -50 ct 637 -55 635 -60 633 -63 ct 630 -67 626 -70 622 -73 ct 
617 -75 611 -77 604 -79 ct 598 -81 590 -83 582 -85 ct 575 -87 567 -89 560 -91 ct 
553 -94 546 -97 540 -101 ct 534 -105 529 -110 526 -116 ct 522 -122 520 -129 520 -138 ct 
520 -155 526 -168 538 -177 ct 551 -186 568 -190 591 -190 ct 612 -190 628 -186 640 -179 ct 
653 -172 660 -160 663 -144 ct 636 -141 l  635 -146 633 -150 630 -153 ct 627 -156 624 -159 620 -161 ct 
616 -163 612 -164 607 -165 ct 602 -166 597 -167 591 -167 ct 577 -167 567 -164 560 -160 ct 
554 -156 550 -149 550 -141 ct 550 -136 552 -132 554 -128 ct 557 -125 560 -122 564 -120 ct 
569 -118 574 -116 580 -114 ct 587 -113 593 -111 601 -109 ct 606 -108 611 -106 616 -105 ct 
621 -103 626 -102 631 -100 ct 636 -98 641 -95 645 -93 ct 649 -90 653 -87 656 -83 ct 
659 -79 662 -75 664 -70 ct 666 -65 667 -59 667 -52 ct p ef
870 -94 m  870 -80 868 -67 866 -55 ct 864 -43 860 -33 855 -25 ct 849 -16 842 -9 833 -4 ct 
825 1 814 3 801 3 ct 788 3 776 0 766 -5 ct 756 -10 748 -18 743 -29 ct 742 -29 l 
742 -29 742 -28 742 -26 ct 742 -24 743 -22 743 -19 ct 743 -17 743 -14 743 -10 ct 
743 -7 743 -3 743 0 ct 743 73 l  712 73 l  712 -149 l  712 -154 712 -158 712 -162 ct 
712 -166 712 -170 711 -174 ct 711 -177 711 -180 711 -182 ct 711 -185 711 -186 711 -186 ct 
741 -186 l  741 -186 741 -184 741 -182 ct 741 -180 742 -178 742 -175 ct 742 -172 742 -169 742 -166 ct 
742 -163 742 -160 742 -157 ct 743 -157 l  746 -163 749 -168 753 -172 ct 757 -176 761 -180 766 -182 ct 
770 -185 776 -187 781 -188 ct 787 -189 794 -190 801 -190 ct 814 -190 825 -188 833 -183 ct 
842 -179 849 -172 855 -164 ct 860 -155 864 -145 866 -134 ct 868 -122 870 -109 870 -94 ct 
p
837 -94 m  837 -105 836 -115 835 -124 ct 833 -133 831 -141 828 -147 ct 824 -153 820 -158 814 -161 ct 
809 -164 801 -166 793 -166 ct 786 -166 780 -165 773 -163 ct 767 -161 762 -157 758 -152 ct 
753 -146 749 -139 747 -129 ct 744 -119 743 -107 743 -91 ct 743 -78 744 -67 746 -58 ct 
748 -49 751 -41 756 -36 ct 760 -30 765 -26 771 -24 ct 777 -21 785 -20 793 -20 ct 
801 -20 808 -22 814 -25 ct 820 -28 824 -33 828 -39 ct 831 -46 833 -53 835 -63 ct 
836 -72 837 -82 837 -94 ct p ef
897 -226 m  897 -256 l  928 -256 l  928 -226 l  897 -226 l  p
897 0 m  897 -187 l  928 -187 l  928 0 l  897 0 l  p ef
1001 -87 m  1001 -77 1002 -68 1004 -60 ct 1006 -52 1009 -45 1013 -39 ct 1017 -33 1022 -28 1029 -25 ct 
1036 -22 1043 -20 1053 -20 ct 1066 -20 1077 -23 1085 -28 ct 1093 -34 1099 -41 1101 -49 ct 
1129 -41 l  1127 -36 1124 -31 1120 -26 ct 1117 -20 1112 -16 1106 -11 ct 1101 -7 1093 -4 1084 -1 ct 
1076 2 1065 3 1053 3 ct 1025 3 1004 -5 990 -22 ct 975 -38 968 -62 968 -95 ct 968 -112 970 -127 975 -139 ct 
979 -151 985 -161 992 -169 ct 1000 -176 1009 -182 1019 -185 ct 1029 -188 1040 -190 1051 -190 ct 
1067 -190 1080 -187 1091 -182 ct 1101 -177 1110 -170 1116 -162 ct 1122 -153 1127 -142 1130 -130 ct 
1132 -118 1134 -105 1134 -91 ct 1134 -87 l  1001 -87 l  p
1102 -111 m  1100 -130 1095 -145 1087 -154 ct 1078 -163 1066 -167 1051 -167 ct 
1046 -167 1040 -166 1035 -165 ct 1029 -163 1024 -160 1019 -156 ct 1014 -152 1010 -146 1007 -139 ct 
1003 -131 1001 -122 1001 -111 ct 1102 -111 l  p ef
1162 0 m  1162 -256 l  1193 -256 l  1193 0 l  1162 0 l  p ef
1505 -80 m  1505 -67 1503 -56 1499 -46 ct 1495 -36 1490 -27 1483 -20 ct 1475 -13 1466 -7 1456 -3 ct 
1445 1 1432 3 1418 3 ct 1406 3 1394 1 1385 -1 ct 1375 -4 1367 -9 1361 -14 ct 1354 -19 1349 -25 1345 -32 ct 
1341 -39 1339 -47 1337 -55 ct 1369 -58 l  1370 -54 1372 -49 1374 -45 ct 1376 -41 1379 -37 1383 -33 ct 
1387 -30 1392 -27 1398 -25 ct 1404 -23 1411 -22 1419 -22 ct 1427 -22 1434 -24 1441 -26 ct 
1447 -29 1453 -32 1458 -37 ct 1462 -42 1466 -48 1468 -55 ct 1471 -62 1472 -70 1472 -79 ct 
1472 -86 1471 -93 1469 -99 ct 1466 -106 1463 -111 1458 -116 ct 1454 -120 1448 -124 1442 -126 ct 
1435 -129 1428 -130 1420 -130 ct 1415 -130 1410 -130 1405 -129 ct 1401 -128 1397 -126 1393 -125 ct 
1390 -123 1386 -121 1383 -119 ct 1380 -117 1377 -115 1375 -113 ct 1344 -113 l 
1352 -243 l  1490 -243 l  1490 -217 l  1381 -217 l  1376 -140 l  1381 -144 1388 -148 1397 -151 ct 
1405 -154 1415 -155 1426 -155 ct 1438 -155 1449 -154 1459 -150 ct 1468 -146 1477 -141 1483 -134 ct 
1490 -128 1495 -120 1499 -110 ct 1503 -101 1505 -91 1505 -80 ct p ef
pom
pum
1319 13731 t
183 -122 m  183 -99 180 -79 176 -63 ct 171 -47 165 -34 158 -25 ct 150 -15 141 -8 131 -3 ct 
120 1 109 3 98 3 ct 86 3 75 1 65 -3 ct 54 -8 46 -15 38 -24 ct 30 -34 25 -47 20 -63 ct 
16 -79 14 -99 14 -122 ct 14 -146 16 -167 20 -183 ct 25 -199 31 -212 38 -221 ct 
46 -231 55 -237 65 -241 ct 75 -245 87 -247 99 -247 ct 110 -247 121 -245 131 -241 ct 
142 -237 150 -231 158 -221 ct 166 -212 172 -199 176 -183 ct 180 -167 183 -146 183 -122 ct 
p
151 -122 m  151 -141 150 -157 148 -170 ct 145 -183 142 -193 137 -201 ct 133 -209 127 -214 121 -217 ct 
114 -220 107 -222 99 -222 ct 90 -222 82 -220 76 -217 ct 69 -214 63 -208 59 -201 ct 
54 -193 51 -183 49 -170 ct 46 -157 45 -141 45 -122 ct 45 -103 46 -88 49 -75 ct 
51 -62 54 -52 59 -44 ct 64 -36 69 -31 76 -27 ct 82 -24 90 -22 98 -22 ct 106 -22 114 -24 120 -27 ct 
127 -31 132 -36 137 -44 ct 141 -52 145 -62 147 -75 ct 150 -88 151 -103 151 -122 ct 
p ef
pom
pum
1028 12951 t
183 -122 m  183 -99 180 -79 176 -63 ct 171 -47 165 -34 158 -25 ct 150 -15 141 -8 131 -3 ct 
120 1 109 3 98 3 ct 86 3 75 1 65 -3 ct 54 -8 46 -15 38 -24 ct 30 -34 25 -47 20 -63 ct 
16 -79 14 -99 14 -122 ct 14 -146 16 -167 20 -183 ct 25 -199 31 -212 38 -221 ct 
46 -231 55 -237 65 -241 ct 75 -245 87 -247 99 -247 ct 110 -247 121 -245 131 -241 ct 
142 -237 150 -231 158 -221 ct 166 -212 172 -199 176 -183 ct 180 -167 183 -146 183 -122 ct 
p
151 -122 m  151 -141 150 -157 148 -170 ct 145 -183 142 -193 137 -201 ct 133 -209 127 -214 121 -217 ct 
114 -220 107 -222 99 -222 ct 90 -222 82 -220 76 -217 ct 69 -214 63 -208 59 -201 ct 
54 -193 51 -183 49 -170 ct 46 -157 45 -141 45 -122 ct 45 -103 46 -88 49 -75 ct 
51 -62 54 -52 59 -44 ct 64 -36 69 -31 76 -27 ct 82 -24 90 -22 98 -22 ct 106 -22 114 -24 120 -27 ct 
127 -31 132 -36 137 -44 ct 141 -52 145 -62 147 -75 ct 150 -88 151 -103 151 -122 ct 
p ef
251 -38 m  251 -9 l  251 -3 251 3 251 8 ct 250 13 249 17 248 22 ct 247 26 246 30 244 34 ct 
242 38 240 41 238 45 ct 217 45 l  222 38 226 30 229 23 ct 232 15 233 7 233 0 ct 
218 0 l  218 -38 l  251 -38 l  p ef
318 0 m  318 -26 l  380 -26 l  380 -213 l  325 -174 l  325 -204 l  382 -243 l 
411 -243 l  411 -26 l  470 -26 l  470 0 l  318 0 l  p ef
pom
pum
1028 12172 t
183 -122 m  183 -99 180 -79 176 -63 ct 171 -47 165 -34 158 -25 ct 150 -15 141 -8 131 -3 ct 
120 1 109 3 98 3 ct 86 3 75 1 65 -3 ct 54 -8 46 -15 38 -24 ct 30 -34 25 -47 20 -63 ct 
16 -79 14 -99 14 -122 ct 14 -146 16 -167 20 -183 ct 25 -199 31 -212 38 -221 ct 
46 -231 55 -237 65 -241 ct 75 -245 87 -247 99 -247 ct 110 -247 121 -245 131 -241 ct 
142 -237 150 -231 158 -221 ct 166 -212 172 -199 176 -183 ct 180 -167 183 -146 183 -122 ct 
p
151 -122 m  151 -141 150 -157 148 -170 ct 145 -183 142 -193 137 -201 ct 133 -209 127 -214 121 -217 ct 
114 -220 107 -222 99 -222 ct 90 -222 82 -220 76 -217 ct 69 -214 63 -208 59 -201 ct 
54 -193 51 -183 49 -170 ct 46 -157 45 -141 45 -122 ct 45 -103 46 -88 49 -75 ct 
51 -62 54 -52 59 -44 ct 64 -36 69 -31 76 -27 ct 82 -24 90 -22 98 -22 ct 106 -22 114 -24 120 -27 ct 
127 -31 132 -36 137 -44 ct 141 -52 145 -62 147 -75 ct 150 -88 151 -103 151 -122 ct 
p ef
251 -38 m  251 -9 l  251 -3 251 3 251 8 ct 250 13 249 17 248 22 ct 247 26 246 30 244 34 ct 
242 38 240 41 238 45 ct 217 45 l  222 38 226 30 229 23 ct 232 15 233 7 233 0 ct 
218 0 l  218 -38 l  251 -38 l  p ef
309 0 m  309 -22 l  315 -35 322 -47 330 -58 ct 339 -68 348 -77 357 -85 ct 366 -94 375 -101 385 -109 ct 
394 -116 402 -123 409 -130 ct 417 -137 423 -145 427 -152 ct 432 -160 434 -169 434 -179 ct 
434 -186 433 -192 431 -197 ct 429 -202 426 -207 422 -210 ct 418 -214 413 -217 408 -218 ct 
402 -220 396 -221 390 -221 ct 383 -221 378 -220 372 -218 ct 367 -217 362 -214 358 -211 ct 
353 -207 350 -203 347 -198 ct 344 -193 343 -187 342 -180 ct 310 -183 l  311 -192 314 -200 317 -208 ct 
321 -215 326 -222 333 -228 ct 340 -234 348 -238 357 -242 ct 366 -245 377 -247 390 -247 ct 
402 -247 412 -245 422 -242 ct 431 -239 439 -235 446 -229 ct 452 -224 457 -217 461 -209 ct 
464 -200 466 -191 466 -180 ct 466 -172 464 -164 461 -157 ct 458 -149 455 -142 450 -136 ct 
445 -129 439 -123 433 -116 ct 426 -110 420 -104 413 -98 ct 406 -92 398 -86 391 -81 ct 
384 -75 378 -69 371 -63 ct 365 -57 359 -51 354 -45 ct 349 -39 346 -33 343 -26 ct 
470 -26 l  470 0 l  309 0 l  p ef
pom
pum
1028 11392 t
183 -122 m  183 -99 180 -79 176 -63 ct 171 -47 165 -34 158 -25 ct 150 -15 141 -8 131 -3 ct 
120 1 109 3 98 3 ct 86 3 75 1 65 -3 ct 54 -8 46 -15 38 -24 ct 30 -34 25 -47 20 -63 ct 
16 -79 14 -99 14 -122 ct 14 -146 16 -167 20 -183 ct 25 -199 31 -212 38 -221 ct 
46 -231 55 -237 65 -241 ct 75 -245 87 -247 99 -247 ct 110 -247 121 -245 131 -241 ct 
142 -237 150 -231 158 -221 ct 166 -212 172 -199 176 -183 ct 180 -167 183 -146 183 -122 ct 
p
151 -122 m  151 -141 150 -157 148 -170 ct 145 -183 142 -193 137 -201 ct 133 -209 127 -214 121 -217 ct 
114 -220 107 -222 99 -222 ct 90 -222 82 -220 76 -217 ct 69 -214 63 -208 59 -201 ct 
54 -193 51 -183 49 -170 ct 46 -157 45 -141 45 -122 ct 45 -103 46 -88 49 -75 ct 
51 -62 54 -52 59 -44 ct 64 -36 69 -31 76 -27 ct 82 -24 90 -22 98 -22 ct 106 -22 114 -24 120 -27 ct 
127 -31 132 -36 137 -44 ct 141 -52 145 -62 147 -75 ct 150 -88 151 -103 151 -122 ct 
p ef
251 -38 m  251 -9 l  251 -3 251 3 251 8 ct 250 13 249 17 248 22 ct 247 26 246 30 244 34 ct 
242 38 240 41 238 45 ct 217 45 l  222 38 226 30 229 23 ct 232 15 233 7 233 0 ct 
218 0 l  218 -38 l  251 -38 l  p ef
472 -68 m  472 -57 470 -47 466 -38 ct 463 -29 457 -22 451 -16 ct 444 -10 435 -5 425 -2 ct 
414 1 403 3 389 3 ct 374 3 362 1 351 -3 ct 341 -6 333 -11 326 -17 ct 319 -24 314 -31 311 -39 ct 
308 -46 305 -55 304 -63 ct 337 -66 l  337 -60 339 -54 342 -48 ct 344 -43 347 -38 352 -35 ct 
356 -31 361 -28 367 -26 ct 374 -24 381 -23 389 -23 ct 405 -23 417 -27 426 -34 ct 
435 -42 440 -54 440 -69 ct 440 -78 438 -85 434 -90 ct 430 -96 425 -100 419 -103 ct 
413 -106 406 -108 400 -109 ct 393 -110 386 -111 380 -111 ct 363 -111 l  363 -138 l 
380 -138 l  385 -138 392 -139 398 -140 ct 404 -141 410 -143 415 -146 ct 420 -149 425 -154 428 -159 ct 
432 -164 433 -171 433 -180 ct 433 -193 429 -203 422 -210 ct 414 -218 403 -221 388 -221 ct 
374 -221 363 -218 355 -211 ct 346 -204 341 -194 340 -182 ct 309 -184 l  310 -195 313 -204 317 -212 ct 
322 -220 328 -226 335 -231 ct 342 -237 350 -241 359 -243 ct 368 -246 378 -247 388 -247 ct 
402 -247 413 -245 423 -242 ct 433 -239 441 -234 447 -228 ct 453 -222 458 -216 461 -208 ct 
464 -200 465 -192 465 -183 ct 465 -176 464 -169 462 -163 ct 460 -157 457 -151 453 -146 ct 
449 -141 444 -137 437 -134 ct 431 -130 423 -127 414 -125 ct 414 -125 l  424 -124 433 -122 440 -118 ct 
447 -115 453 -111 458 -105 ct 462 -100 466 -95 468 -88 ct 471 -82 472 -75 472 -68 ct 
p ef
pom
pum
1028 10613 t
183 -122 m  183 -99 180 -79 176 -63 ct 171 -47 165 -34 158 -25 ct 150 -15 141 -8 131 -3 ct 
120 1 109 3 98 3 ct 86 3 75 1 65 -3 ct 54 -8 46 -15 38 -24 ct 30 -34 25 -47 20 -63 ct 
16 -79 14 -99 14 -122 ct 14 -146 16 -167 20 -183 ct 25 -199 31 -212 38 -221 ct 
46 -231 55 -237 65 -241 ct 75 -245 87 -247 99 -247 ct 110 -247 121 -245 131 -241 ct 
142 -237 150 -231 158 -221 ct 166 -212 172 -199 176 -183 ct 180 -167 183 -146 183 -122 ct 
p
151 -122 m  151 -141 150 -157 148 -170 ct 145 -183 142 -193 137 -201 ct 133 -209 127 -214 121 -217 ct 
114 -220 107 -222 99 -222 ct 90 -222 82 -220 76 -217 ct 69 -214 63 -208 59 -201 ct 
54 -193 51 -183 49 -170 ct 46 -157 45 -141 45 -122 ct 45 -103 46 -88 49 -75 ct 
51 -62 54 -52 59 -44 ct 64 -36 69 -31 76 -27 ct 82 -24 90 -22 98 -22 ct 106 -22 114 -24 120 -27 ct 
127 -31 132 -36 137 -44 ct 141 -52 145 -62 147 -75 ct 150 -88 151 -103 151 -122 ct 
p ef
251 -38 m  251 -9 l  251 -3 251 3 251 8 ct 250 13 249 17 248 22 ct 247 26 246 30 244 34 ct 
242 38 240 41 238 45 ct 217 45 l  222 38 226 30 229 23 ct 232 15 233 7 233 0 ct 
218 0 l  218 -38 l  251 -38 l  p ef
443 -55 m  443 0 l  414 0 l  414 -55 l  299 -55 l  299 -79 l  410 -243 l 
443 -243 l  443 -79 l  477 -79 l  477 -55 l  443 -55 l  p
414 -208 m  413 -207 413 -206 412 -205 ct 411 -203 410 -201 409 -199 ct 408 -197 406 -195 405 -193 ct 
404 -191 403 -189 402 -187 ct 340 -95 l  339 -94 338 -93 337 -91 ct 336 -90 335 -88 334 -87 ct 
333 -85 332 -84 330 -82 ct 329 -81 328 -80 328 -80 ct 414 -80 l  414 -208 l 
p ef
pom
pum
1028 9834 t
183 -122 m  183 -99 180 -79 176 -63 ct 171 -47 165 -34 158 -25 ct 150 -15 141 -8 131 -3 ct 
120 1 109 3 98 3 ct 86 3 75 1 65 -3 ct 54 -8 46 -15 38 -24 ct 30 -34 25 -47 20 -63 ct 
16 -79 14 -99 14 -122 ct 14 -146 16 -167 20 -183 ct 25 -199 31 -212 38 -221 ct 
46 -231 55 -237 65 -241 ct 75 -245 87 -247 99 -247 ct 110 -247 121 -245 131 -241 ct 
142 -237 150 -231 158 -221 ct 166 -212 172 -199 176 -183 ct 180 -167 183 -146 183 -122 ct 
p
151 -122 m  151 -141 150 -157 148 -170 ct 145 -183 142 -193 137 -201 ct 133 -209 127 -214 121 -217 ct 
114 -220 107 -222 99 -222 ct 90 -222 82 -220 76 -217 ct 69 -214 63 -208 59 -201 ct 
54 -193 51 -183 49 -170 ct 46 -157 45 -141 45 -122 ct 45 -103 46 -88 49 -75 ct 
51 -62 54 -52 59 -44 ct 64 -36 69 -31 76 -27 ct 82 -24 90 -22 98 -22 ct 106 -22 114 -24 120 -27 ct 
127 -31 132 -36 137 -44 ct 141 -52 145 -62 147 -75 ct 150 -88 151 -103 151 -122 ct 
p ef
251 -38 m  251 -9 l  251 -3 251 3 251 8 ct 250 13 249 17 248 22 ct 247 26 246 30 244 34 ct 
242 38 240 41 238 45 ct 217 45 l  222 38 226 30 229 23 ct 232 15 233 7 233 0 ct 
218 0 l  218 -38 l  251 -38 l  p ef
473 -80 m  473 -67 471 -56 467 -46 ct 463 -36 458 -27 451 -20 ct 443 -13 434 -7 424 -3 ct 
413 1 400 3 386 3 ct 374 3 362 1 353 -1 ct 343 -4 335 -9 329 -14 ct 322 -19 317 -25 313 -32 ct 
309 -39 307 -47 305 -55 ct 337 -58 l  338 -54 340 -49 342 -45 ct 344 -41 347 -37 351 -33 ct 
355 -30 360 -27 366 -25 ct 372 -23 379 -22 387 -22 ct 395 -22 402 -24 409 -26 ct 
415 -29 421 -32 426 -37 ct 430 -42 434 -48 436 -55 ct 439 -62 440 -70 440 -79 ct 
440 -86 439 -93 437 -99 ct 434 -106 431 -111 426 -116 ct 422 -120 416 -124 410 -126 ct 
403 -129 396 -130 388 -130 ct 383 -130 378 -130 373 -129 ct 369 -128 365 -126 361 -125 ct 
358 -123 354 -121 351 -119 ct 348 -117 345 -115 343 -113 ct 312 -113 l  320 -243 l 
458 -243 l  458 -217 l  349 -217 l  344 -140 l  349 -144 356 -148 365 -151 ct 
373 -154 383 -155 394 -155 ct 406 -155 417 -154 427 -150 ct 436 -146 445 -141 451 -134 ct 
458 -128 463 -120 467 -110 ct 471 -101 473 -91 473 -80 ct p ef
pom
pum
1028 9054 t
183 -122 m  183 -99 180 -79 176 -63 ct 171 -47 165 -34 158 -25 ct 150 -15 141 -8 131 -3 ct 
120 1 109 3 98 3 ct 86 3 75 1 65 -3 ct 54 -8 46 -15 38 -24 ct 30 -34 25 -47 20 -63 ct 
16 -79 14 -99 14 -122 ct 14 -146 16 -167 20 -183 ct 25 -199 31 -212 38 -221 ct 
46 -231 55 -237 65 -241 ct 75 -245 87 -247 99 -247 ct 110 -247 121 -245 131 -241 ct 
142 -237 150 -231 158 -221 ct 166 -212 172 -199 176 -183 ct 180 -167 183 -146 183 -122 ct 
p
151 -122 m  151 -141 150 -157 148 -170 ct 145 -183 142 -193 137 -201 ct 133 -209 127 -214 121 -217 ct 
114 -220 107 -222 99 -222 ct 90 -222 82 -220 76 -217 ct 69 -214 63 -208 59 -201 ct 
54 -193 51 -183 49 -170 ct 46 -157 45 -141 45 -122 ct 45 -103 46 -88 49 -75 ct 
51 -62 54 -52 59 -44 ct 64 -36 69 -31 76 -27 ct 82 -24 90 -22 98 -22 ct 106 -22 114 -24 120 -27 ct 
127 -31 132 -36 137 -44 ct 141 -52 145 -62 147 -75 ct 150 -88 151 -103 151 -122 ct 
p ef
251 -38 m  251 -9 l  251 -3 251 3 251 8 ct 250 13 249 17 248 22 ct 247 26 246 30 244 34 ct 
242 38 240 41 238 45 ct 217 45 l  222 38 226 30 229 23 ct 232 15 233 7 233 0 ct 
218 0 l  218 -38 l  251 -38 l  p ef
472 -80 m  472 -68 470 -57 467 -47 ct 463 -36 458 -28 452 -20 ct 445 -13 437 -7 427 -3 ct 
417 1 406 3 393 3 ct 379 3 367 0 356 -5 ct 346 -11 337 -18 330 -28 ct 323 -39 318 -51 314 -66 ct 
311 -81 309 -97 309 -116 ct 309 -138 311 -157 315 -173 ct 319 -190 325 -203 332 -214 ct 
339 -225 349 -233 359 -239 ct 370 -244 382 -247 396 -247 ct 404 -247 412 -246 419 -244 ct 
426 -243 433 -240 439 -236 ct 445 -232 450 -227 454 -221 ct 459 -215 462 -207 465 -198 ct 
435 -192 l  432 -203 427 -210 420 -215 ct 413 -220 405 -222 395 -222 ct 387 -222 379 -220 372 -216 ct 
365 -212 360 -206 355 -198 ct 350 -190 346 -180 344 -168 ct 341 -156 340 -142 340 -126 ct 
345 -136 353 -144 364 -150 ct 374 -155 386 -158 399 -158 ct 410 -158 420 -156 429 -153 ct 
438 -149 445 -144 452 -137 ct 458 -130 463 -122 467 -113 ct 470 -103 472 -92 472 -80 ct 
p
440 -79 m  440 -87 439 -95 437 -102 ct 435 -108 432 -114 428 -119 ct 424 -124 419 -128 413 -130 ct 
406 -133 399 -134 391 -134 ct 386 -134 380 -133 374 -131 ct 369 -130 363 -127 359 -123 ct 
354 -120 350 -115 347 -109 ct 344 -102 343 -95 343 -86 ct 343 -77 344 -69 346 -61 ct 
349 -53 352 -46 356 -41 ct 361 -35 366 -30 372 -27 ct 378 -24 385 -22 392 -22 ct 
400 -22 407 -23 412 -26 ct 418 -29 423 -32 428 -37 ct 432 -42 435 -48 437 -55 ct 
439 -62 440 -70 440 -79 ct p ef
pom
pum
1028 8275 t
183 -122 m  183 -99 180 -79 176 -63 ct 171 -47 165 -34 158 -25 ct 150 -15 141 -8 131 -3 ct 
120 1 109 3 98 3 ct 86 3 75 1 65 -3 ct 54 -8 46 -15 38 -24 ct 30 -34 25 -47 20 -63 ct 
16 -79 14 -99 14 -122 ct 14 -146 16 -167 20 -183 ct 25 -199 31 -212 38 -221 ct 
46 -231 55 -237 65 -241 ct 75 -245 87 -247 99 -247 ct 110 -247 121 -245 131 -241 ct 
142 -237 150 -231 158 -221 ct 166 -212 172 -199 176 -183 ct 180 -167 183 -146 183 -122 ct 
p
151 -122 m  151 -141 150 -157 148 -170 ct 145 -183 142 -193 137 -201 ct 133 -209 127 -214 121 -217 ct 
114 -220 107 -222 99 -222 ct 90 -222 82 -220 76 -217 ct 69 -214 63 -208 59 -201 ct 
54 -193 51 -183 49 -170 ct 46 -157 45 -141 45 -122 ct 45 -103 46 -88 49 -75 ct 
51 -62 54 -52 59 -44 ct 64 -36 69 -31 76 -27 ct 82 -24 90 -22 98 -22 ct 106 -22 114 -24 120 -27 ct 
127 -31 132 -36 137 -44 ct 141 -52 145 -62 147 -75 ct 150 -88 151 -103 151 -122 ct 
p ef
251 -38 m  251 -9 l  251 -3 251 3 251 8 ct 250 13 249 17 248 22 ct 247 26 246 30 244 34 ct 
242 38 240 41 238 45 ct 217 45 l  222 38 226 30 229 23 ct 232 15 233 7 233 0 ct 
218 0 l  218 -38 l  251 -38 l  p ef
470 -218 m  457 -200 446 -182 436 -165 ct 426 -147 417 -130 410 -113 ct 402 -95 397 -77 392 -59 ct 
388 -41 386 -21 386 -1 ct 354 -1 l  354 -20 356 -39 361 -58 ct 365 -76 372 -95 379 -113 ct 
387 -131 396 -148 407 -166 ct 417 -183 428 -200 440 -217 ct 309 -217 l  309 -243 l 
470 -243 l  470 -218 l  p ef
pom
pum
1028 7495 t
183 -122 m  183 -99 180 -79 176 -63 ct 171 -47 165 -34 158 -25 ct 150 -15 141 -8 131 -3 ct 
120 1 109 3 98 3 ct 86 3 75 1 65 -3 ct 54 -8 46 -15 38 -24 ct 30 -34 25 -47 20 -63 ct 
16 -79 14 -99 14 -122 ct 14 -146 16 -167 20 -183 ct 25 -199 31 -212 38 -221 ct 
46 -231 55 -237 65 -241 ct 75 -245 87 -247 99 -247 ct 110 -247 121 -245 131 -241 ct 
142 -237 150 -231 158 -221 ct 166 -212 172 -199 176 -183 ct 180 -167 183 -146 183 -122 ct 
p
151 -122 m  151 -141 150 -157 148 -170 ct 145 -183 142 -193 137 -201 ct 133 -209 127 -214 121 -217 ct 
114 -220 107 -222 99 -222 ct 90 -222 82 -220 76 -217 ct 69 -214 63 -208 59 -201 ct 
54 -193 51 -183 49 -170 ct 46 -157 45 -141 45 -122 ct 45 -103 46 -88 49 -75 ct 
51 -62 54 -52 59 -44 ct 64 -36 69 -31 76 -27 ct 82 -24 90 -22 98 -22 ct 106 -22 114 -24 120 -27 ct 
127 -31 132 -36 137 -44 ct 141 -52 145 -62 147 -75 ct 150 -88 151 -103 151 -122 ct 
p ef
251 -38 m  251 -9 l  251 -3 251 3 251 8 ct 250 13 249 17 248 22 ct 247 26 246 30 244 34 ct 
242 38 240 41 238 45 ct 217 45 l  222 38 226 30 229 23 ct 232 15 233 7 233 0 ct 
218 0 l  218 -38 l  251 -38 l  p ef
472 -68 m  472 -58 470 -48 467 -40 ct 464 -31 459 -24 452 -17 ct 445 -11 437 -6 426 -2 ct 
416 1 404 3 389 3 ct 375 3 363 1 352 -2 ct 342 -6 333 -11 326 -17 ct 320 -23 315 -31 311 -40 ct 
308 -48 306 -58 306 -68 ct 306 -77 308 -85 310 -92 ct 313 -98 317 -104 321 -109 ct 
326 -114 331 -118 337 -121 ct 343 -125 349 -127 355 -128 ct 355 -128 l  348 -130 342 -132 337 -136 ct 
331 -140 327 -144 323 -149 ct 320 -154 317 -159 315 -166 ct 313 -172 312 -178 312 -185 ct 
312 -193 314 -201 317 -209 ct 320 -216 325 -223 332 -229 ct 338 -234 346 -239 355 -242 ct 
365 -245 376 -247 389 -247 ct 402 -247 413 -245 423 -242 ct 433 -239 441 -234 447 -228 ct 
453 -223 458 -216 461 -209 ct 464 -201 466 -193 466 -184 ct 466 -178 465 -171 463 -165 ct 
461 -159 458 -154 455 -149 ct 451 -144 447 -139 441 -136 ct 436 -132 430 -130 423 -129 ct 
423 -128 l  430 -127 436 -125 442 -122 ct 448 -119 453 -115 458 -110 ct 462 -105 466 -99 468 -92 ct 
471 -85 472 -77 472 -68 ct p
434 -183 m  434 -189 433 -194 431 -199 ct 430 -204 427 -209 424 -212 ct 420 -216 416 -219 410 -221 ct 
404 -223 397 -224 389 -224 ct 380 -224 374 -223 368 -221 ct 362 -219 358 -216 354 -212 ct 
350 -209 348 -204 346 -199 ct 345 -194 344 -189 344 -183 ct 344 -178 344 -173 346 -168 ct 
347 -163 349 -158 353 -154 ct 356 -150 360 -147 366 -144 ct 372 -141 380 -140 389 -140 ct 
399 -140 407 -141 412 -144 ct 418 -147 423 -150 426 -154 ct 429 -158 431 -163 432 -168 ct 
433 -173 434 -178 434 -183 ct p
440 -71 m  440 -77 439 -83 437 -88 ct 436 -94 433 -98 429 -103 ct 425 -107 420 -110 413 -113 ct 
407 -115 398 -117 389 -117 ct 379 -117 372 -115 365 -113 ct 359 -110 354 -107 350 -103 ct 
346 -98 343 -93 341 -88 ct 339 -82 338 -76 338 -70 ct 338 -63 339 -56 341 -50 ct 
343 -44 346 -39 350 -34 ct 354 -30 359 -26 366 -24 ct 372 -21 380 -20 390 -20 ct 
399 -20 407 -21 413 -24 ct 420 -26 425 -30 429 -34 ct 433 -39 436 -44 437 -50 ct 
439 -56 440 -63 440 -71 ct p ef
pom
pum
1028 6716 t
183 -122 m  183 -99 180 -79 176 -63 ct 171 -47 165 -34 158 -25 ct 150 -15 141 -8 131 -3 ct 
120 1 109 3 98 3 ct 86 3 75 1 65 -3 ct 54 -8 46 -15 38 -24 ct 30 -34 25 -47 20 -63 ct 
16 -79 14 -99 14 -122 ct 14 -146 16 -167 20 -183 ct 25 -199 31 -212 38 -221 ct 
46 -231 55 -237 65 -241 ct 75 -245 87 -247 99 -247 ct 110 -247 121 -245 131 -241 ct 
142 -237 150 -231 158 -221 ct 166 -212 172 -199 176 -183 ct 180 -167 183 -146 183 -122 ct 
p
151 -122 m  151 -141 150 -157 148 -170 ct 145 -183 142 -193 137 -201 ct 133 -209 127 -214 121 -217 ct 
114 -220 107 -222 99 -222 ct 90 -222 82 -220 76 -217 ct 69 -214 63 -208 59 -201 ct 
54 -193 51 -183 49 -170 ct 46 -157 45 -141 45 -122 ct 45 -103 46 -88 49 -75 ct 
51 -62 54 -52 59 -44 ct 64 -36 69 -31 76 -27 ct 82 -24 90 -22 98 -22 ct 106 -22 114 -24 120 -27 ct 
127 -31 132 -36 137 -44 ct 141 -52 145 -62 147 -75 ct 150 -88 151 -103 151 -122 ct 
p ef
251 -38 m  251 -9 l  251 -3 251 3 251 8 ct 250 13 249 17 248 22 ct 247 26 246 30 244 34 ct 
242 38 240 41 238 45 ct 217 45 l  222 38 226 30 229 23 ct 232 15 233 7 233 0 ct 
218 0 l  218 -38 l  251 -38 l  p ef
471 -127 m  471 -105 469 -86 464 -70 ct 460 -54 455 -40 447 -29 ct 439 -19 430 -11 419 -5 ct 
408 0 396 3 383 3 ct 373 3 365 2 358 0 ct 350 -2 343 -5 338 -9 ct 332 -13 327 -18 323 -24 ct 
318 -31 315 -39 313 -48 ct 342 -52 l  345 -42 350 -34 357 -29 ct 364 -24 373 -22 383 -22 ct 
392 -22 399 -24 406 -28 ct 413 -32 419 -38 424 -46 ct 429 -54 433 -64 435 -76 ct 
438 -88 440 -102 440 -118 ct 438 -112 434 -108 430 -103 ct 426 -99 421 -95 416 -93 ct 
410 -90 405 -87 398 -86 ct 392 -84 386 -84 380 -84 ct 369 -84 359 -86 350 -89 ct 
341 -93 333 -99 327 -106 ct 321 -113 316 -122 313 -132 ct 309 -142 308 -153 308 -165 ct 
308 -178 309 -189 313 -199 ct 317 -209 322 -218 329 -225 ct 336 -232 344 -238 354 -241 ct 
364 -245 376 -247 388 -247 ct 415 -247 436 -237 450 -217 ct 464 -197 471 -167 471 -127 ct 
p
437 -157 m  437 -166 436 -174 434 -182 ct 432 -190 428 -197 424 -203 ct 420 -209 415 -213 409 -217 ct 
403 -220 395 -222 387 -222 ct 380 -222 373 -221 367 -218 ct 361 -215 356 -211 352 -207 ct 
348 -202 345 -196 342 -189 ct 340 -182 339 -174 339 -165 ct 339 -157 340 -150 342 -143 ct 
344 -136 347 -130 351 -124 ct 355 -119 360 -115 366 -112 ct 372 -109 379 -108 387 -108 ct 
393 -108 399 -109 405 -111 ct 410 -113 416 -116 421 -120 ct 425 -124 429 -129 432 -135 ct 
435 -141 437 -149 437 -157 ct p ef
pom
pum
1319 5937 t
27 0 m  27 -26 l  89 -26 l  89 -213 l  34 -174 l  34 -204 l  91 -243 l 
120 -243 l  120 -26 l  179 -26 l  179 0 l  27 0 l  p ef
pom
0 9001 t 
pom
count op_count sub {pop} repeat countdictstack dict_count sub {end} repeat b4_inc_state restore
%%PageTrailer
%%Trailer
%%EOF
